{
    "_id": "IoBhge83aYpq0pPV",
    "data": {
        "boosts": {
            "0": {
                "value": [
                    "con",
                    "int"
                ]
            },
            "1": {
                "value": [
                    "cha",
                    "con",
                    "dex",
                    "int",
                    "str",
                    "wis"
                ]
            }
        },
        "description": {
            "value": "<p>You've excavated enough sites to know that ancient civilizations aren't lost; they're merely buried and waiting for the right scholar to unearth them and tell their story. You might have worked as a laborer or local guide before learning formal archaeological techniques.</p>\n<p>Choose two ability boosts. One must be to <strong>Constitution</strong> or <strong>Intelligence</strong>, and one is a free ability boost.</p>\n<p>You're trained in the Society skill and the Architecture Lore skill. You gain the @Compendium[pf2e.feats-srd.Additional Lore]{Additional Lore} skill feat related to an ancient culture or the history of a culture you've studied (such as Azlanti Lore or Osirian History Lore).</p>"
        },
        "items": {
            "pqvep": {
                "id": "BocFD2KV0qgUC76x",
                "img": "systems/pf2e/icons/features/feats/feats.webp",
                "level": "1",
                "name": "Additional Lore",
                "pack": "pf2e.feats-srd"
            }
        },
        "rules": [],
        "source": {
            "value": ""
        },
        "trainedLore": "Architecture Lore",
        "trainedSkills": {
            "value": [
                "soc"
            ]
        },
        "traits": {
            "custom": "",
            "rarity": {
                "value": "common"
            },
            "value": []
        }
    },
    "effects": [],
    "flags": {},
    "img": "systems/pf2e/icons/default-icons/background.svg",
    "name": "Archaeologist",
    "type": "background"
}
