{
    "_id": "DBxOUwM7qhGH8MrF",
    "data": {
        "boosts": {
            "0": {
                "value": [
                    "dex",
                    "int"
                ]
            },
            "1": {
                "value": [
                    "cha",
                    "con",
                    "dex",
                    "int",
                    "str",
                    "wis"
                ]
            }
        },
        "description": {
            "value": "<p>In your youth, you earned coin running messages for persons of wealth and influence, darting through crowded cobblestone streets. Your dogged commitment to deliver your message was good training for the life of an adventurer.</p>\n<p>Choose two ability boosts. One must be to <strong>Dexterity</strong> or <strong>Intelligence</strong>, and one is a free ability boost.</p>\n<p>You're trained in the Society skill and the Lore skill for the city in which you were raised. You gain the @Compendium[pf2e.feats-srd.Glean Contents]{Glean Contents} skill feat.</p>"
        },
        "items": {
            "30vfa": {
                "id": "WeQGWvlWdeLeOlCN",
                "img": "systems/pf2e/icons/features/feats/feats.webp",
                "level": "1",
                "name": "Glean Contents",
                "pack": "pf2e.feats-srd"
            }
        },
        "rules": [],
        "source": {
            "value": ""
        },
        "trainedLore": "<City> Lore",
        "trainedSkills": {
            "value": [
                "soc"
            ]
        },
        "traits": {
            "custom": "",
            "rarity": {
                "value": "common"
            },
            "value": []
        }
    },
    "effects": [],
    "flags": {},
    "img": "systems/pf2e/icons/default-icons/background.svg",
    "name": "Courier",
    "type": "background"
}
