{
    "_id": "58aWxmagtsuO0jeP",
    "data": {
        "boosts": {
            "0": {
                "value": [
                    "cha",
                    "con"
                ]
            },
            "1": {
                "value": [
                    "cha",
                    "con",
                    "dex",
                    "int",
                    "str",
                    "wis"
                ]
            }
        },
        "description": {
            "value": "<p>You've come into contact with a disembodied being of magical essence known as an eidolon. You might have forged a powerful conduit with that eidolon, allowing you to manifest it as a summoner, but it's much more likely that you lost contact over time, though not before learning a few half-remembered secrets. If you lost contact, you might have become an adventurer to try to reach the eidolon again, or to be sure that you're rid of it forever.</p>\n<p>Choose two ability boosts. One must be to <strong>Constitution</strong> or <strong>Charisma</strong>, and one is a free ability boost.</p>\n<p>You're trained in the Religion skill and a Lore skill for the creature associated with your contacted eidolon (such as Angel Lore or Dragon Lore). You gain the @Compendium[pf2e.feats-srd.Dubious Knowledge]{Dubious Knowledge} skill feat.</p>"
        },
        "items": {
            "fy5xi": {
                "id": "1Bt7uCW2WI4sM84P",
                "img": "systems/pf2e/icons/features/feats/feats.webp",
                "level": 1,
                "name": "Dubious Knowledge",
                "pack": "pf2e.feats-srd"
            }
        },
        "rules": [],
        "source": {
            "value": ""
        },
        "trainedLore": "<Eidolon Type> Lore",
        "trainedSkills": {
            "custom": "",
            "value": [
                "rel"
            ]
        },
        "traits": {
            "custom": "",
            "rarity": {
                "value": "common"
            },
            "value": []
        }
    },
    "effects": [],
    "flags": {},
    "img": "systems/pf2e/icons/default-icons/background.svg",
    "name": "Eidolon Contact (Religion)",
    "type": "background"
}
