{
    "_id": "xbyQ1RAF6x4ceXLf",
    "data": {
        "boosts": {
            "0": {
                "value": [
                    "con"
                ]
            },
            "1": {
                "value": [
                    "cha",
                    "con",
                    "dex",
                    "int",
                    "str",
                    "wis"
                ]
            }
        },
        "description": {
            "value": "<p>Exposure to a significant magical event overloaded you with magical energy. Perhaps you were exposed to dangerous levels of magical energy that left you near death, or it built up over long-term exposure to a powerful source of magic.</p>\n<p>Choose two ability boosts. One must be <strong>Constitution</strong> and one is a free ability boost.</p>\n<p>Your innate magical trait is primal. Choose acid, cold, electricity, fire, force, negative, positive, or sonic. You are trained in a Lore skill associated with the chosen energy (such as Fire Lore) and you gain resistance to that energy type equal to half your level (minimum 1).</p>"
        },
        "items": {},
        "rules": [],
        "source": {
            "value": ""
        },
        "trainedLore": "Lore associated with the chosen energy",
        "trainedSkills": {
            "value": []
        },
        "traits": {
            "custom": "",
            "rarity": {
                "value": "rare"
            },
            "value": []
        }
    },
    "effects": [],
    "flags": {},
    "img": "systems/pf2e/icons/default-icons/background.svg",
    "name": "Energy Scarred",
    "type": "background"
}
