{
    "_id": "LoeTd2SS6jfEgo1H",
    "data": {
        "boosts": {
            "0": {
                "value": [
                    "cha"
                ]
            },
            "1": {
                "value": [
                    "cha",
                    "con",
                    "dex",
                    "int",
                    "str",
                    "wis"
                ]
            }
        },
        "description": {
            "value": "<p>You've sought out a powerful genie and requested their blessing, hoping to increase your fortune. Your wish was vague, but fortune and the genie favored you with a more powerful effect than an ordinary wish, granting you bits of wish-twisted luck throughout the rest of your life. Meanwhile, other genies of the same kind recognize you as one blessed by one of their most powerful nobles, and might treat you with greater respect or envy.</p>\n<p>Choose two ability boosts. One must be to <strong>Charisma</strong>, and one is a free ability boost.</p>\n<p>You’re trained in the Diplomacy skill and the Genie Lore skill. You gain the Wish for Luck free action.</p>\n<hr />\n<p><em>Note: You must add the Wish for Luck free action</em></p>"
        },
        "items": {},
        "rules": [],
        "source": {
            "value": ""
        },
        "trainedLore": "Genie Lore",
        "trainedSkills": {
            "custom": "",
            "value": [
                "dip"
            ]
        },
        "traits": {
            "custom": "",
            "rarity": {
                "value": "rare"
            },
            "value": []
        }
    },
    "effects": [],
    "flags": {},
    "img": "systems/pf2e/icons/default-icons/background.svg",
    "name": "Genie-Blessed",
    "type": "background"
}
