{
    "_id": "bh6O2Ad5mkYwRngM",
    "data": {
        "boosts": {
            "0": {
                "value": [
                    "cha",
                    "int"
                ]
            },
            "1": {
                "value": [
                    "cha",
                    "con",
                    "dex",
                    "int",
                    "str",
                    "wis"
                ]
            }
        },
        "description": {
            "value": "<p><strong>Prerequisite</strong>: Region - High Seas</p>\n<hr />\n<p>You have been exiled from Hermea, perhaps of your own accord or perhaps because you didn't measure up. However, you take with you some of the benefits of the excellent education afforded to its citizenry.</p>\n<p>Choose two ability boosts. One must be to <strong>Intelligence</strong> or <strong>Charisma</strong>, and one is a free ability boost.</p>\n<p>You're trained in the Society skill and the Dragon Lore skill. You gain the @Compendium[pf2e.feats-srd.Skill Training]{Skill Training} skill feat.</p>"
        },
        "items": {
            "kbvzp": {
                "id": "P6icK2DbRoZ3H6kc",
                "img": "systems/pf2e/icons/features/feats/feats.webp",
                "level": "1",
                "name": "Skill Training",
                "pack": "pf2e.feats-srd"
            }
        },
        "rules": [],
        "source": {
            "value": ""
        },
        "trainedLore": "Dragon Lore",
        "trainedSkills": {
            "value": [
                "soc"
            ]
        },
        "traits": {
            "custom": "",
            "rarity": {
                "value": "common"
            },
            "value": []
        }
    },
    "effects": [],
    "flags": {},
    "img": "systems/pf2e/icons/default-icons/background.svg",
    "name": "Hermean Expatriate",
    "type": "background"
}
