{
    "_id": "a45LqkSRX07ljKdW",
    "data": {
        "boosts": {
            "0": {
                "value": [
                    "dex",
                    "int"
                ]
            },
            "1": {
                "value": [
                    "cha",
                    "con",
                    "dex",
                    "int",
                    "str",
                    "wis"
                ]
            }
        },
        "description": {
            "value": "<p><strong>Prerequisite</strong>: Region - Golden Road</p>\n<hr />\n<p>Even in a city renowned for its alchemy, you were able to rise above the competition.</p>\n<p>Choose two ability boosts. One must be to <strong>Dexterity</strong> or <strong>Intelligence</strong>, and one is a free ability boost.</p>\n<p>You're trained in the Crafting skill and the Alchemical Lore skill. You gain the @Compendium[pf2e.feats-srd.Specialty Crafting (Alchemy)]{Specialty Crafting (Alchemy)}.</p>"
        },
        "items": {
            "w2mlw": {
                "id": "XVnpntqV6w94PoOb",
                "img": "systems/pf2e/icons/features/feats/feats.webp",
                "level": 1,
                "name": "Specialty Crafting (Alchemy)",
                "pack": "pf2e.feats-srd"
            }
        },
        "rules": [],
        "source": {
            "value": ""
        },
        "trainedLore": "Alchemical Lore",
        "trainedSkills": {
            "value": [
                "cra"
            ]
        },
        "traits": {
            "custom": "",
            "rarity": {
                "value": "common"
            },
            "value": []
        }
    },
    "effects": [],
    "flags": {},
    "img": "systems/pf2e/icons/default-icons/background.svg",
    "name": "Merabite Prodigy",
    "type": "background"
}
