{
    "_id": "r9fzNQEz33HyKTxm",
    "data": {
        "boosts": {
            "0": {
                "value": [
                    "cha",
                    "wis"
                ]
            },
            "1": {
                "value": [
                    "cha",
                    "con",
                    "dex",
                    "int",
                    "str",
                    "wis"
                ]
            }
        },
        "description": {
            "value": "<p>In your youth, you made several pilgrimages to important shrines and holy sites. You might have been a mendicant friar, a seller of holy relics (real or fraudulent), or just a simple farmer following the dictates of your faith. Whatever the aims of your wanderings now, your faith still protects you on the road.</p>\n<p>Choose two ability boosts. One must be to <strong>Wisdom</strong> or <strong>Charisma</strong>, and one is a free ability boost.</p>\n<p>You're trained in the Religion skill and the Lore skill for your patron deity. You gain the @Compendium[pf2e.feats-srd.Pilgrim's Token]{Pilgrim's Token} skill feat.</p>"
        },
        "items": {
            "1cme1": {
                "id": "BqceQIKE0lwIS98s",
                "img": "systems/pf2e/icons/features/feats/feats.webp",
                "level": "1",
                "name": "Pilgrim's Token",
                "pack": "pf2e.feats-srd"
            }
        },
        "rules": [],
        "source": {
            "value": ""
        },
        "trainedLore": "<Deity> Lore",
        "trainedSkills": {
            "value": [
                "rel"
            ]
        },
        "traits": {
            "custom": "",
            "rarity": {
                "value": "common"
            },
            "value": []
        }
    },
    "effects": [],
    "flags": {},
    "img": "systems/pf2e/icons/default-icons/background.svg",
    "name": "Pilgrim",
    "type": "background"
}
