{
    "_id": "76j9ds5URXv1dqnm",
    "data": {
        "boosts": {
            "0": {
                "value": [
                    "cha",
                    "wis"
                ]
            },
            "1": {
                "value": [
                    "cha",
                    "con",
                    "dex",
                    "int",
                    "str",
                    "wis"
                ]
            }
        },
        "description": {
            "value": "<p>You've always had a green thumb, allowing you to care for plants that others found too difficult to grow and tend with a skill that borders on the magical. As you travel, you encounter all sorts of new plants and plant creatures, allowing you to expand your horizons and deepen your understanding of flora.</p>\n<p>Choose two ability boosts. One must be to <strong>Wisdom</strong> or <strong>Charisma</strong>, and one is a free ability boost.</p>\n<p>You're trained in Nature and Plant Lore. You gain the @Compendium[pf2e.feats-srd.Natural Medicine]{Natural Medicine} skill feat.</p>"
        },
        "items": {
            "b837f": {
                "id": "WC4xLBGmBsdOdHWu",
                "img": "systems/pf2e/icons/features/feats/feats.webp",
                "level": 1,
                "name": "Natural Medicine",
                "pack": "pf2e.feats-srd"
            }
        },
        "rules": [],
        "source": {
            "value": ""
        },
        "trainedLore": "Plant Lore",
        "trainedSkills": {
            "custom": "",
            "value": [
                "nat"
            ]
        },
        "traits": {
            "custom": "",
            "rarity": {
                "value": "common"
            },
            "value": []
        }
    },
    "effects": [],
    "flags": {},
    "img": "systems/pf2e/icons/default-icons/background.svg",
    "name": "Plant Whisperer",
    "type": "background"
}
