{
    "_id": "qbvzNG8hMjb8f66D",
    "data": {
        "boosts": {
            "0": {
                "value": [
                    "con",
                    "str"
                ]
            },
            "1": {
                "value": [
                    "cha",
                    "con",
                    "dex",
                    "int",
                    "str",
                    "wis"
                ]
            }
        },
        "description": {
            "value": "<p>You trained at the feet of a knight, maintaining their gear and supporting them at tourneys and in battle. Now you search for a challenge that will prove you worthy of full knighthood, or you've spurned pomp and ceremony to test yourself in honest, albeit less formal, combat.</p>\n<p>Choose two ability boosts. One must be to <strong>Strength</strong> or <strong>Constitution</strong>, and one is a free ability boost.</p>\n<p>You're trained in the Athletics skill and your choice of the Heraldry Lore or Warfare Lore skill. You gain the @Compendium[pf2e.feats-srd.Armor Assist]{Armor Assist} skill feat.</p>"
        },
        "items": {
            "o4nzb": {
                "id": "Lc4dJZivRwU3QEmT",
                "img": "systems/pf2e/icons/features/feats/feats.webp",
                "level": "1",
                "name": "Armor Assist",
                "pack": "pf2e.feats-srd"
            }
        },
        "rules": [],
        "source": {
            "value": ""
        },
        "trainedLore": "Heraldry Lore or Warfare Lore",
        "trainedSkills": {
            "value": [
                "ath"
            ]
        },
        "traits": {
            "custom": "",
            "rarity": {
                "value": "common"
            },
            "value": []
        }
    },
    "effects": [],
    "flags": {},
    "img": "systems/pf2e/icons/default-icons/background.svg",
    "name": "Squire",
    "type": "background"
}
