{
    "_id": "C9wOlvuVCjVbz1YQ",
    "data": {
        "baseItem": "clan-dagger",
        "brokenThreshold": {
            "value": 0
        },
        "bulkCapacity": {
            "value": ""
        },
        "collapsed": {
            "value": false
        },
        "containerId": {
            "value": ""
        },
        "description": {
            "value": "<p>A <em>bloodbane</em> clan dagger is especially vicious against the ancestral enemies of the clan. When you damage an appropriate type of creature with the weapon, that creature takes [[/r 1 #persistent bleed]] @Compendium[pf2e.conditionitems.Persistent Damage]{Persistent Bleed Damage}. The type of creature depends on the clan that made the dagger, but is typically drow, duergar, giant, or orc.<br /></p>\n<p>In addition, whenever you inflict persistent bleed damage with a <em>bloodbane</em> weapon (whether from its innate ability or in some other way), the weapon leaves ragged wounds. The bleeding creature must succeed at a <span data-pf2-check=\"fortitude\" data-pf2-dc=\"25\" data-pf2-traits=\"dwarf,evocation,magical\" data-pf2-label=\"Bloodbane DC\" data-pf2-show-dc=\"gm\">Fortitude</span> save or become sickened 1. The creature is then temporarily immune for 1 hour.</p>"
        },
        "equipped": {
            "value": false
        },
        "equippedBulk": {
            "value": ""
        },
        "hardness": {
            "value": 0
        },
        "hp": {
            "value": 0
        },
        "identification": {
            "misidentified": {},
            "status": "identified",
            "unidentified": {
                "data": {
                    "description": {
                        "value": ""
                    }
                },
                "img": "",
                "name": ""
            }
        },
        "invested": {
            "value": false
        },
        "level": {
            "value": 8
        },
        "maxHp": {
            "value": 0
        },
        "negateBulk": {
            "value": ""
        },
        "preciousMaterial": {
            "value": ""
        },
        "preciousMaterialGrade": {
            "value": ""
        },
        "price": {
            "value": "475 gp"
        },
        "quantity": {
            "value": 1
        },
        "rules": [],
        "size": {
            "value": "med"
        },
        "source": {
            "value": ""
        },
        "stackGroup": {
            "value": ""
        },
        "traits": {
            "custom": "",
            "rarity": {
                "value": "uncommon"
            },
            "usage": {
                "value": "held-in-one-hand"
            },
            "value": [
                "dwarf",
                "evocation",
                "magical"
            ]
        },
        "usage": {
            "value": "held-in-one-hand"
        },
        "weight": {
            "value": "-"
        }
    },
    "effects": [],
    "flags": {},
    "img": "systems/pf2e/icons/equipment/runes/weapon-property-runes/weapon-property-runes.webp",
    "name": "Bloodbane",
    "type": "equipment"
}
