{
    "_id": "tHWnYpDZlscldOX0",
    "data": {
        "description": {
            "value": "<div><strong>Weapons</strong> staff</div>\n<div><strong>Gear</strong> adventurer's pack, material component pouch, writing set</div>\n<div><strong>Options</strong> @Compendium[pf2e.equipment-srd.Crossbow]{crossbow} with 20 @Compendium[pf2e.equipment-srd.Bolts]{bolts} (3 gp, 2 sp)</div>"
        },
        "equippedBulk": {
            "value": ""
        },
        "items": {
            "9d6dl": {
                "id": "FVjTuBCIefAgloUU",
                "img": "systems/pf2e/icons/equipment/weapons/staff.webp",
                "isContainer": false,
                "items": {},
                "name": "Staff",
                "pack": "pf2e.equipment-srd",
                "quantity": 1
            },
            "gps": {
                "id": "B6B7tBWJSqOBz5zz",
                "img": "systems/pf2e/icons/equipment/treasure/currency/gold-pieces.webp",
                "isContainer": false,
                "items": {},
                "name": "Gold Pieces",
                "pack": "pf2e.equipment-srd",
                "quantity": 13
            },
            "lsau8": {
                "id": "QJb8S927Yj81EgHH",
                "img": "systems/pf2e/icons/equipment/adventuring-gear/writing-set.webp",
                "isContainer": false,
                "items": {},
                "name": "Writing Set",
                "pack": "pf2e.equipment-srd",
                "quantity": 1
            },
            "q5dc6": {
                "id": "VHxXMvBeBTq2FSdf",
                "img": "systems/pf2e/icons/equipment/adventuring-gear/material-component-pouch.webp",
                "isContainer": false,
                "items": {},
                "name": "Material Component Pouch",
                "pack": "pf2e.equipment-srd",
                "quantity": 1
            },
            "sps": {
                "id": "5Ew82vBF9YfaiY9f",
                "img": "systems/pf2e/icons/equipment/treasure/currency/silver-pieces.webp",
                "isContainer": false,
                "items": {},
                "name": "Silver Pieces",
                "pack": "pf2e.equipment-srd",
                "quantity": 8
            },
            "u0kw9": {
                "id": "2req0jGaxz8hScdB",
                "img": "systems/pf2e/icons/equipment/adventuring-gear/adventurers-pack.webp",
                "isContainer": true,
                "items": {},
                "name": "Adventurer's Pack",
                "pack": "pf2e.equipment-srd",
                "quantity": 1
            }
        },
        "price": {
            "value": "1 gp, 2 sp"
        },
        "rules": [],
        "source": {
            "value": ""
        },
        "traits": {
            "custom": "",
            "rarity": {
                "value": "common"
            },
            "value": [
                "wizard"
            ]
        },
        "weight": {
            "value": "-"
        }
    },
    "effects": [],
    "flags": {},
    "img": "systems/pf2e/icons/equipment/adventuring-gear/classkit-wizard.webp",
    "name": "Class Kit (Wizard)",
    "type": "kit"
}
