{
    "_id": "bJKgKrIQ5puuifcz",
    "data": {
        "description": {
            "value": "<div><strong>Weapons</strong> dagger, sling with 20 sling bullets</div>\n<div><strong>Gear</strong> adventurer's pack, 2 sets of caltrops</div>"
        },
        "equippedBulk": {
            "value": ""
        },
        "items": {
            "0xvuu": {
                "id": "7fSnvJ2xoSfa6JXD",
                "img": "systems/pf2e/icons/equipment/adventuring-gear/caltrops.webp",
                "isContainer": false,
                "items": {},
                "name": "Caltrops",
                "pack": "pf2e.equipment-srd",
                "quantity": 2
            },
            "5deup": {
                "id": "2req0jGaxz8hScdB",
                "img": "systems/pf2e/icons/equipment/adventuring-gear/adventurers-pack.webp",
                "isContainer": true,
                "items": {},
                "name": "Adventurer's Pack",
                "pack": "pf2e.equipment-srd",
                "quantity": 1
            },
            "bhas6": {
                "id": "MKSeXwUm56c15MZa",
                "img": "systems/pf2e/icons/equipment/weapons/sling-bullets.webp",
                "isContainer": false,
                "items": {},
                "name": "Sling Bullets",
                "pack": "pf2e.equipment-srd",
                "quantity": 20
            },
            "cps": {
                "id": "lzJ8AVhRcbFul5fh",
                "img": "systems/pf2e/icons/equipment/treasure/currency/copper-pieces.webp",
                "isContainer": false,
                "items": {},
                "name": "Copper Pieces",
                "pack": "pf2e.equipment-srd",
                "quantity": 8
            },
            "gps": {
                "id": "B6B7tBWJSqOBz5zz",
                "img": "systems/pf2e/icons/equipment/treasure/currency/gold-pieces.webp",
                "isContainer": false,
                "items": {},
                "name": "Gold Pieces",
                "pack": "pf2e.equipment-srd",
                "quantity": 12
            },
            "oia38": {
                "id": "UCH4myuFnokGv0vF",
                "img": "systems/pf2e/icons/equipment/weapons/sling.webp",
                "isContainer": false,
                "items": {},
                "name": "Sling",
                "pack": "pf2e.equipment-srd",
                "quantity": 1
            },
            "sps": {
                "id": "5Ew82vBF9YfaiY9f",
                "img": "systems/pf2e/icons/equipment/treasure/currency/silver-pieces.webp",
                "isContainer": false,
                "items": {},
                "name": "Silver Pieces",
                "pack": "pf2e.equipment-srd",
                "quantity": 6
            },
            "xgiau": {
                "id": "rQWaJhI5Bko5x14Z",
                "img": "systems/pf2e/icons/equipment/weapons/dagger.webp",
                "isContainer": false,
                "items": {},
                "name": "Dagger",
                "pack": "pf2e.equipment-srd",
                "quantity": 1
            }
        },
        "price": {
            "value": "2 gp, 3 sp, 2 cp"
        },
        "rules": [],
        "source": {
            "value": ""
        },
        "traits": {
            "custom": "",
            "rarity": {
                "value": "common"
            },
            "value": [
                "sorcerer"
            ]
        },
        "weight": {
            "value": "-"
        }
    },
    "effects": [],
    "flags": {},
    "img": "systems/pf2e/icons/equipment/adventuring-gear/classkit-sorcerer.webp",
    "name": "Class Kit (Sorcerer)",
    "type": "kit"
}
