{
    "_id": "ivaL0xt33k6QNwQK",
    "data": {
        "MAP": {
            "value": ""
        },
        "ability": {
            "value": "dex"
        },
        "baseItem": "alchemical-bomb",
        "bonus": {
            "value": 1
        },
        "bonusDamage": {
            "value": null
        },
        "brokenThreshold": {
            "value": 0
        },
        "bulkCapacity": {
            "value": ""
        },
        "collapsed": {
            "value": false
        },
        "containerId": {
            "value": ""
        },
        "damage": {
            "damageType": "piercing",
            "dice": 2,
            "die": "d4",
            "value": ""
        },
        "description": {
            "value": "<p><strong>Usage</strong> held in 1 hand</p>\n<p><strong>Activate</strong> <span class=\"pf2-icon\">A</span> Strike</p>\n<hr />\n<p>This flask holds a pressurized red-brown gas flecked with bits of sublimated crystal. You gain a +2 item bonus to attack rolls. When the bomb explodes, it deals [[/r 3d4 #piercing]]{3d4 piercing damage} and [[/r 5 #piercing splash]]{5 piercing splash damage} as the mixture suddenly turns into solid crystals flying at high speeds.</p>\n<p>Surfaces in the splash area grow brittle, gleaming red crystals that crumble to dust after 1 minute. The crystals on level surfaces are @Compendium[pf2e.equipment-srd.Caltrops]{Caltrops}. The crystals on vertical surfaces can be used briefly as handholds, granting the listed item bonus to the next Athletics check to @Compendium[pf2e.actionspf2e.Climb]{Climb} each space. The crystals in each space crumble after the creature leaves, whether Climbing or moving through the caltrops.</p>"
        },
        "equipped": {
            "value": false
        },
        "equippedBulk": {
            "value": ""
        },
        "group": {
            "value": "bomb"
        },
        "hands": {
            "value": ""
        },
        "hardness": {
            "value": 0
        },
        "hp": {
            "value": 0
        },
        "identification": {
            "misidentified": {},
            "status": "identified",
            "unidentified": {
                "data": {
                    "description": {
                        "value": ""
                    }
                },
                "img": "",
                "name": ""
            }
        },
        "invested": {
            "value": false
        },
        "level": {
            "value": 12
        },
        "maxHp": {
            "value": 0
        },
        "negateBulk": {
            "value": "0"
        },
        "potencyRune": {
            "value": null
        },
        "preciousMaterial": {
            "value": ""
        },
        "preciousMaterialGrade": {
            "value": ""
        },
        "price": {
            "value": "350 gp"
        },
        "property1": {
            "critDamage": "",
            "critDamageType": "",
            "critDice": null,
            "critDie": "",
            "criticalConditionType": "",
            "criticalConditionValue": null,
            "damageType": "",
            "dice": null,
            "die": "",
            "strikeConditionType": "",
            "strikeConditionValue": null,
            "value": ""
        },
        "propertyRune1": {
            "value": ""
        },
        "propertyRune2": {
            "value": ""
        },
        "propertyRune3": {
            "value": ""
        },
        "propertyRune4": {
            "value": ""
        },
        "quantity": {
            "value": 1
        },
        "range": {
            "value": "20"
        },
        "reload": {
            "value": ""
        },
        "rules": [
            {
                "key": "PF2E.RuleElement.Note",
                "selector": "{item|_id}-damage",
                "text": "<p class='compact-text'><strong>Effect:</strong> Splash causes crystals that are @Compendium[pf2e.equipment-srd.Caltrops]{Caltrops} or climbing holds (see details).</p>"
            }
        ],
        "size": {
            "value": "med"
        },
        "source": {
            "value": ""
        },
        "splashDamage": {
            "value": 4
        },
        "stackGroup": {
            "value": ""
        },
        "strikingRune": {
            "value": ""
        },
        "traits": {
            "custom": "",
            "rarity": {
                "value": "common"
            },
            "value": [
                "alchemical",
                "bomb",
                "consumable",
                "earth",
                "splash"
            ]
        },
        "usage": {
            "value": "held-in-one-hand"
        },
        "weaponType": {
            "value": "martial"
        },
        "weight": {
            "value": "L"
        }
    },
    "effects": [],
    "flags": {},
    "img": "systems/pf2e/icons/equipment/alchemical-items/alchemical-bombs/crystal-shards.webp",
    "name": "Crystal Shards (Greater)",
    "type": "weapon"
}
