{
    "_id": "XLGJ1bLhMtP1jc2w",
    "data": {
        "baseItem": null,
        "brokenThreshold": {
            "value": 0
        },
        "bulkCapacity": {
            "value": ""
        },
        "collapsed": {
            "value": false
        },
        "containerId": {
            "value": ""
        },
        "description": {
            "value": "<p>Fashionable wayfinders allow you to be dressed for success in almost any situation. In addition to the effects of a @Compendium[pf2e.equipment-srd.Wayfinder]{Wayfinder}, a fashionable wayfinder can attune to up to three sets of mundane clothing in your possession during your daily preparations. A fashionable wayfinder has the following activation.</p>\n<hr />\n<p><strong>Activate</strong> <span class=\"pf2-icon\">1</span> envision;</p>\n<p><strong>Effect</strong> You call one of the attuned sets of clothing onto yourself, changing clothes instantly and leaving you either holding the old set of clothing or with the old set folded neatly on the floor if you don't have a free hand to hold it. This activation can't change you into or out of a suit of armor of any kind. While the activation can transport the chosen attuned set of clothing onto you from up to 60 feet away, it can't transport any other creatures or items that might have been stored in the clothing.</p>"
        },
        "equipped": {
            "value": false
        },
        "equippedBulk": {
            "value": ""
        },
        "hardness": {
            "value": 0
        },
        "hp": {
            "value": 0
        },
        "identification": {
            "misidentified": {},
            "status": "identified",
            "unidentified": {
                "data": {
                    "description": {
                        "value": ""
                    }
                },
                "img": "",
                "name": ""
            }
        },
        "invested": {
            "value": false
        },
        "level": {
            "value": 3
        },
        "maxHp": {
            "value": 0
        },
        "negateBulk": {
            "value": "0"
        },
        "preciousMaterial": {
            "value": ""
        },
        "preciousMaterialGrade": {
            "value": ""
        },
        "price": {
            "value": "50 gp"
        },
        "quantity": {
            "value": 1
        },
        "rules": [],
        "size": {
            "value": "med"
        },
        "source": {
            "value": ""
        },
        "stackGroup": {
            "value": ""
        },
        "traits": {
            "custom": "",
            "rarity": {
                "value": "uncommon"
            },
            "value": [
                "conjuration",
                "invested",
                "magical"
            ]
        },
        "usage": {
            "value": "worn"
        },
        "weight": {
            "value": "-"
        }
    },
    "effects": [],
    "flags": {},
    "img": "systems/pf2e/icons/equipment/worn-items/other-worn-items/wayfinder.webp",
    "name": "Fashionable Wayfinder",
    "type": "equipment"
}
