{
    "_id": "FkII0xws6an5vFSS",
    "data": {
        "baseItem": null,
        "brokenThreshold": {
            "value": 0
        },
        "bulkCapacity": {
            "value": ""
        },
        "collapsed": {
            "value": false
        },
        "containerId": {
            "value": null
        },
        "description": {
            "value": "<p>A sheen of red crosses the surface of this star-shaped goldstone medallion when the light hits it. The affixed armor or weapon is warm to the touch. The spell attack roll of any spell cast by Activating this item is +7, and the spell DC is 17.</p>\n<ul>\n<li><strong>Armor</strong> You gain resistance 2 to fire.</li>\n<li><strong>Weapon</strong> After you cast a fire spell by Activating the star, your Strikes with the weapon deal an additional 1d4 fire damage until the end of your next turn.</li>\n</ul>\n<p><strong>Activate</strong> Cast a Spell;</p>\n<p><strong>Effect</strong> You cast <em>@Compendium[pf2e.spells-srd.Produce Flame]{Produce Flame}</em>.</p>"
        },
        "equipped": {
            "value": false
        },
        "equippedBulk": {
            "value": ""
        },
        "hardness": {
            "value": 0
        },
        "hp": {
            "value": 0
        },
        "identification": {
            "misidentified": {},
            "status": "identified",
            "unidentified": {
                "data": {
                    "description": {
                        "value": ""
                    }
                },
                "img": "systems/pf2e/icons/unidentified_item_icons/adventuring_gear.webp",
                "name": "Unusual Object"
            }
        },
        "invested": {
            "value": null
        },
        "level": {
            "value": 3
        },
        "maxHp": {
            "value": 0
        },
        "negateBulk": {
            "value": "0"
        },
        "preciousMaterial": {
            "value": null
        },
        "preciousMaterialGrade": {
            "value": null
        },
        "price": {
            "value": "55 gp"
        },
        "quantity": {
            "value": 1
        },
        "rules": [],
        "size": {
            "value": "med"
        },
        "source": {
            "value": ""
        },
        "stackGroup": {
            "value": ""
        },
        "traits": {
            "custom": "",
            "rarity": {
                "value": "common"
            },
            "usage": {
                "value": "held-in-one-hand"
            },
            "value": [
                "evocation",
                "fire",
                "magical",
                "spellheart"
            ]
        },
        "usage": {
            "value": ""
        },
        "weight": {
            "value": "-"
        }
    },
    "effects": [],
    "flags": {},
    "img": "systems/pf2e/icons/default-icons/equipment.svg",
    "name": "Flaming Star",
    "type": "equipment"
}
