{
    "_id": "rdF2RKgFK0vOlaeV",
    "data": {
        "baseItem": null,
        "brokenThreshold": {
            "value": 0
        },
        "bulkCapacity": {
            "value": "50"
        },
        "capacity": {
            "type": "weight",
            "value": 0,
            "weightless": false
        },
        "collapsed": {
            "value": false
        },
        "containerId": {
            "value": ""
        },
        "currency": {
            "cp": 0,
            "ep": 0,
            "gp": 0,
            "pp": 0,
            "sp": 0
        },
        "description": {
            "value": "<p>This sturdy leather satchel contains three compartments fastened with large clasps. The first compartment is lined in blue satin and contains an extradimensional space equivalent to a @Compendium[pf2e.equipment-srd.Bag of Holding (Type II)]{Bag of Holding (Type II)}.</p>\n<p>The second compartment has no lining. You can pull forth cookware and cooking utensils from it. Once they have been used to prepare a meal, the items transform into plates and silverware, and they evaporate once the meal has been eaten, taking any leftovers with them. The cookware reappears cleaned in the compartment 1 hour later. The compartment provides only kitchenware, not any food.</p>\n<p>The third compartment is lined with plush purple velvet and contains berry tarts wrapped in parchment paper. A creature can unwrap and eat one tart with an Interact action to regain [[/r 2d8+4]] Hit Points. The knapsack produces four tarts per day, which appear at breakfast time. Any tarts not eaten by the end of the day evaporate.</p>"
        },
        "equipped": {
            "value": false
        },
        "equippedBulk": {
            "value": ""
        },
        "hardness": {
            "value": 0
        },
        "hp": {
            "value": 0
        },
        "identification": {
            "misidentified": {},
            "status": "identified",
            "unidentified": {
                "data": {
                    "description": {
                        "value": ""
                    }
                },
                "img": "",
                "name": ""
            }
        },
        "invested": {
            "value": false
        },
        "level": {
            "value": 9
        },
        "maxHp": {
            "value": 0
        },
        "negateBulk": {
            "value": "50"
        },
        "preciousMaterial": {
            "value": ""
        },
        "preciousMaterialGrade": {
            "value": ""
        },
        "price": {
            "value": "675 gp"
        },
        "quantity": {
            "value": 1
        },
        "rules": [],
        "size": {
            "value": "med"
        },
        "source": {
            "value": ""
        },
        "stackGroup": {
            "value": ""
        },
        "traits": {
            "custom": "",
            "rarity": {
                "value": "uncommon"
            },
            "value": [
                "conjuration",
                "extradimensional",
                "healing",
                "invested",
                "magical"
            ]
        },
        "usage": {
            "value": "wornbackpack"
        },
        "weight": {
            "value": "L"
        }
    },
    "effects": [],
    "flags": {},
    "img": "systems/pf2e/icons/equipment/worn-items/other-worn-items/knapsack-of-halflingkind.webp",
    "name": "Knapsack of Halflingkind",
    "type": "backpack"
}
