{
    "_id": "HWQEGY2X0QXj2zfN",
    "data": {
        "armor": {
            "value": 2
        },
        "armorType": {
            "value": "shield"
        },
        "baseItem": null,
        "brokenThreshold": {
            "value": 40
        },
        "bulkCapacity": {
            "value": ""
        },
        "check": {
            "value": 0
        },
        "collapsed": {
            "value": false
        },
        "containerId": {
            "value": ""
        },
        "description": {
            "value": "<p><strong>Perception</strong> +12; precise vision 30 feet, imprecise hearing 30 feet<br /><strong>Communication</strong> speech (Common and Celestial)<br /><strong>Skills</strong> Diplomacy +15, Religion +13<br /><strong>Int</strong> +0, <strong>Wis</strong> +2, <strong>Cha</strong> +4<br /><strong>Will</strong> +15</p>\n<hr />\n<p>A martyr's shield is a lesser sturdy shield imbued with the compassion of a devout champion of a righteous deity, like Iomedae or Vildeis, who sacrificed themself to save an ally. In addition to good-naturedly attempting to convert you to its religion, the martyr's shield can use 1 reaction each round that, when raised, it uses to Shield Block to protect an ally adjacent to you, with the effects of the Shield Warden feat. The martyr's shield uses this reaction whether you would prefer it did so or not. The martyr's shield can be upgraded to a stronger form of sturdy shield by paying the difference in cost between its current type of sturdy shield and the new type.</p>"
        },
        "dex": {
            "value": 0
        },
        "equipped": {
            "value": false
        },
        "equippedBulk": {
            "value": ""
        },
        "group": {
            "value": ""
        },
        "hardness": {
            "value": 10
        },
        "hp": {
            "value": 80
        },
        "identification": {
            "misidentified": {},
            "status": "identified",
            "unidentified": {
                "data": {
                    "description": {
                        "value": ""
                    }
                },
                "img": "",
                "name": ""
            }
        },
        "invested": {
            "value": false
        },
        "level": {
            "value": 7
        },
        "maxHp": {
            "value": 80
        },
        "negateBulk": {
            "value": "0"
        },
        "potencyRune": {
            "value": null
        },
        "preciousMaterial": {
            "value": ""
        },
        "preciousMaterialGrade": {
            "value": ""
        },
        "price": {
            "value": "0 gp"
        },
        "propertyRune1": {
            "value": ""
        },
        "propertyRune2": {
            "value": ""
        },
        "propertyRune3": {
            "value": ""
        },
        "propertyRune4": {
            "value": ""
        },
        "quantity": {
            "value": 1
        },
        "resiliencyRune": {
            "value": ""
        },
        "rules": [],
        "size": {
            "value": "med"
        },
        "source": {
            "value": ""
        },
        "speed": {
            "value": 0
        },
        "stackGroup": {
            "value": ""
        },
        "strength": {
            "value": 0
        },
        "traits": {
            "custom": "",
            "rarity": {
                "value": "rare"
            },
            "value": [
                "abjuration",
                "divine",
                "intelligent"
            ]
        },
        "usage": {
            "value": "held-in-one-hand"
        },
        "weight": {
            "value": "1"
        }
    },
    "effects": [],
    "flags": {},
    "img": "systems/pf2e/icons/equipment/intelligent-items/martyrs-shield.webp",
    "name": "Martyr's Shield",
    "type": "armor"
}
