{
    "_id": "gwP3Uums2ApH6o9K",
    "data": {
        "baseItem": null,
        "brokenThreshold": {
            "value": 0
        },
        "bulkCapacity": {
            "value": ""
        },
        "collapsed": {
            "value": false
        },
        "containerId": {
            "value": null
        },
        "description": {
            "value": "<p>A small token of protection from a site holy to your faith, or you touched your religious symbol to a relic or altar at such a site. So long as this token is in your possession, when you tie an adversary's initiative roll, you go first.</p>\n<hr />\n<p><strong>Special</strong> If you select the @Compendium[pf2e.feats-srd.Pilgrim's Token]{Pilgrim's Token} feat at 1st level, you receive your pilgrim's token for free. Alternately, if you have a religious symbol, it is already attuned, as described above.</p>\n<p>If you select this feat at a later level, or if you lose your pilgrim's token, you must purchase or Craft a replacement and attune it at a holy site. Such a token usually costs at least 2 sp, and the attunement takes 10 minutes of prayer and requires a successful <span data-pf2-check=\"religion\" data-pf2-label=\"Attune to Pilgrim's Token DC\" data-pf2-dc=\"20\" data-pf2-show-dc=\"gm\">Religion</span> check. Your GM might adjust the price and DC depending on the token's material and quality and the religious significance of the site; the more significant the location, the easier the attunement.</p>"
        },
        "equipped": {
            "value": false
        },
        "equippedBulk": {
            "value": ""
        },
        "hardness": {
            "value": 0
        },
        "hp": {
            "value": 0
        },
        "identification": {
            "misidentified": {},
            "status": "identified",
            "unidentified": {
                "data": {
                    "description": {
                        "value": ""
                    }
                },
                "img": "",
                "name": ""
            }
        },
        "invested": {
            "value": null
        },
        "level": {
            "value": 0
        },
        "maxHp": {
            "value": 0
        },
        "negateBulk": {
            "value": "0"
        },
        "preciousMaterial": {
            "value": null
        },
        "preciousMaterialGrade": {
            "value": null
        },
        "price": {
            "value": "2 sp"
        },
        "quantity": {
            "value": 1
        },
        "rules": [],
        "size": {
            "value": "med"
        },
        "source": {
            "value": "Pathfinder Advanced Player's Guide"
        },
        "stackGroup": {
            "value": ""
        },
        "traits": {
            "custom": "",
            "rarity": {
                "value": "common"
            },
            "usage": {
                "value": "held-in-one-hand"
            },
            "value": []
        },
        "usage": {
            "value": ""
        },
        "weight": {
            "value": "-"
        }
    },
    "effects": [],
    "flags": {},
    "img": "systems/pf2e/icons/default-icons/equipment.svg",
    "name": "Pilgrim's Token",
    "type": "equipment"
}
