{
    "_id": "FKNgrFDIRBumr6P5",
    "data": {
        "armor": {
            "value": 4
        },
        "armorType": {
            "value": "medium"
        },
        "baseItem": "breastplate",
        "brokenThreshold": {
            "value": 0
        },
        "bulkCapacity": {
            "value": ""
        },
        "check": {
            "value": -2
        },
        "collapsed": {
            "value": false
        },
        "containerId": {
            "value": null
        },
        "description": {
            "value": "<p>This <em>+3 greater resilient greater fortification breastplate</em> absorbs impacts for later release. While wearing the armor, you gain resistance 5 to bludgeoning, piercing, and slashing damage and resistance 10 to force damage. Keep track of how much damage the armor prevents from enemy attacks, as the armor absorbs that damage.</p>\n<p>After 1 minute, the absorbed damage disperses harmlessly and resets to 0. Only damage caused by foes or hazards powers the armor, not damage you take from yourself, allies, or the environment.</p>\n<hr />\n<p><strong>Activate</strong> <span class=\"pf2-icon\">1</span> Interact;</p>\n<p><strong>Requirements</strong> Your armor has absorbed at least 30 damage;</p>\n<p><strong>Effect</strong> The absorbed energy explodes from your armor in a pulse of force. Creatures in a 30-foot emanation take [[/r 10d6 #force]]{10d6 force damage} with a <span data-pf2-check=\"fortitude\" data-pf2-traits=\"evocation,force,magical\" data-pf2-label=\"Rebounding Breastplaye Force Damage DC\" data-pf2-dc=\"43\" data-pf2-show-dc=\"all\">basic Fortitude</span> save. On a failure, they're pushed 10 feet away from you, and on a critical failure, they're pushed 20 feet away from you and fall @Compendium[pf2e.conditionitems.Prone]{Prone}. The armor's absorbed damage resets to 0.</p>"
        },
        "dex": {
            "value": 1
        },
        "equipped": {
            "value": false
        },
        "equippedBulk": {
            "value": "2"
        },
        "group": {
            "value": "plate"
        },
        "hardness": {
            "value": 0
        },
        "hp": {
            "value": 0
        },
        "identification": {
            "misidentified": {},
            "status": "identified",
            "unidentified": {
                "data": {
                    "description": {
                        "value": ""
                    }
                },
                "img": "systems/pf2e/icons/unidentified_item_icons/armor.webp",
                "name": "Unusual Armor"
            }
        },
        "invested": {
            "value": null
        },
        "level": {
            "value": 20
        },
        "maxHp": {
            "value": 0
        },
        "negateBulk": {
            "value": "0"
        },
        "potencyRune": {
            "value": 3
        },
        "preciousMaterial": {
            "value": null
        },
        "preciousMaterialGrade": {
            "value": null
        },
        "price": {
            "value": "70000 gp"
        },
        "propertyRune1": {
            "value": "greaterFortification"
        },
        "propertyRune2": {
            "value": ""
        },
        "propertyRune3": {
            "value": ""
        },
        "propertyRune4": {
            "value": ""
        },
        "quantity": {
            "value": 1
        },
        "resiliencyRune": {
            "value": "greaterResilient"
        },
        "rules": [],
        "size": {
            "value": "med"
        },
        "source": {
            "value": ""
        },
        "speed": {
            "value": -5
        },
        "stackGroup": {
            "value": ""
        },
        "strength": {
            "value": 16
        },
        "traits": {
            "custom": "",
            "rarity": {
                "value": "common"
            },
            "value": [
                "evocation",
                "force",
                "magical"
            ]
        },
        "usage": {
            "value": "wornarmor"
        },
        "weight": {
            "value": "3"
        }
    },
    "effects": [],
    "flags": {},
    "img": "systems/pf2e/icons/default-icons/armor.svg",
    "name": "Rebounding Breastplate",
    "type": "armor"
}
