{
    "_id": "CJtn848AL7Q0Lxf2",
    "data": {
        "baseItem": null,
        "brokenThreshold": {
            "value": 0
        },
        "bulkCapacity": {
            "value": ""
        },
        "collapsed": {
            "value": false
        },
        "containerId": {
            "value": ""
        },
        "description": {
            "value": "<p>A set of soaring armor helps you fly faster and protects you and nearby allies from falling. While wearing soaring armor, you gain a +10-foot item bonus to your fly Speed, if you have one. As normal, if your fly Speed is based on your land Speed and you already have an item bonus to your land Speed, these bonuses aren't cumulative.</p>\n<hr />\n<p><strong>Activate</strong> <span class=\"pf2-icon\">R</span> command;</p>\n<p><strong>Trigger</strong> You or a creature within 60 feet of you is falling;</p>\n<p><strong>Effect</strong> You cast @Compendium[pf2e.spells-srd.Feather Fall]{Feather Fall} on the triggering creature.</p>"
        },
        "equipped": {
            "value": false
        },
        "equippedBulk": {
            "value": ""
        },
        "hardness": {
            "value": 0
        },
        "hp": {
            "value": 0
        },
        "identification": {
            "misidentified": {},
            "status": "identified",
            "unidentified": {
                "data": {
                    "description": {
                        "value": ""
                    }
                },
                "img": "",
                "name": ""
            }
        },
        "invested": {
            "value": false
        },
        "level": {
            "value": 14
        },
        "maxHp": {
            "value": 0
        },
        "negateBulk": {
            "value": "0"
        },
        "preciousMaterial": {
            "value": ""
        },
        "preciousMaterialGrade": {
            "value": ""
        },
        "price": {
            "value": "3,750 gp"
        },
        "quantity": {
            "value": 1
        },
        "rules": [],
        "size": {
            "value": "med"
        },
        "source": {
            "value": ""
        },
        "stackGroup": {
            "value": ""
        },
        "traits": {
            "custom": "",
            "rarity": {
                "value": "common"
            },
            "usage": {
                "value": "etched-onto-armor"
            },
            "value": []
        },
        "usage": {
            "value": ""
        },
        "weight": {
            "value": "-"
        }
    },
    "effects": [],
    "flags": {},
    "img": "systems/pf2e/icons/equipment/runes/armor-property-runes/armor-property-runes.webp",
    "name": "Soaring",
    "type": "equipment"
}
