{
    "_id": "C0Zhu7Vwy9Aipwoh",
    "data": {
        "activation": {
            "condition": "",
            "cost": 0,
            "type": ""
        },
        "autoDestroy": {
            "_deprecated": true,
            "value": true
        },
        "autoUse": {
            "_deprecated": true,
            "value": true
        },
        "baseItem": null,
        "brokenThreshold": {
            "value": 0
        },
        "bulkCapacity": {
            "value": ""
        },
        "charges": {
            "_deprecated": true,
            "max": "1",
            "value": "1"
        },
        "collapsed": {
            "value": false
        },
        "consumableType": {
            "value": "poison"
        },
        "consume": {
            "_deprecated": true,
            "value": null
        },
        "containerId": {
            "value": ""
        },
        "description": {
            "value": "<p><strong>Activate</strong> <span class=\"pf2-icon\">1</span> Interact;</p>\n<p>Belladonna cultivated in planes hazardous to living visitors, such as the Shadow Plane or the Boneyard, grow with a strange, skeletal look to their branches. The leaves and berries of these extraplanar plants are partly incorporeal and significantly more toxic than belladonna grown on the Material Plane. When imbued with spirit-twisting magic, spectral nightshade quickly drains away the victim's vitality and makes colors painfully bright and bewildering. Spectral nightshade doesn't affect creatures that have no spirit; if a possessing spirit inhabits a body that takes poison damage from spectral nightshade, the possessor takes an equal amount of force damage, even if the possessor can't be affected directly by poisons.</p>\n<hr />\n<p><strong>Saving Throw</strong> <span data-pf2-check=\"fortitude\" data-pf2-dc=\"33\" data-pf2-traits=\"divine,ingested,poison\" data-pf2-label=\"Spectral Nightshade DC\" data-pf2-show-dc=\"gm\">Fortitude</span>;</p>\n<p><strong>Onset</strong> 1 minute;</p>\n<p><strong>Maximum Duration</strong> 6 minutes;</p>\n<p><strong>Stage 1</strong> [[/r 10d6 #poison]]{10d6 poison damage} and @Compendium[pf2e.conditionitems.Dazzled]{Dazzled}(1 minute);</p>\n<p><strong>Stage 2</strong> [[/r 13d6 #poison]]{13d6 poison damage} and @Compendium[pf2e.conditionitems.Drained]{Drained 1} (1 minute);</p>\n<p><strong>Stage 3</strong> [[/r 15d6 #poison]]{15d6 poison damage}, @Compendium[pf2e.conditionitems.Confused]{Confused}, and drained 2 (1 minute)</p>\n<hr />\n<p>Craft Requirements Supply one casting of @Compendium[pf2e.spells-srd.Spirit Blast]{Spirit Blast}.</p>"
        },
        "duration": {
            "units": "",
            "value": null
        },
        "equipped": {
            "value": false
        },
        "equippedBulk": {
            "value": ""
        },
        "hardness": {
            "value": 0
        },
        "hp": {
            "value": 0
        },
        "identification": {
            "misidentified": {},
            "status": "identified",
            "unidentified": {
                "data": {
                    "description": {
                        "value": ""
                    }
                },
                "img": "",
                "name": ""
            }
        },
        "level": {
            "value": 13
        },
        "maxHp": {
            "value": 0
        },
        "negateBulk": {
            "value": "0"
        },
        "preciousMaterial": {
            "value": ""
        },
        "preciousMaterialGrade": {
            "value": ""
        },
        "price": {
            "value": "450 gp"
        },
        "quantity": {
            "value": 1
        },
        "range": {
            "long": null,
            "units": "",
            "value": null
        },
        "rules": [],
        "size": {
            "value": "med"
        },
        "source": {
            "value": ""
        },
        "spell": {
            "data": null,
            "heightenedLevel": null
        },
        "stackGroup": {
            "value": ""
        },
        "target": {
            "type": "",
            "units": "",
            "value": null
        },
        "traits": {
            "custom": "",
            "rarity": {
                "value": "uncommon"
            },
            "usage": {
                "value": "held-in-one-hand"
            },
            "value": [
                "consumable",
                "divine",
                "ingested",
                "poison"
            ]
        },
        "usage": {
            "value": "held-in-one-hand"
        },
        "uses": {
            "autoDestroy": true,
            "autoUse": true,
            "max": 0,
            "per": null,
            "value": 0
        },
        "weight": {
            "value": "L"
        }
    },
    "effects": [],
    "flags": {},
    "img": "systems/pf2e/icons/equipment/alchemical-items/alchemical-poisons/spectral-nightshade.webp",
    "name": "Spectral Nightshade",
    "type": "consumable"
}
