{
    "_id": "gufc2pmaYn9jzFVL",
    "data": {
        "baseItem": null,
        "brokenThreshold": {
            "value": 0
        },
        "bulkCapacity": {
            "value": ""
        },
        "collapsed": {
            "value": false
        },
        "containerId": {
            "value": ""
        },
        "description": {
            "value": "<p>You cease aging, and if you were older than young adult in age, you become a young adult again. You gain a +4 status bonus to saves against death<em> </em>effects and resistance to negative damage equal to half your level.</p>\n<p>Once per day, from any distance, Abrogail Thrune II can recite a mandatory appearance clause in your Thrune contract as a 3-action activity to summon you to her side, where you are <em>controlled </em>by Abrogail for 1 minute before you return.</p>\n<p><strong>Activate</strong> <span class=\"pf2-icon\">2</span> Command</p>\n<p><strong>Frequency</strong> once per day</p>\n<p><strong>Effect</strong> You recite a hold harmless provision from your Thrune contract. Reduce your doomed value to 0. Abrogail Thrune II is immediately made aware that you have used this ability.</p>\n<hr />\n<p>Automatically applied effects:</p>\n<ul>\n<li>+4 status bonus to saves against death<em> </em>effects</li>\n</ul>"
        },
        "equipped": {
            "value": false
        },
        "equippedBulk": {
            "value": ""
        },
        "hardness": {
            "value": 0
        },
        "hp": {
            "value": 0
        },
        "identification": {
            "misidentified": {},
            "status": "identified",
            "unidentified": {
                "data": {
                    "description": {
                        "value": ""
                    }
                },
                "img": "",
                "name": ""
            }
        },
        "invested": {
            "value": false
        },
        "level": {
            "value": 20
        },
        "maxHp": {
            "value": 0
        },
        "negateBulk": {
            "value": "0"
        },
        "preciousMaterial": {
            "value": ""
        },
        "preciousMaterialGrade": {
            "value": ""
        },
        "price": {
            "value": "0 gp"
        },
        "quantity": {
            "value": 1
        },
        "rules": [
            {
                "key": "PF2E.RuleElement.FlatModifier",
                "label": "Unending Youth (vs. death)",
                "predicate": {
                    "all": [
                        "death"
                    ]
                },
                "selector": "saving-throw",
                "type": "status",
                "value": 4
            }
        ],
        "size": {
            "value": "med"
        },
        "source": {
            "value": ""
        },
        "stackGroup": {
            "value": ""
        },
        "traits": {
            "custom": "",
            "rarity": {
                "value": "rare"
            },
            "usage": {
                "value": "held-in-one-hand"
            },
            "value": [
                "conjuration",
                "contract",
                "invested",
                "magical"
            ]
        },
        "usage": {
            "value": "held-in-one-hand"
        },
        "weight": {
            "value": "-"
        }
    },
    "effects": [],
    "flags": {},
    "img": "systems/pf2e/icons/equipment/contracts/infernal-contracts/unending-youth.webp",
    "name": "Unending Youth",
    "type": "equipment"
}
