{
    "_id": "SVEPGvNFj95HjlAE",
    "data": {
        "baseItem": null,
        "brokenThreshold": {
            "value": 0
        },
        "bulkCapacity": {
            "value": ""
        },
        "collapsed": {
            "value": false
        },
        "containerId": {
            "value": ""
        },
        "description": {
            "value": "<p>This pale wooden wand is carved to resemble a thigh bone with metal caps at each end. Ghostly tendrils seem to swirl around it every so often.</p>\n<hr />\n<p><strong>Activate</strong> @Compendium[pf2e.actionspf2e.Cast a Spell]{Cast a Spell};</p>\n<p><strong>Frequency</strong> once per day, plus overcharge;</p>\n<p><strong>Effect</strong> You cast @Compendium[pf2e.spells-srd.False Life]{False Life} at 3rd level. During the duration of the spell, wisps that resemble spirits flit around you as long as you have any temporary Hit Points from false life, and you can use the following action.</p>\n<hr />\n<p><strong>Activation</strong> <span class=\"pf2-icon\">F</span> envision;</p>\n<p><strong>Trigger</strong> You successfully impart the @Compendium[pf2e.conditionitems.Frightened]{Frightened 1} condition to a creature;</p>\n<p><strong>Requirements</strong> You have temporary Hit Points;</p>\n<p><strong>Effect</strong> You end false life and increase the creature's frightened condition value to 2.</p>\n<hr />\n<p><strong>Craft Requirements</strong> Supply a casting of False Life at 3rd level</p>"
        },
        "equipped": {
            "value": false
        },
        "equippedBulk": {
            "value": ""
        },
        "hardness": {
            "value": 0
        },
        "hp": {
            "value": 0
        },
        "identification": {
            "misidentified": {},
            "status": "identified",
            "unidentified": {
                "data": {
                    "description": {
                        "value": ""
                    }
                },
                "img": "",
                "name": ""
            }
        },
        "invested": {
            "value": false
        },
        "level": {
            "value": 8
        },
        "maxHp": {
            "value": 0
        },
        "negateBulk": {
            "value": "0"
        },
        "preciousMaterial": {
            "value": ""
        },
        "preciousMaterialGrade": {
            "value": ""
        },
        "price": {
            "value": "500 gp"
        },
        "quantity": {
            "value": 1
        },
        "rules": [],
        "size": {
            "value": "med"
        },
        "source": {
            "value": ""
        },
        "stackGroup": {
            "value": ""
        },
        "traits": {
            "custom": "",
            "rarity": {
                "value": "uncommon"
            },
            "usage": {
                "value": "held-in-one-hand"
            },
            "value": [
                "magical",
                "necromancy",
                "wand"
            ]
        },
        "usage": {
            "value": "held-in-one-hand"
        },
        "weight": {
            "value": "L"
        }
    },
    "effects": [],
    "flags": {},
    "img": "systems/pf2e/icons/equipment/wands/specialty-wands/wand-of-teeming-ghosts.webp",
    "name": "Wand of Teeming Ghosts (3rd-Level Spell)",
    "type": "equipment"
}
