{
    "_id": "psJpwY07YDdsQsgL",
    "data": {
        "attributes": {
            "ac": {
                "value": 0
            },
            "hardness": 0,
            "hasHealth": true,
            "hp": {
                "details": "",
                "max": 0,
                "temp": 0,
                "value": 0
            },
            "stealth": {
                "details": null,
                "value": 12
            }
        },
        "creatureType": "",
        "details": {
            "description": "<p>The cracks scintillate and shift between the elemental planes, leaking perilous energy with each shift.</p>",
            "disable": "<p><span data-pf2-check=\"thievery\" data-pf2-traits=\"environmental,magical\" data-pf2-label=\"Assemble a Seal DC\" data-pf2-dc=\"24\" data-pf2-show-dc=\"gm\">Thievery</span> (trained) twice to assemble a seal using objects strongly grounded to the Material Plane, <span data-pf2-check=\"arcana\" data-pf2-traits=\"environmental,magical\" data-pf2-label=\"Invoke Incantations DC\" data-pf2-dc=\"22\" data-pf2-show-dc=\"gm\">Arcana</span> (trained) twice to invoke incantations to seal the cracks, or <em>@Compendium[pf2e.spells-srd.Dispel Magic]{Dispel Magic}</em> (3rd level, counteract DC 20) to counteract the cracks.</p>",
            "isComplex": true,
            "level": {
                "value": 5
            },
            "reset": "<p>The cracks re-form after 1 hour.</p>",
            "routine": "<p><span class=\"pf2-icon\">1</span> A surge of energy strikes a random non-mephit creature in the foyer. Roll [[/r 1d4]] to determine the element of the energy surge.</p>\n<p>1-Energy from the Plane of Air: the creature takes [[/r 2d8 #electricity]]{2d8 electricity damage} (<span data-pf2-saving-throw=\"reflex\" data-pf2-traits=\"damaging-effect,air,electricity\" data-pf2-label=\"Planar Cracks DC\" data-pf2-dc=\"22\" data-pf2-show-dc=\"gm\">basic Reflex</span> save); on a failure, the creature is pushed back 10 feet toward the entryway. The hazard gains the air and electricity traits for this round.</p>\n<p>2-Energy from the Plane of Earth: the creature takes [[/r 2d8 #bludgeoning]]{2d8 bludgeoning damage} (<span data-pf2-saving-throw=\"reflex\" data-pf2-traits=\"damaging-effect,earth\" data-pf2-label=\"Planar Cracks DC\" data-pf2-dc=\"22\" data-pf2-show-dc=\"gm\">basic Reflex</span> save); on a failed save, the creature is knocked @Compendium[pf2e.conditionitems.Prone]{Prone}. The hazard gains the earth trait for this round.</p>\n<p>3-Energy from the Plane of Fire: the creature takes [[/r 2d8+7 #fire]]{2d8+7 fire damage} (<span data-pf2-saving-throw=\"reflex\" data-pf2-traits=\"damaging-effect,fire\" data-pf2-label=\"Planar Cracks DC\" data-pf2-dc=\"22\" data-pf2-show-dc=\"gm\">basic Reflex</span> save). The hazard gains the fire trait for this round.</p>\n<p>4-Energy from the Plane of Water: the creature takes [[/r 2d8 #cold]]{2d8 cold damage} (<span data-pf2-saving-throw=\"reflex\" data-pf2-traits=\"damaging-effect,water\" data-pf2-label=\"Planar Cracks DC\" data-pf2-dc=\"22\" data-pf2-show-dc=\"gm\">basic Reflex</span> save); on a failed save, the creature's lungs fill with water, making them @Compendium[pf2e.conditionitems.Sickened]{Sickened 1}. The hazard gains the cold and water traits for this round.</p>"
        },
        "saves": {
            "fortitude": {
                "saveDetail": "",
                "value": 0
            },
            "reflex": {
                "saveDetail": "",
                "value": 0
            },
            "will": {
                "saveDetail": "",
                "value": 0
            }
        },
        "source": {
            "value": "Pathfinder Society Scenario 2-16: Freedom for Wishes"
        },
        "statusEffects": [],
        "traits": {
            "ci": [],
            "di": {
                "custom": "",
                "selected": {},
                "value": []
            },
            "dr": [],
            "dv": [],
            "rarity": {
                "value": "common"
            },
            "size": {
                "value": "med"
            },
            "traits": {
                "custom": "",
                "value": [
                    "environmental",
                    "magical"
                ]
            }
        }
    },
    "effects": [],
    "flags": {},
    "img": "systems/pf2e/icons/default-icons/hazard.svg",
    "items": [
        {
            "_id": "HjR2aMjd5usxkdqA",
            "data": {
                "actionCategory": {
                    "value": "offensive"
                },
                "actionType": {
                    "value": "reaction"
                },
                "actions": {
                    "value": null
                },
                "description": {
                    "value": "<p data-visibility=\"gm\"><strong>Trigger</strong> A non-mephit creature enters the manor;</p>\n<p><strong>Effect</strong> Raw elemental energy seeps into the Material Plane. The hazard rolls initiative.</p>"
                },
                "requirements": {
                    "value": ""
                },
                "rules": [],
                "slug": null,
                "source": {
                    "value": ""
                },
                "traits": {
                    "custom": "",
                    "rarity": {
                        "value": "common"
                    },
                    "value": [
                        "arcane",
                        "evocation"
                    ]
                },
                "trigger": {
                    "value": ""
                },
                "weapon": {
                    "value": ""
                }
            },
            "effects": [],
            "flags": {},
            "img": "systems/pf2e/icons/actions/Reaction.webp",
            "name": "Elemental Surge",
            "sort": 100000,
            "type": "action"
        }
    ],
    "name": "Planar Cracks (5-6)",
    "token": {
        "disposition": 0,
        "height": 1,
        "img": "systems/pf2e/icons/default-icons/hazard.svg",
        "name": "Planar Cracks",
        "width": 1
    },
    "type": "hazard"
}
