{
    "_id": "NFKQObG0b0lVsvgS",
    "data": {
        "attributes": {
            "ac": {
                "value": 0
            },
            "hardness": 0,
            "hasHealth": true,
            "hp": {
                "details": "",
                "max": 0,
                "temp": 0,
                "value": 0
            },
            "stealth": {
                "details": "",
                "value": 5
            }
        },
        "creatureType": "",
        "details": {
            "description": "<p>The ice here is fractured due to the warming weather conditions and the inexorable flow of the ocean water below.</p>",
            "disable": "<p><span class=\"pf2-icon\">2</span> <span data-pf2-check=\"athletics\" data-pf2-traits=\"environmental\" data-pf2-label=\"Move Ice DC\" data-pf2-dc=\"19\" data-pf2-show-dc=\"gm\">Athletics</span> to move the ice sheets into a more stable position</p>",
            "isComplex": false,
            "level": {
                "value": 0
            },
            "reset": "",
            "routine": ""
        },
        "saves": {
            "fortitude": {
                "saveDetail": "",
                "value": 0
            },
            "reflex": {
                "saveDetail": "",
                "value": 0
            },
            "will": {
                "saveDetail": "",
                "value": 0
            }
        },
        "source": {
            "value": "Pathfinder Bounty #1: The Whitefang Wyrm"
        },
        "statusEffects": [],
        "traits": {
            "ci": [],
            "di": {
                "custom": "",
                "selected": {},
                "value": []
            },
            "dr": [],
            "dv": [],
            "rarity": {
                "value": "common"
            },
            "size": {
                "value": "med"
            },
            "traits": {
                "custom": "",
                "value": [
                    "environmental",
                    "trap"
                ]
            }
        }
    },
    "effects": [],
    "flags": {},
    "img": "systems/pf2e/icons/default-icons/hazard.svg",
    "items": [
        {
            "_id": "tOkK7VcS3bp0gRuZ",
            "data": {
                "actionCategory": {
                    "value": "offensive"
                },
                "actionType": {
                    "value": "reaction"
                },
                "actions": {
                    "value": null
                },
                "description": {
                    "value": "<p data-visibility=\"gm\"><strong>Trigger</strong> A creature steps onto the unstable ice;</p>\n<p><strong>Effect</strong> The weight and momentum of the creatures causes the fractured ice to shatter and separate, leaving them stranded on a floating iceberg.</p>"
                },
                "requirements": {
                    "value": ""
                },
                "rules": [],
                "slug": null,
                "source": {
                    "value": ""
                },
                "traits": {
                    "custom": "",
                    "rarity": {
                        "value": "common"
                    },
                    "value": []
                },
                "trigger": {
                    "value": ""
                },
                "weapon": {
                    "value": ""
                }
            },
            "effects": [],
            "flags": {},
            "img": "systems/pf2e/icons/actions/Reaction.webp",
            "name": "Drift",
            "sort": 0,
            "type": "action"
        }
    ],
    "name": "Unstable Ice",
    "token": {
        "disposition": 0,
        "height": 1,
        "img": "systems/pf2e/icons/default-icons/hazard.svg",
        "name": "Unstable Ice",
        "width": 1
    },
    "type": "hazard"
}
