{
    "_id": "fViWNHKjjL7fYbjW",
    "data": {
        "abilities": {
            "cha": {
                "mod": -3
            },
            "con": {
                "mod": 3
            },
            "dex": {
                "mod": 0
            },
            "int": {
                "mod": -5
            },
            "str": {
                "mod": 2
            },
            "wis": {
                "mod": 0
            }
        },
        "attributes": {
            "ac": {
                "details": "",
                "value": 15
            },
            "allSaves": {
                "value": null
            },
            "hp": {
                "details": "",
                "max": 9,
                "temp": 0,
                "value": 9
            },
            "initiative": {
                "ability": "perception"
            },
            "perception": {
                "value": 2
            },
            "shield": {
                "ac": 2,
                "brokenThreshold": 0,
                "hardness": 0,
                "max": 0,
                "value": 0
            },
            "speed": {
                "otherSpeeds": [
                    {
                        "exceptions": "",
                        "label": "Swim",
                        "type": "swim",
                        "value": "30"
                    }
                ],
                "value": "30"
            }
        },
        "details": {
            "alignment": {
                "value": "N"
            },
            "creatureType": "",
            "flavorText": "<p>Fearsome predators and durable pests, eurypterids are hard-carapaced arthropods sometimes referred to as sea scorpions. Though aquatic creatures, they have robust respiratory systems that allow them to survive indefinitely on land. All eurypterids possess claws as well as stingers that can inject venom.</p>\n<hr />\n<p>The smallest of the giant eurypterids can grow to about the size of a large dog. These eurypterids are a staple food for people living in marshlands, who add the meat to heavily spiced stews, but they're otherwise considered dangerous pests.</p>",
            "level": {
                "value": -1
            },
            "source": {
                "value": "Pathfinder Bestiary 3"
            }
        },
        "resources": {},
        "saves": {
            "fortitude": {
                "saveDetail": "",
                "value": 7
            },
            "reflex": {
                "saveDetail": "",
                "value": 4
            },
            "will": {
                "saveDetail": "",
                "value": 2
            }
        },
        "traits": {
            "attitude": {
                "value": "hostile"
            },
            "ci": [],
            "di": {
                "custom": "",
                "value": []
            },
            "dr": [],
            "dv": [],
            "languages": {
                "custom": "",
                "selected": [],
                "value": []
            },
            "rarity": {
                "value": "common"
            },
            "senses": {
                "value": "low-light vision, wavesense (imprecise) 30 feet"
            },
            "size": {
                "value": "med"
            },
            "traits": {
                "custom": "",
                "value": [
                    "amphibious",
                    "animal"
                ]
            }
        }
    },
    "effects": [],
    "flags": {},
    "img": "systems/pf2e/icons/default-icons/npc.svg",
    "items": [
        {
            "_id": "U4IAJfb86qQA800m",
            "data": {
                "attack": {
                    "value": ""
                },
                "attackEffects": {
                    "custom": "",
                    "value": [
                        "Grab"
                    ]
                },
                "bonus": {
                    "value": 6
                },
                "damageRolls": {
                    "0": {
                        "damage": "1d6+2",
                        "damageType": "slashing"
                    }
                },
                "description": {
                    "value": ""
                },
                "rules": [],
                "slug": null,
                "source": {
                    "value": ""
                },
                "traits": {
                    "custom": "",
                    "rarity": {
                        "value": "common"
                    },
                    "value": []
                },
                "weaponType": {
                    "value": "melee"
                }
            },
            "effects": [],
            "flags": {},
            "img": "systems/pf2e/icons/default-icons/melee.svg",
            "name": "Pincer",
            "sort": 100000,
            "type": "melee"
        },
        {
            "_id": "1AH3QAMA4BbIHNxh",
            "data": {
                "attack": {
                    "value": ""
                },
                "attackEffects": {
                    "custom": "",
                    "value": [
                        "Eurypterid Venom"
                    ]
                },
                "bonus": {
                    "value": 6
                },
                "damageRolls": {
                    "0": {
                        "damage": "1d4+2",
                        "damageType": "piercing"
                    }
                },
                "description": {
                    "value": ""
                },
                "rules": [],
                "slug": null,
                "source": {
                    "value": ""
                },
                "traits": {
                    "custom": "",
                    "rarity": {
                        "value": "common"
                    },
                    "value": []
                },
                "weaponType": {
                    "value": "melee"
                }
            },
            "effects": [],
            "flags": {},
            "img": "systems/pf2e/icons/default-icons/melee.svg",
            "name": "Stinger",
            "sort": 200000,
            "type": "melee"
        },
        {
            "_id": "UQgqIDpkTWprpPzL",
            "data": {
                "actionCategory": {
                    "value": "interaction"
                },
                "actionType": {
                    "value": "passive"
                },
                "actions": {
                    "value": null
                },
                "description": {
                    "value": "<p>The monster can see in dim light as though it were bright light, so it ignores the @Compendium[pf2e.conditionitems.Concealed]{Concealed} condition due to dim light.</p>"
                },
                "requirements": {
                    "value": ""
                },
                "rules": [],
                "slug": "low-light-vision",
                "source": {
                    "value": ""
                },
                "traits": {
                    "custom": "",
                    "rarity": {
                        "value": "common"
                    },
                    "value": []
                },
                "trigger": {
                    "value": ""
                },
                "weapon": {
                    "value": ""
                }
            },
            "effects": [],
            "flags": {
                "core": {
                    "sourceId": "Compendium.pf2e.bestiary-ability-glossary-srd.fFu2sZz4KB01fVRc"
                }
            },
            "img": "systems/pf2e/icons/default-icons/action.svg",
            "name": "Low-Light Vision",
            "sort": 300000,
            "type": "action"
        },
        {
            "_id": "WKOA5jV7935qIaIo",
            "data": {
                "actionCategory": {
                    "value": "interaction"
                },
                "actionType": {
                    "value": "passive"
                },
                "actions": {
                    "value": null
                },
                "description": {
                    "value": "<p>This sense allows a monster to feel vibrations caused by movement through a liquid. It's an imprecise sense with a limited range (listed in the ability). Wavesense functions only if monster and the subject are in the same body of liquid, and only if the subject is moving through the liquid.</p>"
                },
                "requirements": {
                    "value": ""
                },
                "rules": [],
                "slug": "wavesense",
                "source": {
                    "value": ""
                },
                "traits": {
                    "custom": "",
                    "rarity": {
                        "value": "common"
                    },
                    "value": []
                },
                "trigger": {
                    "value": ""
                },
                "weapon": {
                    "value": ""
                }
            },
            "effects": [],
            "flags": {
                "core": {
                    "sourceId": "Compendium.pf2e.bestiary-ability-glossary-srd.VdSMQ6yRZ3YXNXHL"
                }
            },
            "img": "systems/pf2e/icons/default-icons/mystery-man.svg",
            "name": "Wavesense (Imprecise) 30 Feet",
            "sort": 400000,
            "type": "action"
        },
        {
            "_id": "OvoJR0fdN07ZLFYR",
            "data": {
                "actionCategory": {
                    "value": "defensive"
                },
                "actionType": {
                    "value": "reaction"
                },
                "actions": {
                    "value": null
                },
                "description": {
                    "value": "<p>Stinger only</p>\n<hr />\n<p><strong>Trigger</strong> A creature within the monster's reach uses a manipulate action or a move action, makes a ranged attack, or leaves a square during a move action it's using.</p>\n<p><strong>Effect</strong> The monster attempts a melee Strike against the triggering creature. If the attack is a critical hit and the trigger was a manipulate action, the monster disrupts that action. This Strike doesn't count toward the monster's multiple attack penalty, and its multiple attack penalty doesn't apply to this Strike.</p>"
                },
                "requirements": {
                    "value": ""
                },
                "rules": [],
                "slug": "attack-of-opportunity",
                "source": {
                    "value": ""
                },
                "traits": {
                    "custom": "",
                    "rarity": {
                        "value": "common"
                    },
                    "value": []
                },
                "trigger": {
                    "value": ""
                },
                "weapon": {
                    "value": ""
                }
            },
            "effects": [],
            "flags": {
                "core": {
                    "sourceId": "Compendium.pf2e.bestiary-ability-glossary-srd.hFtNbo1LKYCoDy2O"
                }
            },
            "img": "systems/pf2e/icons/actions/Reaction.webp",
            "name": "Attack of Opportunity (Stinger Only)",
            "sort": 500000,
            "type": "action"
        },
        {
            "_id": "uLZvd57CejMavFox",
            "data": {
                "actionCategory": {
                    "value": "offensive"
                },
                "actionType": {
                    "value": "passive"
                },
                "actions": {
                    "value": null
                },
                "description": {
                    "value": "<p><strong>Saving Throw</strong> <span data-pf2-check=\"fortitude\" data-pf2-dc=\"14\" data-pf2-traits=\"poison\" data-pf2-label=\"Eurypterid Venom DC\" data-pf2-show-dc=\"gm\">Fortitude</span>;</p>\n<p><strong>Maximum Duration</strong> 4 rounds;</p>\n<p><strong>Stage 1</strong> [[/r 1d4 #poison]]{1d4 poison damage} (1 round);</p>\n<p><strong>Stage 2</strong> [[/r 1d6 #poison]]{1d6 poison damage} (1 round);</p>\n<p><strong>Stage 3</strong> [[/r 1d6 #poison]]{1d6 poison damage} and @Compendium[pf2e.conditionitems.Enfeebled]{Enfeebled 1} (1 round)</p>"
                },
                "requirements": {
                    "value": ""
                },
                "rules": [],
                "slug": null,
                "source": {
                    "value": ""
                },
                "traits": {
                    "custom": "",
                    "rarity": {
                        "value": "common"
                    },
                    "value": [
                        "poison"
                    ]
                },
                "trigger": {
                    "value": ""
                },
                "weapon": {
                    "value": ""
                }
            },
            "effects": [],
            "flags": {},
            "img": "systems/pf2e/icons/default-icons/mystery-man.svg",
            "name": "Eurypterid Venom",
            "sort": 600000,
            "type": "action"
        },
        {
            "_id": "R6XHv4H8ZshCgHND",
            "data": {
                "actionCategory": {
                    "value": "offensive"
                },
                "actionType": {
                    "value": "action"
                },
                "actions": {
                    "value": 1
                },
                "description": {
                    "value": "<p><strong>Requirements</strong> The monster's last action was a success with a Strike that lists Grab in its damage entry, or it has a creature grabbed using this action.</p>\n<p><strong>Effect</strong> The monster automatically Grabs the target until the end of the monster's next turn. The creature is @Compendium[pf2e.conditionitems.Grabbed]{Grabbed} by whichever body part the monster attacked with, and that body part can't be used to Strike creatures until the grab is ended. Using Grab extends the duration of the monster's Grab until the end of its next turn for all creatures grabbed by it. A grabbed creature can use the @Compendium[pf2e.actionspf2e.Escape]{Escape} action to get out of the grab, and the Grab ends for a grabbed creatures if the monster moves away from it.</p>"
                },
                "requirements": {
                    "value": ""
                },
                "rules": [],
                "slug": "grab",
                "source": {
                    "value": ""
                },
                "traits": {
                    "custom": "",
                    "rarity": {
                        "value": "common"
                    },
                    "value": []
                },
                "trigger": {
                    "value": ""
                },
                "weapon": {
                    "value": ""
                }
            },
            "effects": [],
            "flags": {
                "core": {
                    "sourceId": "Compendium.pf2e.bestiary-ability-glossary-srd.Tkd8sH4pwFIPzqTr"
                }
            },
            "img": "systems/pf2e/icons/actions/OneAction.webp",
            "name": "Grab",
            "sort": 700000,
            "type": "action"
        },
        {
            "_id": "lNDp1mkoJq1bJFOG",
            "data": {
                "description": {
                    "value": ""
                },
                "item": {
                    "value": 0
                },
                "mod": {
                    "value": 4
                },
                "proficient": {
                    "value": 0
                },
                "rules": [],
                "slug": null,
                "source": {
                    "value": ""
                },
                "traits": {
                    "custom": "",
                    "rarity": {
                        "value": "common"
                    },
                    "value": []
                }
            },
            "effects": [],
            "flags": {},
            "img": "systems/pf2e/icons/default-icons/lore.svg",
            "name": "Athletics",
            "sort": 800000,
            "type": "lore"
        },
        {
            "_id": "rGeRwp7tmvBDyn0S",
            "data": {
                "description": {
                    "value": ""
                },
                "item": {
                    "value": 0
                },
                "mod": {
                    "value": 4
                },
                "proficient": {
                    "value": 0
                },
                "rules": [],
                "slug": null,
                "source": {
                    "value": ""
                },
                "traits": {
                    "custom": "",
                    "rarity": {
                        "value": "common"
                    },
                    "value": []
                }
            },
            "effects": [],
            "flags": {},
            "img": "systems/pf2e/icons/default-icons/lore.svg",
            "name": "Stealth",
            "sort": 900000,
            "type": "lore"
        }
    ],
    "name": "Common Eurypterid",
    "token": {
        "disposition": -1,
        "height": 1,
        "img": "systems/pf2e/icons/default-icons/npc.svg",
        "name": "Common Eurypterid",
        "width": 1
    },
    "type": "npc"
}
