{
    "_id": "JlFBu8zobNq3daVF",
    "data": {
        "abilities": {
            "cha": {
                "mod": -4
            },
            "con": {
                "mod": 4
            },
            "dex": {
                "mod": 3
            },
            "int": {
                "mod": -5
            },
            "str": {
                "mod": -1
            },
            "wis": {
                "mod": 1
            }
        },
        "attributes": {
            "ac": {
                "details": "",
                "value": 20
            },
            "allSaves": {
                "value": null
            },
            "hp": {
                "details": "",
                "max": 60,
                "temp": 0,
                "value": 60
            },
            "initiative": {
                "ability": "perception"
            },
            "perception": {
                "value": 12
            },
            "shield": {
                "ac": 2,
                "brokenThreshold": 0,
                "hardness": 0,
                "max": 0,
                "value": 0
            },
            "speed": {
                "otherSpeeds": [
                    {
                        "exceptions": "",
                        "label": "Burrow",
                        "type": "burrow",
                        "value": "30"
                    }
                ],
                "value": "15"
            }
        },
        "details": {
            "alignment": {
                "value": "N"
            },
            "creatureType": "",
            "flavorText": "<p>The humble bore worm is a small and simple creature, both biologically and magically. These qualities allow it to adapt rapidly to different environments, some of them quite extreme, and also makes it susceptible to magical radiation and experimentation. Many a Darklands apprentice takes their first steps in the school of transmutation by practicing on these worms, while variations-both natural and cultivated-are scattered about beneath Golarion's surface.</p>\n<p>An undead sorcerer in the ghoul-run Darklands city of Nemret Noktoria developed necral worms about 60 years ago by filling an empress bore worm's abandoned exoskeleton with a unique alchemical paste. These undead bore worms radiate the very energies of death, making them surprisingly sophisticated magical batteries. Less pleasant entities often use them as magical tools. Necral worms have the undead trait and negative healing. They substitute negative damage for acid damage in all of their attacks and abilities, and they gain a weakness to positive damage in place of their weakness to water.</p>",
            "level": {
                "value": 5
            },
            "source": {
                "value": "Pathfinder Bestiary 3"
            }
        },
        "resources": {},
        "saves": {
            "fortitude": {
                "saveDetail": "",
                "value": 15
            },
            "reflex": {
                "saveDetail": "",
                "value": 12
            },
            "will": {
                "saveDetail": "",
                "value": 8
            }
        },
        "traits": {
            "attitude": {
                "value": "hostile"
            },
            "ci": [],
            "di": {
                "custom": "",
                "value": [
                    "acid",
                    "precision",
                    "swarm-mind"
                ]
            },
            "dr": [
                {
                    "exceptions": "",
                    "label": "Bludgeoning",
                    "type": "bludgeoning",
                    "value": 4
                },
                {
                    "exceptions": "",
                    "label": "Piercing",
                    "type": "piercing",
                    "value": 8
                },
                {
                    "exceptions": "",
                    "label": "Slashing",
                    "type": "slashing",
                    "value": 8
                }
            ],
            "dv": [
                {
                    "exceptions": "",
                    "label": "Area Damage",
                    "type": "area-damage",
                    "value": "4"
                },
                {
                    "exceptions": "",
                    "label": "Positive",
                    "type": "positive",
                    "value": "8"
                },
                {
                    "exceptions": "",
                    "label": "Splash Damage",
                    "type": "splash-damage",
                    "value": "4"
                }
            ],
            "languages": {
                "custom": "",
                "selected": [],
                "value": []
            },
            "rarity": {
                "value": "common"
            },
            "senses": {
                "value": "tremorsense (imprecise) 60 feet"
            },
            "size": {
                "value": "lg"
            },
            "traits": {
                "custom": "",
                "value": [
                    "animal",
                    "swarm",
                    "undead"
                ]
            }
        }
    },
    "effects": [],
    "flags": {},
    "img": "systems/pf2e/icons/default-icons/npc.svg",
    "items": [
        {
            "_id": "g67OF2C6ofc7JN3N",
            "data": {
                "actionCategory": {
                    "value": "interaction"
                },
                "actionType": {
                    "value": "passive"
                },
                "actions": {
                    "value": null
                },
                "description": {
                    "value": "<p>Tremorsense allows a monster to feel the vibrations through a solid surface caused by movement. It is an imprecise sense with a limited range (listed in the ability). Tremorsense functions only if the monster is on the same surface as the subject, and only if the subject is moving along (or burrowing through) the surface.</p>"
                },
                "requirements": {
                    "value": ""
                },
                "rules": [],
                "slug": "tremorsense",
                "source": {
                    "value": ""
                },
                "traits": {
                    "custom": "",
                    "rarity": {
                        "value": "common"
                    },
                    "value": []
                },
                "trigger": {
                    "value": ""
                },
                "weapon": {
                    "value": ""
                }
            },
            "effects": [],
            "flags": {
                "core": {
                    "sourceId": "Compendium.pf2e.bestiary-ability-glossary-srd.j2wsK6IsW5yMW1jW"
                }
            },
            "img": "systems/pf2e/icons/default-icons/mystery-man.svg",
            "name": "Tremorsense (Imprecise) 60 feet",
            "sort": 100000,
            "type": "action"
        },
        {
            "_id": "cEoEWTWpIT4SBb0S",
            "data": {
                "actionCategory": {
                    "value": "defensive"
                },
                "actionType": {
                    "value": "passive"
                },
                "actions": {
                    "value": null
                },
                "description": {
                    "value": "<p>This monster doesn't have a single mind (typically because it's a swarm of smaller creatures), and is immune to mental effects that target only a specific number of creatures. It is still subject to mental effects that affect all creatures in an area.</p>"
                },
                "requirements": {
                    "value": ""
                },
                "rules": [],
                "slug": "swarm-mind",
                "source": {
                    "value": ""
                },
                "traits": {
                    "custom": "",
                    "rarity": {
                        "value": "common"
                    },
                    "value": []
                },
                "trigger": {
                    "value": ""
                },
                "weapon": {
                    "value": ""
                }
            },
            "effects": [],
            "flags": {
                "core": {
                    "sourceId": "Compendium.pf2e.bestiary-ability-glossary-srd.baA0nSMhQyFyJIia"
                }
            },
            "img": "systems/pf2e/icons/default-icons/action.svg",
            "name": "Swarm Mind",
            "sort": 200000,
            "type": "action"
        },
        {
            "_id": "AnUoueNoV6oGqvsj",
            "data": {
                "actionCategory": {
                    "value": "defensive"
                },
                "actionType": {
                    "value": "passive"
                },
                "actions": {
                    "value": null
                },
                "description": {
                    "value": "<p>A creature with negative healing draws health from negative energy rather than positive energy. It is damaged by positive damage and is not healed by positive healing effects. It does not take negative damage, and it is healed by negative effects that heal undead.</p>"
                },
                "requirements": {
                    "value": ""
                },
                "rules": [],
                "slug": "negative-healing",
                "source": {
                    "value": ""
                },
                "traits": {
                    "custom": "",
                    "rarity": {
                        "value": "common"
                    },
                    "value": []
                },
                "trigger": {
                    "value": ""
                },
                "weapon": {
                    "value": ""
                }
            },
            "effects": [],
            "flags": {
                "core": {
                    "sourceId": "Compendium.pf2e.bestiary-ability-glossary-srd.TTCw5NusiSSkJU1x"
                }
            },
            "img": "systems/pf2e/icons/default-icons/action.svg",
            "name": "Negative Healing",
            "sort": 300000,
            "type": "action"
        },
        {
            "_id": "OLXpGW8u6XmpJXAp",
            "data": {
                "actionCategory": {
                    "value": "offensive"
                },
                "actionType": {
                    "value": "action"
                },
                "actions": {
                    "value": 1
                },
                "description": {
                    "value": "<p>Each enemy in the swarm's space takes [[/r 3d6 #negative]]{3d6 negative damage} (<span data-pf2-check=\"reflex\" data-pf2-dc=\"22\" data-pf2-traits=\"damaging-effect\" data-pf2-label=\"Swarming Bites DC\" data-pf2-show-dc=\"gm\">basic Reflex</span> save).</p>\n<p>Creatures that fail this save become @Compendium[pf2e.conditionitems.Sickened]{Sickened 1} from the swarm's painful bites.</p>"
                },
                "requirements": {
                    "value": ""
                },
                "rules": [],
                "slug": null,
                "source": {
                    "value": ""
                },
                "traits": {
                    "custom": "",
                    "rarity": {
                        "value": "common"
                    },
                    "value": []
                },
                "trigger": {
                    "value": ""
                },
                "weapon": {
                    "value": ""
                }
            },
            "effects": [],
            "flags": {},
            "img": "systems/pf2e/icons/actions/OneAction.webp",
            "name": "Swarming Bites",
            "sort": 400000,
            "type": "action"
        },
        {
            "_id": "Mm7pnDGmW2sAe8fA",
            "data": {
                "description": {
                    "value": ""
                },
                "item": {
                    "value": 0
                },
                "mod": {
                    "value": 10
                },
                "proficient": {
                    "value": 0
                },
                "rules": [],
                "slug": null,
                "source": {
                    "value": ""
                },
                "traits": {
                    "custom": "",
                    "rarity": {
                        "value": "common"
                    },
                    "value": []
                }
            },
            "effects": [],
            "flags": {},
            "img": "systems/pf2e/icons/default-icons/lore.svg",
            "name": "Acrobatics",
            "sort": 500000,
            "type": "lore"
        },
        {
            "_id": "4jngUkRy8r9Obgsh",
            "data": {
                "description": {
                    "value": ""
                },
                "item": {
                    "value": 0
                },
                "mod": {
                    "value": 12
                },
                "proficient": {
                    "value": 0
                },
                "rules": [],
                "slug": null,
                "source": {
                    "value": ""
                },
                "traits": {
                    "custom": "",
                    "rarity": {
                        "value": "common"
                    },
                    "value": []
                }
            },
            "effects": [],
            "flags": {},
            "img": "systems/pf2e/icons/default-icons/lore.svg",
            "name": "Stealth",
            "sort": 600000,
            "type": "lore"
        }
    ],
    "name": "Necril Worm Swarm",
    "token": {
        "disposition": -1,
        "height": 2,
        "img": "systems/pf2e/icons/default-icons/npc.svg",
        "name": "Necril Worm Swarm",
        "width": 2
    },
    "type": "npc"
}
