{
    "_id": "ZIFaA4jDQjM0vq8q",
    "data": {
        "actionCategory": {
            "value": "defensive"
        },
        "actionType": {
            "value": "passive"
        },
        "actions": {
            "value": null
        },
        "description": {
            "value": "<p>When a graveknight is destroyed, its armor rebuilds its body over the course of [[/br 1d10 #days]]{1d10 days}-or more quickly if the armor is worn by a living host. If the body is destroyed before then, the process restarts.</p>\n<p>A graveknight can only be permanently destroyed by obliterating its armor (such as with <em>@Compendium[pf2e.spells-srd.Disintegrate]{Disintegrate}</em>), transporting it to the Positive Energy Plane, or throwing it into the heart of a volcano.</p>"
        },
        "requirements": {
            "value": ""
        },
        "rules": [],
        "source": {
            "value": "Pathfinder Bestiary"
        },
        "traits": {
            "custom": "",
            "rarity": {
                "value": "common"
            },
            "value": [
                "divine",
                "necromancy"
            ]
        },
        "trigger": {
            "value": ""
        },
        "weapon": {
            "value": ""
        }
    },
    "effects": [],
    "flags": {},
    "img": "systems/pf2e/icons/actions/Passive.webp",
    "name": "(Graveknight) Rejunvenation",
    "type": "action"
}
