{
    "_id": "teabm1YiRAKdUaEQ",
    "data": {
        "attributes": {
            "ac": {
                "value": 0
            },
            "hardness": 0,
            "hasHealth": true,
            "hp": {
                "details": "",
                "max": 10,
                "temp": 0,
                "tempmax": 0,
                "value": 10
            },
            "stealth": {
                "details": "<p>(master)</p>",
                "value": 33
            }
        },
        "creatureType": "",
        "details": {
            "description": "Lines of searing lava lance through the area, causing targets to shake as if caught in an earthquake and potentially become petrified.",
            "disable": "<p><span data-pf2-check=\"thievery\" data-pf2-traits=\"magical,trap\" data-pf2-label=\"Disable the Wards DC\" data-pf2-dc=\"43\" data-pf2-show-dc=\"gm\">Thievery</span> (master) to disable the wards or <em>@Compendium[pf2e.spells-srd.Dispel Magic]{Dispel Magic}</em> (9th level; counteract DC 38) to counteract the ward.</p>",
            "isComplex": false,
            "level": {
                "value": 19
            },
            "reset": "The trap resets after 1 minute.",
            "routine": ""
        },
        "saves": {
            "fortitude": {
                "saveDetail": "",
                "value": 0
            },
            "reflex": {
                "saveDetail": "",
                "value": 0
            },
            "will": {
                "saveDetail": "",
                "value": 0
            }
        },
        "source": {
            "value": "Pathfinder #149: Against the Scarlet Triad"
        },
        "statusEffects": [],
        "traits": {
            "ci": [],
            "di": {
                "custom": "",
                "selected": {},
                "value": []
            },
            "dr": [],
            "dv": [],
            "rarity": {
                "value": "common"
            },
            "size": {
                "value": "med"
            },
            "traits": {
                "custom": "",
                "value": [
                    "magical"
                ]
            }
        }
    },
    "effects": [],
    "flags": {},
    "img": "systems/pf2e/icons/default-icons/hazard.svg",
    "items": [
        {
            "_id": "o0njxNAMbjPeC9AS",
            "data": {
                "actionCategory": {
                    "value": "offensive"
                },
                "actionType": {
                    "value": "reaction"
                },
                "actions": {
                    "value": null
                },
                "description": {
                    "value": "<p><strong>Trigger</strong>: A creature enters the marked area;</p>\n<p><strong>Effect</strong>: Fiery spears make one Strike against each living creature within 5 feet of the marked area.</p>"
                },
                "requirements": {
                    "value": ""
                },
                "rules": [],
                "slug": null,
                "source": {
                    "value": ""
                },
                "traits": {
                    "custom": "",
                    "rarity": {
                        "value": "common"
                    },
                    "selected": {
                        "arcane": "Arcane",
                        "earth": "Earth",
                        "fire": "Fire"
                    },
                    "value": [
                        "arcane",
                        "earth",
                        "fire"
                    ]
                },
                "trigger": {
                    "value": ""
                },
                "weapon": {
                    "value": ""
                }
            },
            "effects": [],
            "flags": {},
            "img": "systems/pf2e/icons/actions/Reaction.webp",
            "name": "Cataclysmic Rain",
            "sort": 100000,
            "type": "action"
        },
        {
            "_id": "kZ6DWvbDyy1GyJ6D",
            "data": {
                "actionCategory": {
                    "value": "offensive"
                },
                "actionType": {
                    "value": "passive"
                },
                "actions": {
                    "value": null
                },
                "description": {
                    "value": "<p>A creature struck by a seismic spear is @Compendium[pf2e.conditionitems.Clumsy]{Clumsy 3} for 1 round as their body shakes uncontrollably. On a critical hit, a target must succeed at a <span data-pf2-check=\"fortitude\" data-pf2-dc=\"39\" data-pf2-label=\"Personal Quake DC\" data-pf2-show-dc=\"gm\">Fortitude</span> save or be @Compendium[pf2e.conditionitems.Petrified]{Petrified} for 1 minute, or permanently on a critical failure.</p>"
                },
                "requirements": {
                    "value": ""
                },
                "rules": [],
                "slug": null,
                "source": {
                    "value": ""
                },
                "traits": {
                    "custom": "",
                    "rarity": {
                        "value": "common"
                    },
                    "selected": {},
                    "value": []
                },
                "trigger": {
                    "value": ""
                },
                "weapon": {
                    "value": ""
                }
            },
            "effects": [],
            "flags": {},
            "img": "systems/pf2e/icons/actions/Passive.webp",
            "name": "Personal Quake",
            "sort": 200000,
            "type": "action"
        },
        {
            "_id": "Yimb91yYaAqRGR3x",
            "data": {
                "attack": {
                    "value": ""
                },
                "attackEffects": {
                    "custom": "",
                    "value": [
                        "map-does-not-apply",
                        "personal-quake"
                    ]
                },
                "bonus": {
                    "value": 40
                },
                "damageRolls": {
                    "6ch94mcppixkp10rj7rlra": {
                        "damage": "3d10+10",
                        "damageType": "fire"
                    },
                    "nul7n4wkfz2qkyxltkenx": {
                        "damage": "3d10+10",
                        "damageType": "piercing"
                    }
                },
                "description": {
                    "value": ""
                },
                "rules": [],
                "slug": null,
                "source": {
                    "value": ""
                },
                "traits": {
                    "custom": "",
                    "rarity": {
                        "value": "common"
                    },
                    "selected": {},
                    "value": []
                },
                "weaponType": {
                    "value": "ranged"
                }
            },
            "effects": [],
            "flags": {},
            "img": "systems/pf2e/icons/default-icons/melee.svg",
            "name": "Seismic Spear",
            "sort": 300000,
            "type": "melee"
        }
    ],
    "name": "Seismic Spears Trap",
    "token": {
        "disposition": 0,
        "height": 1,
        "img": "systems/pf2e/icons/default-icons/hazard.svg",
        "name": "Seismic Spears Trap",
        "width": 1
    },
    "type": "hazard"
}
