{
    "_id": "595MAHwB4JWtzLAA",
    "data": {
        "abilities": {
            "cha": {
                "mod": 3
            },
            "con": {
                "mod": 6
            },
            "dex": {
                "mod": 0
            },
            "int": {
                "mod": 4
            },
            "str": {
                "mod": 10
            },
            "wis": {
                "mod": 4
            }
        },
        "attributes": {
            "ac": {
                "details": "",
                "value": 37
            },
            "allSaves": {
                "value": ""
            },
            "hp": {
                "details": "",
                "max": 310,
                "temp": 0,
                "value": 310
            },
            "initiative": {
                "ability": "perception"
            },
            "perception": {
                "value": 26
            },
            "shield": {
                "ac": 0,
                "brokenThreshold": 0,
                "hardness": 0,
                "max": 0,
                "value": 0
            },
            "speed": {
                "otherSpeeds": [],
                "value": "can't move"
            }
        },
        "details": {
            "alignment": {
                "value": "NE"
            },
            "creatureType": "Undead",
            "flavorText": "<p>Those who tread in ruined places sometimes speak of a sense that a supernatural presence is there alongside them, as if the spirits of the dead were watching intently. Such presences can be very real, often taking the form of ghosts or other shades of undead that cannot let go of their attachment to the Material Plane. But sometimes, instead of manifesting as distinct spirits, the souls of the dead infuse the very stone and mortar around them. When enough souls attach themselves to a single place-be it a home, crypt, or castle-it can take on a life of its own, becoming a soulbound ruin.</p>",
            "level": {
                "value": 15
            },
            "source": {
                "value": "Pathfinder #148: Fires of the Haunted City"
            }
        },
        "resources": {},
        "saves": {
            "fortitude": {
                "saveDetail": "",
                "value": 29
            },
            "reflex": {
                "saveDetail": "",
                "value": 21
            },
            "will": {
                "saveDetail": "",
                "value": 27
            }
        },
        "traits": {
            "ci": [],
            "di": {
                "custom": "",
                "value": [
                    "bleed",
                    "death effects",
                    "disease",
                    "doomed",
                    "drained",
                    "fatigued",
                    "healing",
                    "necromancy",
                    "nonlethal attacks",
                    "paralyzed",
                    "poison",
                    "sickened",
                    "unconscious"
                ]
            },
            "dr": [
                {
                    "exceptions": "adamantine",
                    "label": "Physical",
                    "type": "physical",
                    "value": "10"
                }
            ],
            "dv": [
                {
                    "label": "Positive",
                    "type": "positive",
                    "value": "15"
                }
            ],
            "languages": {
                "custom": "and other languages typical to the region",
                "selected": [],
                "value": [
                    "common",
                    "custom"
                ]
            },
            "rarity": {
                "value": "Common"
            },
            "senses": {
                "value": "darkvision"
            },
            "size": {
                "value": "grg"
            },
            "traits": {
                "custom": "",
                "value": [
                    "construct",
                    "undead"
                ]
            }
        }
    },
    "effects": [],
    "flags": {},
    "img": "systems/pf2e/icons/default-icons/npc.svg",
    "items": [
        {
            "_id": "6vXIW8ykKResbdoP",
            "data": {
                "attack": {
                    "value": ""
                },
                "attackEffects": {
                    "value": []
                },
                "bonus": {
                    "value": 30
                },
                "damageRolls": {
                    "i01q0jcs49a9n6dafwe1": {
                        "damage": "4d10+9",
                        "damageType": "bludgeoning"
                    }
                },
                "description": {
                    "value": ""
                },
                "rules": [],
                "slug": null,
                "source": {
                    "value": ""
                },
                "traits": {
                    "custom": "",
                    "rarity": {
                        "value": "common"
                    },
                    "value": []
                },
                "weaponType": {
                    "value": "melee"
                }
            },
            "effects": [],
            "flags": {},
            "img": "systems/pf2e/icons/default-icons/melee.svg",
            "name": "Edifice",
            "sort": 100000,
            "type": "melee"
        },
        {
            "_id": "UEoP1iTA996nQOM7",
            "data": {
                "actionCategory": {
                    "value": "defensive"
                },
                "actionType": {
                    "value": "passive"
                },
                "actions": {
                    "value": null
                },
                "description": {
                    "value": "<p>When a soulbound ruin fails a saving throw against a spell that would banish tormented spirits or manipulate souls, such as banishment or bind soul, instead of experiencing the listed effects, it takes [[/r 10 #damage]]{10 damage per spell level}.</p>"
                },
                "requirements": {
                    "value": ""
                },
                "rules": [],
                "slug": null,
                "source": {
                    "value": ""
                },
                "traits": {
                    "custom": "",
                    "rarity": {
                        "value": "common"
                    },
                    "value": []
                },
                "trigger": {
                    "value": ""
                },
                "weapon": {
                    "value": ""
                }
            },
            "effects": [],
            "flags": {},
            "img": "systems/pf2e/icons/actions/Passive.webp",
            "name": "Vulnerability to Exorcism",
            "sort": 200000,
            "type": "action"
        },
        {
            "_id": "g0qPevrnYS9BD6gz",
            "data": {
                "actionCategory": {
                    "value": "defensive"
                },
                "actionType": {
                    "value": "reaction"
                },
                "actions": {
                    "value": null
                },
                "description": {
                    "value": "<p><strong>Frequency</strong> once per turn; <strong>Trigger</strong> A creature within the soulbound ruin uses an action with the move trait. <strong>Effect</strong> The soulbound ruin reacts violently to stop the creature's movement, shooting spikes, throwing bricks, or otherwise impeding the target. The target must succeed at a <span data-pf2-check=\"reflex\" data-pf2-dc=\"35\" data-pf2-label=\"Impede DC\" data-pf2-show-dc=\"gm\">Reflex</span> save or fall prone</p>"
                },
                "requirements": {
                    "value": ""
                },
                "rules": [],
                "slug": null,
                "source": {
                    "value": ""
                },
                "traits": {
                    "custom": "",
                    "rarity": {
                        "value": "common"
                    },
                    "value": []
                },
                "trigger": {
                    "value": ""
                },
                "weapon": {
                    "value": ""
                }
            },
            "effects": [],
            "flags": {},
            "img": "systems/pf2e/icons/default-icons/action.svg",
            "name": "Impede",
            "sort": 300000,
            "type": "action"
        },
        {
            "_id": "mI9BixS28bbT39nW",
            "data": {
                "actionCategory": {
                    "value": "offensive"
                },
                "actionType": {
                    "value": "action"
                },
                "actions": {
                    "value": 3
                },
                "description": {
                    "value": "<p>The ruin collapses up to three 10-footby- 10-foot sections of its ceiling. The ruin takes [[/r 10 #damage]]{10 damage} per section it collapses, and it can't collapse the same section until it has been repaired. Each creature in one of these areas takes [[/r 8d10 #bludgeoning]]{8d10 bludgeoning damage} with a <span data-pf2-check=\"reflex\" data-pf2-dc=\"35\" data-pf2-traits=\"damaging-effect\" data-pf2-label=\"Collapse Ceiling DC\" data-pf2-show-dc=\"gm\">basic Reflex</span> save. On a failed save, the creature is also restrained under the rubble until it Escapes (DC 33).</p>"
                },
                "requirements": {
                    "value": ""
                },
                "rules": [],
                "slug": null,
                "source": {
                    "value": ""
                },
                "traits": {
                    "custom": "",
                    "rarity": {
                        "value": "common"
                    },
                    "value": []
                },
                "trigger": {
                    "value": ""
                },
                "weapon": {
                    "value": ""
                }
            },
            "effects": [],
            "flags": {},
            "img": "systems/pf2e/icons/default-icons/action.svg",
            "name": "Collapse Ceiling",
            "sort": 400000,
            "type": "action"
        },
        {
            "_id": "llsIgFV7kY5ioGGg",
            "data": {
                "actionCategory": {
                    "value": "offensive"
                },
                "actionType": {
                    "value": "passive"
                },
                "actions": {
                    "value": null
                },
                "description": {
                    "value": "<p>A soulbound ruin's edifice Strikes can target any creature inside the ruin.</p>"
                },
                "requirements": {
                    "value": ""
                },
                "rules": [],
                "slug": null,
                "source": {
                    "value": ""
                },
                "traits": {
                    "custom": "",
                    "rarity": {
                        "value": "common"
                    },
                    "value": []
                },
                "trigger": {
                    "value": ""
                },
                "weapon": {
                    "value": ""
                }
            },
            "effects": [],
            "flags": {},
            "img": "systems/pf2e/icons/actions/Passive.webp",
            "name": "Pervasive Attacks",
            "sort": 500000,
            "type": "action"
        },
        {
            "_id": "8V82wSC1yZ9wVjY9",
            "data": {
                "actionCategory": {
                    "value": "offensive"
                },
                "actionType": {
                    "value": "passive"
                },
                "actions": {
                    "value": null
                },
                "description": {
                    "value": "<p>The ruin can spend 10 minutes repairing itself to regain up to 30 Hit Points. If the ruin is interrupted during this time, it loses its focus and the repair fails. This ability functions even if the ruin is reduced to 0 HP, unless a consecrate ritual has been performed to purify the building, in which case the soulbound ruin is destroyed. This ritual must be dedicated to a good deity or a deity with a strong opposition to undead, such as Pharasma.</p>"
                },
                "requirements": {
                    "value": ""
                },
                "rules": [],
                "slug": null,
                "source": {
                    "value": ""
                },
                "traits": {
                    "custom": "",
                    "rarity": {
                        "value": "common"
                    },
                    "value": []
                },
                "trigger": {
                    "value": ""
                },
                "weapon": {
                    "value": ""
                }
            },
            "effects": [],
            "flags": {},
            "img": "systems/pf2e/icons/actions/Passive.webp",
            "name": "Self-Repair",
            "sort": 600000,
            "type": "action"
        },
        {
            "_id": "IsTp8fGwRvFwpsNj",
            "data": {
                "description": {
                    "value": ""
                },
                "item": {
                    "value": 0
                },
                "mod": {
                    "value": 30
                },
                "proficient": {
                    "value": 0
                },
                "rules": [],
                "slug": null,
                "source": {
                    "value": ""
                },
                "traits": {
                    "custom": "",
                    "rarity": {
                        "value": "common"
                    },
                    "value": []
                }
            },
            "effects": [],
            "flags": {},
            "img": "systems/pf2e/icons/default-icons/lore.svg",
            "name": "Athletics",
            "sort": 700000,
            "type": "lore"
        },
        {
            "_id": "PxTBUnQg6HAm63Xx",
            "data": {
                "description": {
                    "value": ""
                },
                "item": {
                    "value": 0
                },
                "mod": {
                    "value": 26
                },
                "proficient": {
                    "value": 0
                },
                "rules": [],
                "slug": null,
                "source": {
                    "value": ""
                },
                "traits": {
                    "custom": "",
                    "rarity": {
                        "value": "common"
                    },
                    "value": []
                }
            },
            "effects": [],
            "flags": {},
            "img": "systems/pf2e/icons/default-icons/lore.svg",
            "name": "Deception",
            "sort": 800000,
            "type": "lore"
        }
    ],
    "name": "Soulbound Ruin",
    "token": {
        "disposition": -1,
        "height": 4,
        "img": "systems/pf2e/icons/default-icons/npc.svg",
        "name": "Soulbound Ruin",
        "width": 4
    },
    "type": "npc"
}
