{
    "_id": "SUQJPKt8N7rxx7Q1",
    "data": {
        "attributes": {
            "ac": {
                "value": 21
            },
            "hardness": 11,
            "hasHealth": true,
            "hp": {
                "details": "",
                "max": 44,
                "temp": 0,
                "tempmax": 0,
                "value": 44
            },
            "stealth": {
                "details": "<p>Trained</p>",
                "value": 15
            }
        },
        "creatureType": "",
        "details": {
            "description": "Spikes lance out of the doorframe to skewer anyone who attempts to open the door.",
            "disable": "Thievery DC 20 (trained) to deactivate a trigger built into the door's handle",
            "isComplex": false,
            "level": {
                "value": 4
            },
            "reset": "",
            "routine": ""
        },
        "saves": {
            "fortitude": {
                "saveDetail": "",
                "value": 12
            },
            "reflex": {
                "saveDetail": "",
                "value": 8
            },
            "will": {
                "saveDetail": "",
                "value": 0
            }
        },
        "source": {
            "value": ""
        },
        "statusEffects": [],
        "traits": {
            "ci": [],
            "di": {
                "custom": "",
                "selected": {},
                "value": [
                    "critical-hits",
                    "object-immunities",
                    "precision"
                ]
            },
            "dr": [],
            "dv": [],
            "rarity": {
                "value": "common"
            },
            "size": {
                "value": "med"
            },
            "traits": {
                "custom": "",
                "value": [
                    "mechanical"
                ]
            }
        }
    },
    "effects": [],
    "flags": {},
    "img": "systems/pf2e/icons/default-icons/hazard.svg",
    "items": [
        {
            "_id": "IJhw9ETWROv5Y9rt",
            "data": {
                "actionCategory": {
                    "value": "offensive"
                },
                "actionType": {
                    "value": "action"
                },
                "actions": {
                    "value": 1
                },
                "description": {
                    "value": "<p>The door is opened.</p>\n<p><strong>Effect</strong>: The trap makes an attack against the creature that opened the door.</p>"
                },
                "requirements": {
                    "value": ""
                },
                "rules": [],
                "slug": null,
                "source": {
                    "value": ""
                },
                "traits": {
                    "custom": "",
                    "rarity": {
                        "value": "common"
                    },
                    "selected": {
                        "attack": "Attack"
                    },
                    "value": [
                        "attack"
                    ]
                },
                "trigger": {
                    "value": ""
                },
                "weapon": {
                    "value": ""
                }
            },
            "effects": [],
            "flags": {},
            "img": "systems/pf2e/icons/actions/OneAction.webp",
            "name": "Spikes",
            "sort": 100000,
            "type": "action"
        },
        {
            "_id": "pFweIlOkcH38fuxf",
            "data": {
                "attack": {
                    "value": ""
                },
                "attackEffects": {
                    "value": []
                },
                "bonus": {
                    "value": 17
                },
                "damageRolls": {
                    "red27nyxjmbbllssxrdcz": {
                        "damage": "4d6+3",
                        "damageType": "piercing"
                    }
                },
                "description": {
                    "value": ""
                },
                "rules": [],
                "slug": null,
                "source": {
                    "value": ""
                },
                "traits": {
                    "custom": "",
                    "rarity": {
                        "value": "common"
                    },
                    "selected": {},
                    "value": []
                },
                "weaponType": {
                    "value": "melee"
                }
            },
            "effects": [],
            "flags": {},
            "img": "systems/pf2e/icons/default-icons/melee.svg",
            "name": "Spikes",
            "sort": 200000,
            "type": "melee"
        }
    ],
    "name": "Spiked Doorframe",
    "token": {
        "disposition": 0,
        "height": 1,
        "img": "systems/pf2e/icons/default-icons/hazard.svg",
        "name": "Spiked Doorframe",
        "width": 1
    },
    "type": "hazard"
}
