{
    "_id": "1xRFPTFtWtGJ9ELw",
    "data": {
        "actionCategory": {
            "value": ""
        },
        "actionType": {
            "value": "action"
        },
        "actions": {
            "value": 1
        },
        "description": {
            "value": "<p>You try to tell whether a creature's behavior is abnormal. Choose one creature, and assess it for odd body language, signs of nervousness, and other indicators that it might be trying to deceive someone. The GM attempts a single secret <span data-pf2-action=\"senseMotive\" data-pf2-glyph=\"A\">Perception</span> check for you and compares the result to the Deception DC of the creature, the DC of a spell affecting the creature's mental state, or another appropriate DC determined by the GM. You typically can't try to Sense the Motive of the same creature again until the situation changes significantly.</p>\n<hr />\n<p><strong>Critical Success</strong> You determine the creature's true intentions and get a solid idea of any mental magic affecting it.</p>\n<p><strong>Success</strong> You can tell whether the creature is behaving normally, but you don't know its exact intentions or what magic might be affecting it.</p>\n<p><strong>Failure</strong> You detect what a deceptive creature wants you to believe. If they're not being deceptive, you believe they're behaving normally.</p>\n<p><strong>Critical Failure</strong> You get a false sense of the creature's intentions.</p>"
        },
        "requirements": {
            "value": ""
        },
        "rules": [],
        "source": {
            "value": ""
        },
        "traits": {
            "custom": "",
            "rarity": {
                "value": "common"
            },
            "value": [
                "concentrate",
                "general",
                "secret"
            ]
        },
        "trigger": {
            "value": ""
        },
        "weapon": {
            "value": ""
        }
    },
    "effects": [],
    "flags": {},
    "img": "systems/pf2e/icons/actions/OneAction.webp",
    "name": "Sense Motive",
    "type": "action"
}
