{
    "_id": "fbSFwwp60AuDDKpK",
    "data": {
        "description": {
            "value": "<p>Granted by @Compendium[pf2e.equipment-srd.Belt of the Five Kings]{Belt of the Five Kings} when your ally activates it.</p>\n<p>Automatically applied effects:</p>\n<ul>\n<li>Gain Darkvision</li>\n</ul>"
        },
        "duration": {
            "expiry": "turn-start",
            "sustained": false,
            "unit": "minutes",
            "value": 10
        },
        "level": {
            "value": 9
        },
        "rules": [
            {
                "key": "PF2E.RuleElement.Sense",
                "label": "PF2E.SensesDarkvision",
                "selector": "darkvision"
            }
        ],
        "source": {
            "value": ""
        },
        "start": {
            "initiative": null,
            "value": 0
        },
        "target": null,
        "tokenIcon": {
            "show": true
        },
        "traits": {
            "custom": "",
            "rarity": {
                "value": "common"
            },
            "value": []
        }
    },
    "effects": [],
    "flags": {},
    "img": "systems/pf2e/icons/equipment/worn-items/other-worn-items/belt-of-the-five-kings.webp",
    "name": "Effect: Belt of the Five Kings (Allies)",
    "type": "effect"
}
