{
    "_id": "Le8UWr5BU8rV3iBf",
    "data": {
        "description": {
            "value": "<p>Your familiar's maximum Hit Points increase by 2 per level.</p>"
        },
        "duration": {
            "expiry": "turn-start",
            "sustained": false,
            "unit": "unlimited",
            "value": -1
        },
        "level": {
            "value": 1
        },
        "rules": [],
        "source": {
            "value": ""
        },
        "start": {
            "initiative": null,
            "value": 0
        },
        "target": null,
        "tokenIcon": {
            "show": false
        },
        "traits": {
            "custom": "",
            "rarity": {
                "value": "common"
            },
            "value": []
        }
    },
    "effects": [
        {
            "_id": "8YQMz1bE1gaUT27X",
            "changes": [
                {
                    "key": "data.attributes.hp.modifiers",
                    "mode": 2,
                    "value": "{\"type\":\"untyped\",\"modifier\":\"2 * @data.details.level.value\"}"
                }
            ],
            "disabled": false,
            "duration": {
                "startTime": null
            },
            "flags": {},
            "icon": "systems/pf2e/icons/actions/Passive.webp",
            "label": "Tough",
            "origin": "",
            "tint": null,
            "transfer": true
        }
    ],
    "flags": {},
    "img": "systems/pf2e/icons/actions/Passive.webp",
    "name": "Tough",
    "type": "effect"
}
