{
    "_id": "fYjvLx9DHIdCHdDx",
    "data": {
        "description": {
            "value": "<p>Granted by @Compendium[pf2e.equipment-srd.Applereed Mutagen (Moderate)]{Applereed Mutagen (Moderate)}</p>\n<p>Implemented effects:</p>\n<ul>\n<li>+3 item bonus to Athletics checks</li>\n<li>+15 foot status bonus to Speed</li>\n<li>You grow one size category larger</li>\n<li>-1 penalty to AC</li>\n<li>-2 to penalty Reflex saves</li>\n</ul>"
        },
        "duration": {
            "expiry": "turn-start",
            "sustained": false,
            "unit": "minutes",
            "value": 10
        },
        "level": {
            "value": 12
        },
        "rules": [
            {
                "key": "PF2E.RuleElement.FlatModifier",
                "label": "Applereed Mutagen (Moderate)",
                "selector": "athletics",
                "type": "item",
                "value": 3
            },
            {
                "key": "PF2E.RuleElement.FlatModifier",
                "label": "Applereed Mutagen (Moderate)",
                "selector": "ac",
                "type": "untyped",
                "value": -1
            },
            {
                "key": "PF2E.RuleElement.FlatModifier",
                "label": "Applereed Mutagen (Moderate)",
                "selector": "reflex",
                "type": "untyped",
                "value": -2
            },
            {
                "key": "PF2E.RuleElement.FlatModifier",
                "label": "Applereed Mutagen (Moderate)",
                "selector": "speed",
                "type": "status",
                "value": 15
            },
            {
                "key": "CreatureSize",
                "value": "large"
            }
        ],
        "source": {
            "value": ""
        },
        "start": {
            "initiative": null,
            "value": 0
        },
        "target": null,
        "tokenIcon": {
            "show": true
        },
        "traits": {
            "custom": "",
            "rarity": {
                "value": "common"
            },
            "value": []
        }
    },
    "effects": [],
    "flags": {},
    "img": "systems/pf2e/icons/equipment/alchemical-items/alchemical-elixirs/applereed-mutagen.webp",
    "name": "Effect: Applereed Mutagen (Moderate)",
    "type": "effect"
}
