{
    "_id": "RT1BxXrbbGgk40Ti",
    "data": {
        "description": {
            "value": "<p>Granted by @Compendium[pf2e.equipment-srd.Cognitive Mutagen (Major)]{Cognitive Mutagen (Major)}</p>\n<p><strong>Implemented effects:</strong></p>\n<ul>\n<li>+4 item bonus to Arcana, Crafting, Occultism and Society checks</li>\n<li>+4 item bonus to all Recall Knowledge checks</li>\n<li>-2 penalty to to Athletics and Acrobatics checks</li>\n<li>-2 penalty to weapon and unarmed attacks</li>\n</ul>\n<p><strong>Unimplemented effects:</strong></p>\n<ul>\n<li>+4 item bonus to Lore checks</li>\n<li>Treat Recall Knowledge critical failures as failures</li>\n<li>You can carry 2 less Bulk than normal before becoming encumbered</li>\n<li>The maximum Bulk you can carry is reduced by 4</li>\n</ul>"
        },
        "duration": {
            "expiry": "turn-start",
            "sustained": false,
            "unit": "hours",
            "value": 1
        },
        "level": {
            "value": 17
        },
        "rules": [
            {
                "key": "PF2E.RuleElement.FlatModifier",
                "label": "Cognitive Mutagen (Major)",
                "selector": "arcana",
                "type": "item",
                "value": 4
            },
            {
                "key": "PF2E.RuleElement.FlatModifier",
                "label": "Cognitive Mutagen (Major)",
                "selector": "crafting",
                "type": "item",
                "value": 4
            },
            {
                "key": "PF2E.RuleElement.FlatModifier",
                "label": "Cognitive Mutagen (Major)",
                "selector": "occultism",
                "type": "item",
                "value": 4
            },
            {
                "key": "PF2E.RuleElement.FlatModifier",
                "label": "Cognitive Mutagen (Major)",
                "selector": "society",
                "type": "item",
                "value": 4
            },
            {
                "key": "PF2E.RuleElement.FlatModifier",
                "selector": "athletics",
                "value": -2
            },
            {
                "key": "PF2E.RuleElement.FlatModifier",
                "selector": "acrobatics",
                "value": -2
            },
            {
                "key": "PF2E.RuleElement.FlatModifier",
                "selector": "mundane-attack",
                "value": -2
            },
            {
                "key": "PF2E.RuleElement.FlatModifier",
                "label": "Cognitive Mutagen (Recall knowledge)",
                "predicate": {
                    "all": [
                        "action:recall-knowledge"
                    ]
                },
                "selector": "skill-check",
                "type": "item",
                "value": 4
            }
        ],
        "source": {
            "value": ""
        },
        "start": {
            "initiative": null,
            "value": 0
        },
        "target": null,
        "tokenIcon": {
            "show": true
        },
        "traits": {
            "custom": "",
            "rarity": {
                "value": "common"
            },
            "value": []
        }
    },
    "effects": [],
    "flags": {},
    "img": "systems/pf2e/icons/equipment/alchemical-items/alchemical-elixirs/cognitive-mutagen.webp",
    "name": "Effect: Cognitive Mutagen (Major)",
    "type": "effect"
}
