{
    "_id": "VQz5VypVRLCloapa",
    "data": {
        "actionCategory": {
            "value": ""
        },
        "actionType": {
            "value": "passive"
        },
        "actions": {
            "value": null
        },
        "description": {
            "value": "<p>You blend monastic techniques with the ancestral fighting styles of your people. Choose an ancestry for which you have access to all weapons with that trait. For you, melee weapons with that ancestry trait and either the agile or finesse trait gain the monk trait.</p>"
        },
        "featType": {
            "value": "class"
        },
        "level": {
            "value": 2
        },
        "prerequisites": {
            "value": [
                {
                    "value": "Monastic Weaponry"
                },
                {
                    "value": "a feat granting access to all weapons with an ancestry trait (such as elf or orc)"
                }
            ]
        },
        "rules": [],
        "source": {
            "value": ""
        },
        "traits": {
            "custom": "",
            "rarity": {
                "value": "common"
            },
            "value": [
                "monk"
            ]
        }
    },
    "effects": [],
    "flags": {},
    "img": "systems/pf2e/icons/features/feats/feats.webp",
    "name": "Ancestral Weaponry",
    "type": "feat"
}
