{
    "_id": "VZlzK4wKG3qv3mwo",
    "data": {
        "actionCategory": {
            "value": ""
        },
        "actionType": {
            "value": "passive"
        },
        "actions": {
            "value": null
        },
        "description": {
            "value": "<p>You gain one of the following senses available to your inherent animal: @Compendium[pf2e.ancestryfeatures.Darkvision]{Darkvision}, @Compendium[pf2e.ancestryfeatures.Low-Light Vision]{Low-Light Vision}, or scent (imprecise) 30 feet. You must have low-light vision before you can gain darkvision with this feat.</p>\n<p>If your inherent animal doesn't typically have a specific type of sense, you can't gain that sense with this feat.</p>\n<hr />\n<p><strong>Special</strong> You can select this feat multiple times, choosing a different sense each time.</p>"
        },
        "featType": {
            "value": "ancestry"
        },
        "level": {
            "value": 1
        },
        "location": "",
        "prerequisites": {
            "value": []
        },
        "rules": [
            {
                "key": "PF2E.RuleElement.Sense",
                "label": "PF2E.SensesLowLightVision",
                "selector": "lowLightVision"
            }
        ],
        "source": {
            "value": ""
        },
        "traits": {
            "custom": "",
            "rarity": {
                "value": "common"
            },
            "value": [
                "beastkin"
            ]
        }
    },
    "effects": [],
    "flags": {},
    "img": "systems/pf2e/icons/features/feats/feats.webp",
    "name": "Animal Senses (Low-Light Vision)",
    "type": "feat"
}
