{
    "_id": "GIKySPq1n7xUmICw",
    "data": {
        "actionCategory": {
            "value": ""
        },
        "actionType": {
            "value": "passive"
        },
        "actions": {
            "value": null
        },
        "description": {
            "value": "<p>You have learned to manipulate the innate power of your bloodline and adapt it to your needs. When making your daily preparations, you can swap out a single spell of 9th level or lower for another spell of the same level. You can't swap out spells granted specifically by your bloodline.</p>"
        },
        "featType": {
            "value": "class"
        },
        "level": {
            "value": 20
        },
        "prerequisites": {
            "value": []
        },
        "rules": [],
        "source": {
            "value": ""
        },
        "traits": {
            "custom": "",
            "rarity": {
                "value": "common"
            },
            "value": [
                "sorcerer"
            ]
        }
    },
    "effects": [],
    "flags": {},
    "img": "systems/pf2e/icons/features/feats/feats.webp",
    "name": "Bloodline Metamorphosis",
    "type": "feat"
}
