{
    "_id": "zsWIZQeVhIihNw6M",
    "data": {
        "actionCategory": {
            "value": ""
        },
        "actionType": {
            "value": "free"
        },
        "actions": {
            "value": null
        },
        "description": {
            "value": "<p><strong>Frequency</strong> once per day</p>\n<hr />\n<p>Your next fire spell leaves embers in its wake. If your next action is to Cast a Spell with an area and the fire trait, for 1 minute, your spell's area becomes difficult terrain as well as hazardous terrain, dealing 1 fire damage for each square a creature moves through.</p>"
        },
        "featType": {
            "value": "ancestry"
        },
        "level": {
            "value": 9
        },
        "location": "",
        "prerequisites": {
            "value": []
        },
        "rules": [],
        "source": {
            "value": ""
        },
        "traits": {
            "custom": "",
            "rarity": {
                "value": "common"
            },
            "value": [
                "fire",
                "ifrit",
                "metamagic"
            ]
        }
    },
    "effects": [],
    "flags": {},
    "img": "systems/pf2e/icons/features/feats/feats.webp",
    "name": "Charred Remains",
    "type": "feat"
}
