{
    "_id": "uMjczqcXuteoP7lf",
    "data": {
        "actionCategory": {
            "value": ""
        },
        "actionType": {
            "value": "passive"
        },
        "actions": {
            "value": null
        },
        "description": {
            "value": "<p>Your fingernails grow into razor-sharp claws, and scales speckle your fingers, hands, and wrists. Your claws are agile, finesse unarmed attacks that deal [[/r 1d6 #slashing]]{1d6 slashing damage} and are in the brawling weapon group.</p>"
        },
        "featType": {
            "value": "archetype"
        },
        "level": {
            "value": 4
        },
        "location": "",
        "prerequisites": {
            "value": [
                {
                    "value": "Dragon Disciple Dedication"
                }
            ]
        },
        "rules": [
            {
                "category": "unarmed",
                "damage": {
                    "base": {
                        "damageType": "slashing",
                        "dice": 1,
                        "die": "d6"
                    }
                },
                "group": "brawling",
                "key": "PF2E.RuleElement.Strike",
                "label": "Claw",
                "range": "melee",
                "traits": [
                    "agile",
                    "finesse",
                    "unarmed"
                ]
            }
        ],
        "source": {
            "value": ""
        },
        "traits": {
            "custom": "",
            "rarity": {
                "value": "common"
            },
            "value": [
                "archetype"
            ]
        }
    },
    "effects": [],
    "flags": {},
    "img": "systems/pf2e/icons/features/feats/feats.webp",
    "name": "Claws Of The Dragon",
    "type": "feat"
}
