{
    "_id": "kBxgo589ctJsBwJj",
    "data": {
        "actionCategory": {
            "value": ""
        },
        "actionType": {
            "value": "passive"
        },
        "actions": {
            "value": null
        },
        "description": {
            "value": "<p>You have learned about your history and your people from shapers. You gain the trained proficiency rank in Crafting and Occultism. If you would automatically become trained in one of those skills (from your background or class, for example), you instead become trained in a skill of your choice. You also become trained in Conrasu Lore.</p>\n<hr />\n<p><em style=\"box-sizing: border-box; user-select: text; color: #191813; font-family: Roboto, system, -apple-system, sans-serif; font-size: 13px;\">Note: If you are already trained in the skill provided by this feat, you need to manually select an alternative skill. You also need to manually enter the granted Lore skill.</em></p>"
        },
        "featType": {
            "value": "ancestry"
        },
        "level": {
            "value": 1
        },
        "location": "",
        "prerequisites": {
            "value": []
        },
        "rules": [
            {
                "key": "ActiveEffectLike",
                "mode": "upgrade",
                "path": "data.skills.cra.rank",
                "value": 1
            },
            {
                "key": "ActiveEffectLike",
                "mode": "upgrade",
                "path": "data.skills.occ.rank",
                "value": 1
            }
        ],
        "source": {
            "value": ""
        },
        "traits": {
            "custom": "",
            "rarity": {
                "value": "common"
            },
            "value": []
        }
    },
    "effects": [],
    "flags": {},
    "img": "systems/pf2e/icons/default-icons/feats.webp",
    "name": "Conrasu Lore",
    "type": "feat"
}
