{
    "_id": "enPAJ1oSDutts7ic",
    "data": {
        "actionCategory": {
            "value": ""
        },
        "actionType": {
            "value": "action"
        },
        "actions": {
            "value": 1
        },
        "description": {
            "value": "<p>You aim for your prey's weak spots, making your shot more challenging but dealing more damage if you hit.</p>\n<p>Make a ranged Strike against your hunted prey at a -2 penalty. You gain a +4 circumstance bonus to damage on that Strike. This bonus increases to +6 at 11th level and +8 at 15th level.</p>"
        },
        "featType": {
            "value": "class"
        },
        "level": {
            "value": 8
        },
        "location": "",
        "prerequisites": {
            "value": [
                {
                    "value": "weapon specialization"
                }
            ]
        },
        "rules": [
            {
                "key": "PF2E.RuleElement.ToggleProperty",
                "label": "Use Deadly Aim",
                "property": "flags.pf2e.rollOptions.all.deadly-aim"
            },
            {
                "key": "PF2E.RuleElement.FlatModifier",
                "predicate": {
                    "all": [
                        "deadly-aim"
                    ]
                },
                "selector": "attack",
                "type": "circumstance",
                "value": -2
            },
            {
                "key": "PF2E.RuleElement.FlatModifier",
                "predicate": {
                    "all": [
                        "deadly-aim"
                    ]
                },
                "selector": "damage",
                "type": "circumstance",
                "value": {
                    "brackets": [
                        {
                            "end": 10,
                            "start": 8,
                            "value": 4
                        },
                        {
                            "end": 14,
                            "start": 11,
                            "value": 6
                        },
                        {
                            "start": 15,
                            "value": 8
                        }
                    ]
                }
            }
        ],
        "source": {
            "value": ""
        },
        "traits": {
            "custom": "",
            "rarity": {
                "value": "common"
            },
            "value": [
                "ranger",
                "open"
            ]
        }
    },
    "effects": [],
    "flags": {},
    "img": "systems/pf2e/icons/features/feats/feats.webp",
    "name": "Deadly Aim",
    "type": "feat"
}
