{
    "_id": "pc00hoz4ILmqUwSC",
    "data": {
        "actionCategory": {
            "value": ""
        },
        "actionType": {
            "value": "passive"
        },
        "actions": {
            "value": null
        },
        "description": {
            "value": "<p>Traditionally, fiends are exceptionally good at persuading people to do things, even when their targets know it's a bad idea. You're also rather good at it, compelling the weak and weak-willed to your bidding. You can cast @Compendium[pf2e.spells-srd.Charm]{Charm} once per day as a 1st-level divine innate spell.</p>"
        },
        "featType": {
            "value": "ancestry"
        },
        "level": {
            "value": 5
        },
        "location": "",
        "prerequisites": {
            "value": []
        },
        "rules": [],
        "source": {
            "value": ""
        },
        "traits": {
            "custom": "",
            "rarity": {
                "value": "common"
            },
            "value": [
                "tiefling"
            ]
        }
    },
    "effects": [],
    "flags": {},
    "img": "systems/pf2e/icons/features/feats/feats.webp",
    "name": "Devilish Wiles",
    "type": "feat"
}
