{
    "_id": "Nm8n3urzpDqXni1i",
    "data": {
        "actionCategory": {
            "value": "offensive"
        },
        "actionType": {
            "value": "action"
        },
        "actions": {
            "value": 1
        },
        "description": {
            "value": "<p>You call forth positive energy from within to help you destroy undead. Your weapon and unarmed Strikes gain the effects of a disrupting property rune until the start of your next turn.</p>\n<p>If you're 14th level or higher, your Strikes instead gain the effects of a greater disrupting property rune. The DC for the rune's effect is equal to your class DC or spell DC, whichever is higher.</p>"
        },
        "featType": {
            "value": "archetype"
        },
        "level": {
            "value": 6
        },
        "location": "",
        "prerequisites": {
            "value": [
                {
                    "value": "Ghost Eater Dedication"
                }
            ]
        },
        "rules": [],
        "source": {
            "value": ""
        },
        "traits": {
            "custom": "",
            "rarity": {
                "value": "common"
            },
            "value": [
                "archetype"
            ]
        }
    },
    "effects": [],
    "flags": {},
    "img": "systems/pf2e/icons/default-icons/feats.webp",
    "name": "Disrupting Strikes",
    "type": "feat"
}
