{
    "_id": "JwosaDYoqfPiFMYa",
    "data": {
        "actionCategory": {
            "value": ""
        },
        "actionType": {
            "value": "action"
        },
        "actions": {
            "value": 3
        },
        "description": {
            "value": "<p>Pathfinders are often asked to study the intricacies of ancient history under less than ideal conditions, and you've trained your brain to make the most of your limited time. You quickly memorize an inscription, scroll, or other piece of writing you can clearly see whose length is equivalent to no more than one page. You can then accurately recreate this writing using a writing kit, wax tablet, or other writing medium, once you have reached safety. You don't need to understand the writing or identify the language to reproduce it. Your memory lasts until the next time you make your daily preparations; if you have not written down or otherwise recreated what you saw by this point, your memory fades and any attempt to recreate what you saw is garbled and unintelligible. You can have only one piece of writing memorized at a time; any previous memorization fades the next time you use this ability.</p>"
        },
        "featType": {
            "value": "archetype"
        },
        "level": {
            "value": 10
        },
        "prerequisites": {
            "value": [
                {
                    "value": "Pathfinder Agent Dedication"
                }
            ]
        },
        "rules": [],
        "source": {
            "value": ""
        },
        "traits": {
            "custom": "",
            "rarity": {
                "value": "common"
            },
            "value": [
                "archetype"
            ]
        }
    },
    "effects": [],
    "flags": {},
    "img": "systems/pf2e/icons/features/feats/feats.webp",
    "name": "Eidetic Memorization",
    "type": "feat"
}
