{
    "_id": "wruf4sMh3P7o8k1P",
    "data": {
        "actionCategory": {
            "value": ""
        },
        "actionType": {
            "value": "passive"
        },
        "actions": {
            "value": null
        },
        "description": {
            "value": "<p>Your elven affinity blends with your class training, granting you great skill with elven weapons. Whenever you gain a class feature that grants you expert or greater proficiency in certain weapons, you also gain that proficiency in longbows, composite longbows, longswords, rapiers, shortbows, composite shortbows, and all elf weapons in which you are trained.</p>"
        },
        "featType": {
            "value": "ancestry"
        },
        "level": {
            "value": 13
        },
        "prerequisites": {
            "value": [
                {
                    "value": "Elven Weapon Familiarity"
                }
            ]
        },
        "rules": [],
        "source": {
            "value": ""
        },
        "traits": {
            "custom": "",
            "rarity": {
                "value": "common"
            },
            "value": [
                "elf"
            ]
        }
    },
    "effects": [],
    "flags": {},
    "img": "systems/pf2e/icons/features/feats/feats.webp",
    "name": "Elven Weapon Expertise",
    "type": "feat"
}
