{
    "_id": "FVDozRTuCQQzD97D",
    "data": {
        "actionCategory": {
            "value": ""
        },
        "actionType": {
            "value": "passive"
        },
        "actions": {
            "value": null
        },
        "description": {
            "value": "<p>You've learned how to spot danger at a distance, allowing you to serve as a sentry with ease. You gain a +2 circumstance bonus to initiative rolls when using Perception, and when you're Scouting, you grant your allies a +2 circumstance bonus instead of +1.</p>"
        },
        "featType": {
            "value": "archetype"
        },
        "level": {
            "value": 4
        },
        "prerequisites": {
            "value": [
                {
                    "value": "Lastwall Sentry Dedication"
                },
                {
                    "value": "expert in Perception"
                }
            ]
        },
        "rules": [
            {
                "key": "PF2E.RuleElement.FlatModifier",
                "predicate": {
                    "all": [
                        "perception"
                    ]
                },
                "selector": "initiative",
                "type": "circumstance",
                "value": 2
            }
        ],
        "source": {
            "value": ""
        },
        "traits": {
            "custom": "",
            "rarity": {
                "value": "common"
            },
            "value": [
                "archetype"
            ]
        }
    },
    "effects": [],
    "flags": {},
    "img": "systems/pf2e/icons/features/feats/feats.webp",
    "name": "Eye of Ozem",
    "type": "feat"
}
