{
    "_id": "OK8Fm7EG8wjoYZBX",
    "data": {
        "actionCategory": {
            "value": ""
        },
        "actionType": {
            "value": "action"
        },
        "actions": {
            "value": 1
        },
        "description": {
            "value": "<p>You wrap a shell of favorable wind around a weapon you wield. On your next Strike with a ranged weapon before the start of your next turn, you don't take circumstance penalties on the attack roll due to wind. In addition, if that weapon has a range increment of 10 feet or less, increase its range increment by 10 feet for that Strike.</p>"
        },
        "featType": {
            "value": "ancestry"
        },
        "level": {
            "value": 5
        },
        "location": "",
        "prerequisites": {
            "value": [
                {
                    "value": "Virga May"
                }
            ]
        },
        "rules": [],
        "source": {
            "value": ""
        },
        "traits": {
            "custom": "",
            "rarity": {
                "value": "common"
            },
            "value": [
                "air",
                "changeling",
                "concentrate",
                "occult"
            ]
        }
    },
    "effects": [],
    "flags": {},
    "img": "systems/pf2e/icons/features/feats/feats.webp",
    "name": "Favorable Winds",
    "type": "feat"
}
