{
    "_id": "yOloZIGkulrrPYG4",
    "data": {
        "actionCategory": {
            "value": ""
        },
        "actionType": {
            "value": "passive"
        },
        "actions": {
            "value": null
        },
        "description": {
            "value": "<p>A lifetime of proximity to flames has inured your lungs and eyes to smoke. You can breathe normally in areas of ash and smoke without risk of suffocation, and you ignore the @Compendium[pf2e.conditionitems.Concealed]{Concealed} condition from smoke.</p>\n<p>You need only a successful DC 10 flat check to recover from @Compendium[pf2e.conditionitems.Persistent Damage]{Persistent Fire Damage}, rather than DC 15 (and the DC when receiving particularly effective assistance is 5 instead of 10).</p>"
        },
        "featType": {
            "value": "class"
        },
        "level": {
            "value": 1
        },
        "location": "",
        "prerequisites": {
            "value": [
                {
                    "value": "flame order"
                }
            ]
        },
        "rules": [],
        "source": {
            "value": ""
        },
        "traits": {
            "custom": "",
            "rarity": {
                "value": "common"
            },
            "value": [
                "druid"
            ]
        }
    },
    "effects": [],
    "flags": {},
    "img": "systems/pf2e/icons/default-icons/feat.svg",
    "name": "Fire Lung",
    "type": "feat"
}
