{
    "_id": "m0ot9Qydb9SYWHis",
    "data": {
        "actionCategory": {
            "value": ""
        },
        "actionType": {
            "value": "action"
        },
        "actions": {
            "value": 1
        },
        "description": {
            "value": "<p><strong>Requirements</strong> Your last action was a missed @Compendium[pf2e.actionspf2e.Strike]{Strike} with a melee unarmed attack.</p>\n<hr />\n<p>You have trained to use all parts of your body as a weapon, and when you miss with an attack, you can usually continue the attack with a different body part and still deal damage.</p>\n<p>Make another Strike with a melee unarmed attack, using the same multiple attack penalty as for the missed Strike, if any.</p>"
        },
        "featType": {
            "value": "archetype"
        },
        "level": {
            "value": 6
        },
        "prerequisites": {
            "value": [
                {
                    "value": "Martial Artist Dedication"
                }
            ]
        },
        "rules": [],
        "source": {
            "value": ""
        },
        "traits": {
            "custom": "",
            "rarity": {
                "value": "common"
            },
            "value": [
                "archetype",
                "flourish"
            ]
        }
    },
    "effects": [],
    "flags": {},
    "img": "systems/pf2e/icons/features/feats/feats.webp",
    "name": "Follow-up Strike",
    "type": "feat"
}
