{
    "_id": "cmuvvPJvt2R16vGe",
    "data": {
        "actionCategory": {
            "value": ""
        },
        "actionType": {
            "value": "passive"
        },
        "actions": {
            "value": null
        },
        "description": {
            "value": "<p>When using @Compendium[pf2e.feats-srd.Natural Medicine]{Natural Medicine} to @Compendium[pf2e.actionspf2e.Treat Wounds]{Treat Wounds}, you can spend a batch of herbs to gain the +2 circumstance bonus from having fresh ingredients, even if not in wilderness. If you spend a batch of herbs in wilderness, you gain a +4 circumstance bonus instead.</p>"
        },
        "featType": {
            "value": "skill"
        },
        "level": {
            "value": 2
        },
        "location": "",
        "prerequisites": {
            "value": [
                {
                    "value": "Herbalist Dedication"
                },
                {
                    "value": "expert in Nature"
                }
            ]
        },
        "rules": [
            {
                "key": "PF2E.RuleElement.FlatModifier",
                "label": "Spend a batch of herbs in wilderness",
                "name": "fresh-herbs-wild",
                "predicate": {
                    "all": [
                        "action:treat-wounds",
                        "natural-medicine",
                        "terrain:wilderness"
                    ]
                },
                "selector": "nature",
                "type": "circumstance",
                "value": 4
            },
            {
                "key": "PF2E.RuleElement.FlatModifier",
                "label": "Spend a batch of herbs",
                "name": "fresh-herbs",
                "predicate": {
                    "all": [
                        "action:treat-wounds",
                        "natural-medicine"
                    ]
                },
                "selector": "nature",
                "type": "circumstance",
                "value": 2
            }
        ],
        "source": {
            "value": ""
        },
        "traits": {
            "custom": "",
            "rarity": {
                "value": "common"
            },
            "value": [
                "archetype",
                "skill"
            ]
        }
    },
    "effects": [],
    "flags": {},
    "img": "systems/pf2e/icons/features/feats/feats.webp",
    "name": "Fresh Ingredients",
    "type": "feat"
}
