{
    "_id": "cA1IIy6UEsgETXiX",
    "data": {
        "actionCategory": {
            "value": ""
        },
        "actionType": {
            "value": "passive"
        },
        "actions": {
            "value": null
        },
        "description": {
            "value": "<p>You bully foes across the battlefield. While raging, you gain a +2 circumstance bonus to Athletics checks for attack actions.</p>"
        },
        "featType": {
            "value": "class"
        },
        "level": {
            "value": 8
        },
        "location": "",
        "prerequisites": {
            "value": [
                {
                    "value": "master in Athletics"
                }
            ]
        },
        "rules": [
            {
                "key": "PF2E.RuleElement.FlatModifier",
                "label": "Furious Bully (Attack actions)",
                "predicate": {
                    "all": [
                        "rage",
                        "attack"
                    ]
                },
                "roll-options": [
                    "athletics",
                    "all"
                ],
                "selector": "athletics",
                "type": "circumstance",
                "value": 2
            }
        ],
        "source": {
            "value": ""
        },
        "traits": {
            "custom": "",
            "rarity": {
                "value": "common"
            },
            "value": [
                "barbarian"
            ]
        }
    },
    "effects": [],
    "flags": {},
    "img": "systems/pf2e/icons/features/feats/feats.webp",
    "name": "Furious Bully",
    "type": "feat"
}
