{
    "_id": "GZrvQo5FcoP5qocX",
    "data": {
        "actionCategory": {
            "value": ""
        },
        "actionType": {
            "value": "reaction"
        },
        "actions": {
            "value": null
        },
        "description": {
            "value": "<p><strong>Frequency</strong> once per day</p>\n<p><strong>Trigger</strong> A creature you are aware of damages you with a melee Strike.</p>\n<hr />\n<p>Your wound yawns open, appalling your attacker. The attacker must succeed at a Fortitude saving throw against your class DC or spell DC, whichever is higher, or become @Compendium[pf2e.conditionitems.Sickened]{Sickened 1} (sickened 2 on a critical failure). It can't recover from the sickened condition while it's adjacent to you.</p>"
        },
        "featType": {
            "value": "ancestry"
        },
        "level": {
            "value": 5
        },
        "location": "",
        "prerequisites": {
            "value": []
        },
        "rules": [],
        "source": {
            "value": ""
        },
        "traits": {
            "custom": "",
            "rarity": {
                "value": "common"
            },
            "value": [
                "fleshwarp"
            ]
        }
    },
    "effects": [],
    "flags": {},
    "img": "systems/pf2e/icons/features/feats/feats.webp",
    "name": "Gaping Flesh",
    "type": "feat"
}
