{
    "_id": "o6MXyjSgavTzU5AS",
    "data": {
        "actionCategory": {
            "value": ""
        },
        "actionType": {
            "value": "passive"
        },
        "actions": {
            "value": null
        },
        "description": {
            "value": "<p>The earth inside you asserts itself as crystallized gemstones or metals, like a cluster of quartz or veins of iron and gold. This shimmering presence inside your being inspires you to flashy and flamboyant performances. You gain the trained proficiency rank in Performance. If you would automatically become trained in Performance (from your background or class, for example), you instead become trained in a skill of your choice. You gain the @Compendium[pf2e.feats-srd.Impressive Performance]{Impressive Performance} skill feat.</p>"
        },
        "featType": {
            "value": "ancestry"
        },
        "level": {
            "value": 1
        },
        "location": "",
        "prerequisites": {
            "value": []
        },
        "rules": [],
        "source": {
            "value": ""
        },
        "traits": {
            "custom": "",
            "rarity": {
                "value": "common"
            },
            "value": [
                "lineage",
                "oread"
            ]
        }
    },
    "effects": [],
    "flags": {},
    "img": "systems/pf2e/icons/features/feats/feats.webp",
    "name": "Gemsoul",
    "type": "feat"
}
