{
    "_id": "3vjOXL9ZD4ibaJL6",
    "data": {
        "actionCategory": {
            "value": ""
        },
        "actionType": {
            "value": "passive"
        },
        "actions": {
            "value": null
        },
        "description": {
            "value": "<p>You can communicate with plants on a basic level and use Diplomacy to Make an Impression on them and to make very simple Requests of them. Non-creature plants typically can't fulfill most requests you might ask of them unless you have access to other magic such as speak with plants.</p>\n<p>Because of your affiliation with the leaf order, plants have a sense that you support them, so you gain a +2 circumstance bonus on your check to Make a Request of a plant using Green Empathy.</p>"
        },
        "featType": {
            "value": "class"
        },
        "level": {
            "value": 6
        },
        "location": "",
        "prerequisites": {
            "value": [
                {
                    "value": "leaf order"
                }
            ]
        },
        "rules": [
            {
                "key": "PF2E.RuleElement.FlatModifier",
                "predicate": {
                    "all": [
                        "action:make-a-request",
                        "target:plant"
                    ]
                },
                "selector": "diplomacy",
                "type": "circumstance",
                "value": 2
            }
        ],
        "source": {
            "value": ""
        },
        "traits": {
            "custom": "",
            "rarity": {
                "value": "common"
            },
            "value": [
                "druid"
            ]
        }
    },
    "effects": [],
    "flags": {},
    "img": "systems/pf2e/icons/features/feats/feats.webp",
    "name": "Green Empathy",
    "type": "feat"
}
