{
    "_id": "1DaSVLJEdJWYOWek",
    "data": {
        "actionCategory": {
            "value": ""
        },
        "actionType": {
            "value": "passive"
        },
        "actions": {
            "value": null
        },
        "description": {
            "value": "<p>By shifting your weight and angling your weapon, you guide your opponent to a more favorable position.</p>\n<p>When you use @Compendium[pf2e.feats-srd.Dueling Riposte]{Dueling Riposte} to Strike and you hit, you can move the target up to 10 feet into a space in your reach. This follows the forced movement rules.</p>"
        },
        "featType": {
            "value": "class"
        },
        "level": {
            "value": 14
        },
        "prerequisites": {
            "value": [
                {
                    "value": "Dueling Riposte"
                }
            ]
        },
        "rules": [],
        "source": {
            "value": ""
        },
        "traits": {
            "custom": "",
            "rarity": {
                "value": "common"
            },
            "value": [
                "fighter"
            ]
        }
    },
    "effects": [],
    "flags": {},
    "img": "systems/pf2e/icons/features/feats/feats.webp",
    "name": "Guiding Riposte",
    "type": "feat"
}
