{
    "_id": "0jJ5FG72lydY3HHR",
    "data": {
        "actionCategory": {
            "value": ""
        },
        "actionType": {
            "value": "action"
        },
        "actions": {
            "value": 1
        },
        "description": {
            "value": "<p>You batter your foes with a torrent of water siphoned from your surroundings.</p>\n<p>If the next action you take is an Athletics check to @Compendium[pf2e.actionspf2e.Disarm]{Disarm}, @Compendium[pf2e.actionspf2e.Shove]{Shove}, or @Compendium[pf2e.actionspf2e.Trip]{Trip}, that action has a range of 15 feet. You don't receive any item bonuses to that check or any circumstance bonuses related to your physical body, but if you roll a critical failure on that Athletics check, you get a failure instead.</p>"
        },
        "featType": {
            "value": "ancestry"
        },
        "level": {
            "value": 13
        },
        "location": "",
        "prerequisites": {
            "value": []
        },
        "rules": [
            {
                "key": "PF2E.RuleElement.ToggleProperty",
                "label": "Activate Hydraulic Maneuvers",
                "property": "flags.pf2e.rollOptions.all.hydraulic-maneuvers"
            },
            {
                "key": "PF2E.RuleElement.Note",
                "predicate": {
                    "all": [
                        "hydraulic-maneuvers"
                    ],
                    "any": [
                        "action:disarm",
                        "action:shove",
                        "action:trip"
                    ]
                },
                "selector": "athletics",
                "text": "<p class='compact-text'>If you roll a critical failure on your Athletics check to Disarm, Shove or Trip using Hydraulic Maneuvers, you get a failure instead.</p> <p class='compact-text'>You don't receive any item bonuses to the triggering Athletics check or any circumstance bonuses related to your physical body when using Hydraulic Maneuvers.</p>"
            },
            {
                "adjustment": {
                    "criticalFailure": "one-degree-better"
                },
                "key": "PF2E.RuleElement.AdjustDegreeOfSuccess",
                "predicate": {
                    "all": [
                        "hydraulic-maneuvers"
                    ],
                    "any": [
                        "action:disarm",
                        "action:shove",
                        "action:trip"
                    ]
                },
                "selector": "athletics"
            }
        ],
        "source": {
            "value": ""
        },
        "traits": {
            "custom": "",
            "rarity": {
                "value": "common"
            },
            "value": [
                "azarketi",
                "concentrate",
                "manipulate",
                "primal",
                "transmutation",
                "water"
            ]
        }
    },
    "effects": [],
    "flags": {},
    "img": "systems/pf2e/icons/default-icons/feats.webp",
    "name": "Hydraulic Maneuvers",
    "type": "feat"
}
