{
    "_id": "ZUjjUj9lVGOKrJbp",
    "data": {
        "actionCategory": {
            "value": ""
        },
        "actionType": {
            "value": "passive"
        },
        "actions": {
            "value": null
        },
        "description": {
            "value": "<p>Your wild, unique features betray your agathion birthright. Serene celestials from the plane of Nirvana, agathions seek the peaceful path, ensuring a better world for all to coexist. Your halcyon demeanor leads you to search for peaceful resolution to conflict.</p>\n<p>You gain the trained proficiency rank in Nature. If you would automatically become trained in Nature (from your background or class, for example), you instead become trained in a skill of your choice. You know the Sylvan language and gain the @Compendium[pf2e.feats-srd.Natural Medicine]{Natural Medicine} skill feat.</p>\n<hr />\n<p><em>Note: If you are already trained in the skill provided by this feat, you need to manually select an alternative skill.</em></p>"
        },
        "featType": {
            "value": "ancestry"
        },
        "level": {
            "value": 1
        },
        "location": "",
        "prerequisites": {
            "value": []
        },
        "rules": [
            {
                "key": "ActiveEffectLike",
                "mode": "upgrade",
                "path": "data.skills.nat.rank",
                "value": 1
            }
        ],
        "source": {
            "value": ""
        },
        "traits": {
            "custom": "",
            "rarity": {
                "value": "common"
            },
            "value": [
                "aasimar",
                "lineage"
            ]
        }
    },
    "effects": [],
    "flags": {},
    "img": "systems/pf2e/icons/features/feats/feats.webp",
    "name": "Idyllkin",
    "type": "feat"
}
