{
    "_id": "QO8l5Dao8HnaFQE4",
    "data": {
        "actionCategory": {
            "value": ""
        },
        "actionType": {
            "value": "reaction"
        },
        "actions": {
            "value": null
        },
        "description": {
            "value": "<p><strong>Trigger</strong> You fall at least 10 feet and land on a solid surface.</p>\n<hr />\n<p>You slam into the ground, shattering it around you. Treat the fall as 10 feet shorter. You land on your feet. All adjacent spaces become difficult terrain, and creatures in those spaces when you land take 5 bludgeoning damage as the debris hits them and are @Compendium[pf2e.conditionitems.Flat-Footed]{Flat-Footed} until the start of their next turn.</p>"
        },
        "featType": {
            "value": "class"
        },
        "level": {
            "value": 10
        },
        "prerequisites": {
            "value": []
        },
        "rules": [],
        "source": {
            "value": ""
        },
        "traits": {
            "custom": "",
            "rarity": {
                "value": "common"
            },
            "value": [
                "barbarian"
            ]
        }
    },
    "effects": [],
    "flags": {},
    "img": "systems/pf2e/icons/features/feats/feats.webp",
    "name": "Impressive Landing",
    "type": "feat"
}
