{
    "_id": "3HChkcD1IRqv4DbA",
    "data": {
        "actionCategory": {
            "value": ""
        },
        "actionType": {
            "value": "passive"
        },
        "actions": {
            "value": null
        },
        "description": {
            "value": "<p>You can jury-rig solutions when you don't have the proper tools on hand. You can attempt to @Compendium[pf2e.actionspf2e.Repair]{Repair} damaged items without a repair kit.</p>\n<p>If you have the raw materials available, you can @Compendium[pf2e.actionspf2e.Craft]{Craft} a basic @Compendium[pf2e.equipment-srd.Caltrops]{Caltrop} set, @Compendium[pf2e.equipment-srd.Candle]{Candle}, @Compendium[pf2e.equipment-srd.Compass]{Compass}, @Compendium[pf2e.equipment-srd.Crowbar]{Crowbar}, @Compendium[pf2e.equipment-srd.Fishing Tackle]{Fishing Tackle}, @Compendium[pf2e.equipment-srd.Flint and Steel]{Flint and Steel}, @Compendium[pf2e.equipment-srd.Hammer]{Hammer}, @Compendium[pf2e.equipment-srd.Ladder (10-foot)]{Ladder}, @Compendium[pf2e.equipment-srd.Piton]{Piton}, @Compendium[pf2e.equipment-srd.Rope]{Rope}, @Compendium[pf2e.equipment-srd.Ten-Foot Pole]{Ten-Foot Pole}, @Compendium[pf2e.equipment-srd.Thieves' Tools (Replacement Picks)]{Replacement Thieves Picks}, @Compendium[pf2e.equipment-srd.Tool (Long)]{Long Tool} or @Compendium[pf2e.equipment-srd.Tool (Short)]{Short Tool}, or @Compendium[pf2e.equipment-srd.Torch]{Torch} without consulting a basic crafter's book.</p>"
        },
        "featType": {
            "value": "skill"
        },
        "level": {
            "value": 1
        },
        "prerequisites": {
            "value": [
                {
                    "value": "trained in Crafting"
                }
            ]
        },
        "rules": [],
        "source": {
            "value": ""
        },
        "traits": {
            "custom": "",
            "rarity": {
                "value": "common"
            },
            "value": [
                "general",
                "skill"
            ]
        }
    },
    "effects": [],
    "flags": {},
    "img": "systems/pf2e/icons/features/feats/feats.webp",
    "name": "Improvise Tool",
    "type": "feat"
}
