{
    "_id": "fx50Ivl1ERxTijpT",
    "data": {
        "actionCategory": {
            "value": ""
        },
        "actionType": {
            "value": "passive"
        },
        "actions": {
            "value": null
        },
        "description": {
            "value": "<p>Your divine touch rejuvenates the weak and tired.</p>\n<p>When you use @Compendium[pf2e.feats-srd.Mercy]{Mercy}, you can instead attempt a counteract check to remove the @Compendium[pf2e.conditionitems.Clumsy]{Clumsy} or @Compendium[pf2e.conditionitems.Enfeebled]{Enfeebled} conditions, using the source of that condition to determine the counteract level and DC.</p>\n<p>If the condition was caused by an ongoing effect and you don't remove that effect, the condition returns at the end of your next turn.</p>"
        },
        "featType": {
            "value": "class"
        },
        "level": {
            "value": 6
        },
        "location": "",
        "prerequisites": {
            "value": [
                {
                    "value": "Mercy"
                }
            ]
        },
        "rules": [],
        "source": {
            "value": ""
        },
        "traits": {
            "custom": "",
            "rarity": {
                "value": "common"
            },
            "value": [
                "champion"
            ]
        }
    },
    "effects": [],
    "flags": {},
    "img": "systems/pf2e/icons/features/feats/feats.webp",
    "name": "Invigorating Mercy",
    "type": "feat"
}
