{
    "_id": "fD9xjrnPfJ8aQxYA",
    "data": {
        "actionCategory": {
            "value": ""
        },
        "actionType": {
            "value": "passive"
        },
        "actions": {
            "value": null
        },
        "description": {
            "value": "<p>Your keen observation of your allies has made you better at following their lead.</p>\n<p>When using the @Compendium[pf2e.actionspf2e.Follow the Expert]{Follow the Expert} activity in exploration mode, you gain a +3 circumstance bonus if the ally you are following is an expert and a +4 circumstance bonus if your ally is a master.</p>"
        },
        "featType": {
            "value": "general"
        },
        "level": {
            "value": 3
        },
        "prerequisites": {
            "value": []
        },
        "rules": [],
        "source": {
            "value": ""
        },
        "traits": {
            "custom": "",
            "rarity": {
                "value": "common"
            },
            "value": [
                "general"
            ]
        }
    },
    "effects": [],
    "flags": {},
    "img": "systems/pf2e/icons/features/feats/feats.webp",
    "name": "Keen Follower",
    "type": "feat"
}
