{
    "_id": "RP7TlsqNuge0dltp",
    "data": {
        "actionCategory": {
            "value": ""
        },
        "actionType": {
            "value": "passive"
        },
        "actions": {
            "value": null
        },
        "description": {
            "value": "<p>You know more kitsune magic. During your daily preparations, choose @Compendium[pf2e.spells-srd.Bane]{Bane}, @Compendium[pf2e.spells-srd.Illusory Object]{Illusory Object}, or @Compendium[pf2e.spells-srd.Sanctuary]{Sanctuary}. You can cast this as a 1st-level divine innate spell once that day.</p>"
        },
        "featType": {
            "value": "ancestry"
        },
        "level": {
            "value": 5
        },
        "location": "",
        "prerequisites": {
            "value": [
                {
                    "value": "at least one innate spell from a kitsune heritage or ancestry feat"
                }
            ]
        },
        "rules": [],
        "source": {
            "value": ""
        },
        "traits": {
            "custom": "",
            "rarity": {
                "value": "common"
            },
            "value": [
                "kitsune"
            ]
        }
    },
    "effects": [],
    "flags": {},
    "img": "systems/pf2e/icons/features/feats/feats.webp",
    "name": "Kitsune Spell Mysteries",
    "type": "feat"
}
