{
    "_id": "vjQ3VUpYlTAAIx3b",
    "data": {
        "actionCategory": {
            "value": ""
        },
        "actionType": {
            "value": "passive"
        },
        "actions": {
            "value": null
        },
        "description": {
            "value": "<p>When climbing, you can prepare routes for others to follow, and you can pull your allies up to avoid disaster.</p>\n<p>When your allies attempt to @Compendium[pf2e.actionspf2e.Climb]{Climb} a route you set using the @Compendium[pf2e.actionspf2e.Follow the Expert]{Follow the Expert} exploration activity, if any of them critically fail their checks to Climb, you can attempt an Athletics check against the same DC. If you succeed, your ally fails instead of critically failing. If you also critically fail, you both experience the consequences of the critical failure.</p>"
        },
        "featType": {
            "value": "skill"
        },
        "level": {
            "value": 2
        },
        "prerequisites": {
            "value": [
                {
                    "value": "expert in Athletics"
                }
            ]
        },
        "rules": [],
        "source": {
            "value": ""
        },
        "traits": {
            "custom": "",
            "rarity": {
                "value": "common"
            },
            "value": [
                "general",
                "skill"
            ]
        }
    },
    "effects": [],
    "flags": {},
    "img": "systems/pf2e/icons/features/feats/feats.webp",
    "name": "Lead Climber",
    "type": "feat"
}
