{
    "_id": "hSzNtRNwrma81Eeq",
    "data": {
        "actionCategory": {
            "value": ""
        },
        "actionType": {
            "value": "passive"
        },
        "actions": {
            "value": null
        },
        "description": {
            "value": "<p><strong>Frequency</strong> once per minute<br /><strong>Trigger</strong> You cast an innate spell from a gnome heritage or ancestry feat.<br /></p>\n<hr />\n<p>The upwelling of innate magic refreshes your body. You gain a number of temporary Hit Points equal to half your level (minimum 1) that last until the end of your next turn.</p>"
        },
        "featType": {
            "value": "ancestry"
        },
        "level": {
            "value": 1
        },
        "prerequisites": {
            "value": []
        },
        "rules": [],
        "source": {
            "value": ""
        },
        "traits": {
            "custom": "",
            "rarity": {
                "value": "common"
            },
            "value": [
                "gnome"
            ]
        }
    },
    "effects": [],
    "flags": {},
    "img": "systems/pf2e/icons/features/feats/feats.webp",
    "name": "Life-Giving Magic",
    "type": "feat"
}
