{
    "_id": "9WMLIcHpwkQpUQfz",
    "data": {
        "actionCategory": {
            "value": ""
        },
        "actionType": {
            "value": "passive"
        },
        "actions": {
            "value": null
        },
        "description": {
            "value": "<p>You've learned a few tricks to ensure you find every last magic item and interesting magical effect during your missions. You can cast detect magic and read aura as innate spells at will. You can also cast locate as an innate spell once per day, but only to locate magic items, not specific mundane objects or types of objects. If you could already cast spells, these spells are of the same tradition. Otherwise, they're arcane spells, you use Intelligence as your spellcasting ability, and you become trained in spell attack rolls and spell DCs for arcane spells.</p>\n<p>When you cast detect magic or read aura from this feat on an item or creature under the effect of a magic aura spell or interact with an item under the effect of an item facade spell, you gain a +2 circumstance bonus on your check to disbelieve the illusion.</p>"
        },
        "featType": {
            "value": "archetype"
        },
        "level": {
            "value": 8
        },
        "prerequisites": {
            "value": [
                {
                    "value": "Scrollmaster Dedication"
                }
            ]
        },
        "rules": [],
        "source": {
            "value": ""
        },
        "traits": {
            "custom": "",
            "rarity": {
                "value": "common"
            },
            "value": [
                "archetype"
            ]
        }
    },
    "effects": [],
    "flags": {},
    "img": "systems/pf2e/icons/features/feats/feats.webp",
    "name": "Magic Finder",
    "type": "feat"
}
