{
    "_id": "EcQvuGYDJdqTfGuX",
    "data": {
        "actionCategory": {
            "value": ""
        },
        "actionType": {
            "value": "passive"
        },
        "actions": {
            "value": null
        },
        "description": {
            "value": "<p>You've learned every possible edge to use against your foes.</p>\n<p>When you use @Compendium[pf2e.actionspf2e.Hunt Prey]{Hunt Prey} you can gain a different hunter's edge benefit instead of the one you selected at 1st level.</p>\n<p>This feat grants @Compendium[pf2e.classfeatures.Hunter's Edge: Outwit]{Hunter's Edge: Outwit}.</p>"
        },
        "featType": {
            "value": "class"
        },
        "level": {
            "value": 18
        },
        "location": "",
        "prerequisites": {
            "value": [
                {
                    "value": "hunter's edge"
                },
                {
                    "value": "masterful hunter"
                }
            ]
        },
        "rules": [
            {
                "key": "PF2E.RuleElement.FlatModifier",
                "label": "Vs. hunted prey",
                "predicate": {
                    "all": [
                        "hunted-prey"
                    ]
                },
                "roll-options": [
                    "all"
                ],
                "selector": "deception",
                "type": "circumstance",
                "value": 2
            },
            {
                "key": "PF2E.RuleElement.FlatModifier",
                "label": "Vs. hunted prey",
                "predicate": {
                    "all": [
                        "hunted-prey"
                    ]
                },
                "roll-options": [
                    "all"
                ],
                "selector": "intimidation",
                "type": "circumstance",
                "value": 2
            },
            {
                "key": "PF2E.RuleElement.FlatModifier",
                "label": "Vs. hunted prey",
                "predicate": {
                    "all": [
                        "hunted-prey"
                    ]
                },
                "roll-options": [
                    "all"
                ],
                "selector": "stealth",
                "type": "circumstance",
                "value": 2
            },
            {
                "key": "PF2E.RuleElement.FlatModifier",
                "label": "Recall knowledge on hunted prey",
                "predicate": {
                    "all": [
                        "action:recall-knowledge",
                        "hunted-prey"
                    ]
                },
                "roll-options": [
                    "all"
                ],
                "selector": "skill-check",
                "type": "circumstance",
                "value": 2
            },
            {
                "key": "PF2E.RuleElement.FlatModifier",
                "label": "Vs. attacks from hunted prey",
                "predicate": {
                    "all": [
                        "hunted-prey"
                    ]
                },
                "roll-options": [
                    "all"
                ],
                "selector": "ac",
                "type": "circumstance",
                "value": 1
            }
        ],
        "source": {
            "value": ""
        },
        "traits": {
            "custom": "",
            "rarity": {
                "value": "common"
            },
            "value": [
                "ranger"
            ]
        }
    },
    "effects": [],
    "flags": {},
    "img": "systems/pf2e/icons/features/feats/feats.webp",
    "name": "Manifold Edge (Outwit)",
    "type": "feat"
}
