{
    "_id": "q1iP3SjAF5uceI0M",
    "data": {
        "actionCategory": {
            "value": ""
        },
        "actionType": {
            "value": "passive"
        },
        "actions": {
            "value": null
        },
        "description": {
            "value": "<p>Your muse has taught you how to handle a wider variety of weapons than most bards, empowering you to effortlessly blend your performance into combat even with the most inelegant tools.</p>\n<p>You become trained with all martial weapons. If you gain the bard weapon expertise class feature, your proficiency rank with martial weapons increases to expert.</p>"
        },
        "featType": {
            "value": "class"
        },
        "level": {
            "value": 1
        },
        "prerequisites": {
            "value": [
                {
                    "value": "warrior muse"
                }
            ]
        },
        "rules": [],
        "source": {
            "value": ""
        },
        "traits": {
            "custom": "",
            "rarity": {
                "value": "common"
            },
            "value": [
                "bard"
            ]
        }
    },
    "effects": [],
    "flags": {},
    "img": "systems/pf2e/icons/features/feats/feats.webp",
    "name": "Martial Performance",
    "type": "feat"
}
