{
    "_id": "tpkJXDpSuGznfzGJ",
    "data": {
        "actionCategory": {
            "value": ""
        },
        "actionType": {
            "value": "passive"
        },
        "actions": {
            "value": null
        },
        "description": {
            "value": "<p>Your animal companion grows up, becoming a mature animal companion and gaining additional capabilities. If you have the @Compendium[pf2e.actionspf2e.Hunt Prey]{Hunt Prey} action, your animal companion assaults the prey even without your orders.</p>\n<p>During an encounter, even if you don't use the @Compendium[pf2e.actionspf2e.Command an Animal]{Command an Animal} action, your animal companion can still use 1 action that round on your turn to Stride toward or Strike your prey.</p>"
        },
        "featType": {
            "value": "class"
        },
        "level": {
            "value": 6
        },
        "location": "",
        "prerequisites": {
            "value": [
                {
                    "value": "Animal Companion"
                }
            ]
        },
        "rules": [],
        "source": {
            "value": ""
        },
        "traits": {
            "custom": "",
            "rarity": {
                "value": "common"
            },
            "value": [
                "ranger"
            ]
        }
    },
    "effects": [],
    "flags": {},
    "img": "systems/pf2e/icons/features/feats/feats.webp",
    "name": "Mature Animal Companion (Ranger)",
    "type": "feat"
}
