{
    "_id": "sbAb2a6BzZpcYv8y",
    "data": {
        "actionCategory": {
            "value": ""
        },
        "actionType": {
            "value": "reaction"
        },
        "actions": {
            "value": null
        },
        "description": {
            "value": "<p><strong>Frequency</strong> once per minute<br /><strong>Trigger</strong> An adjacent ally is hit by an attack.</p>\n<hr />\n<p>You have the protective instinct your own mother lacks and will gladly suffer in another's place. You interpose yourself in the attack's path. You become the target of the triggering attack and are automatically hit by the attack (or critically hit if the ally was critically hit), suffering the full effects in your ally's place.</p>"
        },
        "featType": {
            "value": "ancestry"
        },
        "level": {
            "value": 9
        },
        "location": "",
        "prerequisites": {
            "value": []
        },
        "rules": [],
        "source": {
            "value": ""
        },
        "traits": {
            "custom": "",
            "rarity": {
                "value": "common"
            },
            "value": [
                "changeling"
            ]
        }
    },
    "effects": [],
    "flags": {},
    "img": "systems/pf2e/icons/features/feats/feats.webp",
    "name": "Mother's Mindfulness",
    "type": "feat"
}
