{
    "_id": "8Sdw31YToKhBJ4v4",
    "data": {
        "actionCategory": {
            "value": ""
        },
        "actionType": {
            "value": "passive"
        },
        "actions": {
            "value": null
        },
        "description": {
            "value": "<p>You spend a lot of time focusing on your physical fitness. You increase your proficiency rank in Acrobatics and Athletics from expert to master.</p>"
        },
        "featType": {
            "value": "archetype"
        },
        "level": {
            "value": 8
        },
        "prerequisites": {
            "value": [
                {
                    "value": "Swordmaster Dedication"
                },
                {
                    "value": "expert in Athletics"
                },
                {
                    "value": "expert in Acrobatics"
                }
            ]
        },
        "rules": [],
        "source": {
            "value": ""
        },
        "traits": {
            "custom": "",
            "rarity": {
                "value": "common"
            },
            "value": [
                "archetype"
            ]
        }
    },
    "effects": [],
    "flags": {},
    "img": "systems/pf2e/icons/features/feats/feats.webp",
    "name": "Physical Training",
    "type": "feat"
}
