{
    "_id": "N0YcU8mIJnQ4C2N6",
    "data": {
        "actionCategory": {
            "value": ""
        },
        "actionType": {
            "value": "passive"
        },
        "actions": {
            "value": null
        },
        "description": {
            "value": "<p><strong>Requirements</strong> You have designated prey with @Compendium[pf2e.actionspf2e.Hunt Prey]{Hunt Prey}.</p>\n<hr />\n<p>By spending 1 minute giving guidance to help hunt down your prey, you instruct up to five willing creatures to assist you. They gain a +1 circumstance bonus to @Compendium[pf2e.actionspf2e.Seek]{Seek} your prey, to @Compendium[pf2e.actionspf2e.Track]{Track} your prey, and to @Compendium[pf2e.actionspf2e.Gather Information]{Gather Information} about your prey. You and the creatures assisting you gain a +1 circumstance bonus to initiative rolls when entering combat with your prey.</p>\n<p>This benefit lasts until you designate a new prey or your prey dies, whichever comes first. An individual creature assisting you loses this benefit if they're out of your presence for too long to benefit from your instructions. This is usually 1 hour, but is determined by the GM.</p>"
        },
        "featType": {
            "value": "archetype"
        },
        "level": {
            "value": 4
        },
        "prerequisites": {
            "value": []
        },
        "rules": [],
        "source": {
            "value": ""
        },
        "traits": {
            "custom": "",
            "rarity": {
                "value": "common"
            },
            "value": [
                "archetype",
                "exploration"
            ]
        }
    },
    "effects": [],
    "flags": {},
    "img": "systems/pf2e/icons/features/feats/feats.webp",
    "name": "Posse",
    "type": "feat"
}
