{
    "_id": "KYl1rWFOHe0e6VqJ",
    "data": {
        "actionCategory": {
            "value": ""
        },
        "actionType": {
            "value": "reaction"
        },
        "actions": {
            "value": null
        },
        "description": {
            "value": "<p><strong>Trigger</strong> You attempt a saving throw against a hazard, but you haven't rolled yet.</p>\n<hr />\n<p>Your deity grants you limited foresight, warning you of dangers an instant before they occur. You gain a +2 circumstance bonus to the triggering saving throw.</p>"
        },
        "featType": {
            "value": "class"
        },
        "level": {
            "value": 1
        },
        "location": "",
        "prerequisites": {
            "value": []
        },
        "rules": [
            {
                "key": "PF2E.RuleElement.FlatModifier",
                "predicate": {
                    "all": [
                        "premonition-of-avoidance",
                        "target:hazard"
                    ]
                },
                "selector": "saving-throw",
                "type": "circumstance",
                "value": 2
            }
        ],
        "source": {
            "value": ""
        },
        "traits": {
            "custom": "",
            "rarity": {
                "value": "common"
            },
            "value": [
                "cleric"
            ]
        }
    },
    "effects": [],
    "flags": {},
    "img": "systems/pf2e/icons/features/feats/feats.webp",
    "name": "Premonition Of Avoidance",
    "type": "feat"
}
