{
    "_id": "Crd3qMecF9FYHjuH",
    "data": {
        "actionCategory": {
            "value": ""
        },
        "actionType": {
            "value": "passive"
        },
        "actions": {
            "value": null
        },
        "description": {
            "value": "<p>All communication is filled with slight tells and signals. If you interact with someone for at least 10 minutes, their regional words, pronunciation changes, and nonverbal cues provide you with a minor fact about their social environment, such as their hometown or certain groups they might belong to.</p>\n<p>If a target of this ability is being deceptive about their social environment, such as a commoner pretending to be a noble, they must attempt a Deception, Society, or appropriate Lore check against your Society DC, providing you a false minor fact consistent with their assumed identity on a success.</p>\n<p>Once you've gleaned one or more true minor facts about a person, you can then incorporate these mannerisms into your speech to present yourself in a way that they find familiar. This grants you a +1 circumstance bonus to your Diplomacy and Deception checks with them.</p>\n<p>@Compendium[pf2e.feat-effects.Effect: Read Shibboleths]{Effect: Read Shibboleths}</p>"
        },
        "featType": {
            "value": "archetype"
        },
        "level": {
            "value": 7
        },
        "location": "",
        "prerequisites": {
            "value": [
                {
                    "value": "Linguist Dedication"
                },
                {
                    "value": "master in Society"
                }
            ]
        },
        "rules": [],
        "source": {
            "value": ""
        },
        "traits": {
            "custom": "",
            "rarity": {
                "value": "common"
            },
            "value": [
                "archetype",
                "linguistic",
                "skill"
            ]
        }
    },
    "effects": [],
    "flags": {},
    "img": "systems/pf2e/icons/features/feats/feats.webp",
    "name": "Read Shibboleths",
    "type": "feat"
}
