{
    "_id": "g8ZMeg1YFg9WZj3I",
    "data": {
        "actionCategory": {
            "value": ""
        },
        "actionType": {
            "value": "free"
        },
        "actions": {
            "value": null
        },
        "description": {
            "value": "<p><strong>Trigger</strong> Your @Compendium[pf2e.feats-srd.Shield Block]{Shield Block} causes your shield to break or be destroyed.</p>\n<hr />\n<p>You're used to your shield breaking in the middle of battle, and you're prepared to use a backup or any convenient nearby object to defend yourself.</p>\n<p>You can @Compendium[pf2e.actionspf2e.Interact]{Interact} to draw a shield on your person or an unattended shield within your reach. If there is an object within your reach that could serve as an improvised shield-for example, a table or chair-you can Interact to draw it with this feat. The GM determines if something can be used as an improvised shield.</p>\n<p>Your new shield isn't raised until you use the @Compendium[pf2e.actionspf2e.Raise a Shield]{Raise a Shield} action, as normal.</p>"
        },
        "featType": {
            "value": "archetype"
        },
        "level": {
            "value": 6
        },
        "prerequisites": {
            "value": [
                {
                    "value": "Viking Dedication"
                }
            ]
        },
        "rules": [],
        "source": {
            "value": ""
        },
        "traits": {
            "custom": "",
            "rarity": {
                "value": "common"
            },
            "value": [
                "archetype"
            ]
        }
    },
    "effects": [],
    "flags": {},
    "img": "systems/pf2e/icons/features/feats/feats.webp",
    "name": "Second Shield",
    "type": "feat"
}
