{
    "_id": "cTQMtd2IVlvgJwAn",
    "data": {
        "actionCategory": {
            "value": ""
        },
        "actionType": {
            "value": "action"
        },
        "actions": {
            "value": 1
        },
        "description": {
            "value": "<p><strong>Access</strong> Help either the Washboard Dogs or the Diobel Sweepers destroy their rival.<br /><strong>Requirements</strong> You're wielding a melee weapon that deals slashing damage and you have a free hand.<br /></p>\n<hr />\n<p>You attempt a melee Strike with the required weapon. If you hit and deal damage and the result of your attack roll exceeds the target's Perception DC, you @Compendium[pf2e.actionspf2e.Steal]{Steal} a small object from the target (as if you had succeeded at that task using the Thievery skill). Depending on the object, the target might realize that it has been stolen, and onlookers might realize you have stolen the object if the attack roll doesn't exceed their Perception DCs.</p>"
        },
        "featType": {
            "value": "class"
        },
        "level": {
            "value": 6
        },
        "prerequisites": {
            "value": []
        },
        "rules": [],
        "source": {
            "value": ""
        },
        "traits": {
            "custom": "",
            "rarity": {
                "value": "uncommon"
            },
            "value": [
                "flourish",
                "manipulate",
                "rogue"
            ]
        }
    },
    "effects": [],
    "flags": {},
    "img": "systems/pf2e/icons/features/feats/feats.webp",
    "name": "Slice and Swipe",
    "type": "feat"
}
