{
    "_id": "mWCiu9Hl1WxajSLa",
    "data": {
        "actionCategory": {
            "value": ""
        },
        "actionType": {
            "value": "action"
        },
        "actions": {
            "value": 1
        },
        "description": {
            "value": "<p><strong>Requirements</strong> You have one hand free, and your target is within reach of that hand</p>\n<hr />\n<p>You combine an attack with quick grappling moves to throw an enemy off balance as long as it stays in your reach.</p>\n<p>Make a Strike while keeping one hand free. If this Strike hits, the target is @Compendium[pf2e.conditionitems.Flat-Footed]{Flat-Footed} until the start of your next turn or until it's no longer within the reach of your hand, whichever comes first.</p>"
        },
        "featType": {
            "value": "class"
        },
        "level": {
            "value": 1
        },
        "prerequisites": {
            "value": []
        },
        "rules": [],
        "source": {
            "value": ""
        },
        "traits": {
            "custom": "",
            "rarity": {
                "value": "common"
            },
            "value": [
                "fighter"
            ]
        }
    },
    "effects": [],
    "flags": {},
    "img": "systems/pf2e/icons/features/feats/feats.webp",
    "name": "Snagging Strike",
    "type": "feat"
}
