{
    "_id": "augNhQ51eSlZyead",
    "data": {
        "actionCategory": {
            "value": ""
        },
        "actionType": {
            "value": "passive"
        },
        "actions": {
            "value": null
        },
        "description": {
            "value": "<p>Stealth is an important tool in your arsenal. You can move 5 feet farther when you take the Sneak action, up to your Speed.</p>\n<p>In addition, as long as you continue to use Sneak actions and succeed at your Stealth check, you don't become @Compendium[pf2e.conditionitems.Observed]{Observed} if you don't have cover or greater cover and aren't @Compendium[pf2e.conditionitems.Concealed]{Concealed} at the end of the Sneak action, as long as you have cover or greater cover or are concealed at the end of your turn.</p>"
        },
        "featType": {
            "value": "ancestry"
        },
        "level": {
            "value": 1
        },
        "location": "",
        "prerequisites": {
            "value": []
        },
        "rules": [],
        "source": {
            "value": ""
        },
        "traits": {
            "custom": "",
            "rarity": {
                "value": "common"
            },
            "value": [
                "hobgoblin"
            ]
        }
    },
    "effects": [],
    "flags": {},
    "img": "systems/pf2e/icons/features/feats/feats.webp",
    "name": "Sneaky",
    "type": "feat"
}
