{
    "_id": "IEbnal1VJySrhxFR",
    "data": {
        "actionCategory": {
            "value": ""
        },
        "actionType": {
            "value": "action"
        },
        "actions": {
            "value": 2
        },
        "description": {
            "value": "<p><strong>Requirements</strong> You are wielding a piercing or slashing melee weapon.</p>\n<hr />\n<p>You dart towards your opponent, seeking to stab them and slice their purse-strings with a single movement. Stride up to your Speed; this movement does not trigger reactions triggered by movement. At any point during this movement you can Strike an opponent within reach. If this Strike is successful, you can attempt a Thievery check to Steal from the target.</p>"
        },
        "featType": {
            "value": "class"
        },
        "level": {
            "value": 6
        },
        "prerequisites": {
            "value": [
                {
                    "value": "expert in Thievery"
                }
            ]
        },
        "rules": [],
        "source": {
            "value": ""
        },
        "traits": {
            "custom": "",
            "rarity": {
                "value": "uncommon"
            },
            "value": [
                "rogue",
                "swashbuckler"
            ]
        }
    },
    "effects": [],
    "flags": {},
    "img": "systems/pf2e/icons/features/feats/feats.webp",
    "name": "Stella's Stab and Snag",
    "type": "feat"
}
