{
    "_id": "7bVJEZt2vwAAnILV",
    "data": {
        "actionCategory": {
            "value": ""
        },
        "actionType": {
            "value": "passive"
        },
        "actions": {
            "value": null
        },
        "description": {
            "value": "<p>You have power connected to the powerful jann amirs. You can cast @Compendium[pf2e.spells-srd.Read Omens]{Read Omens} and 4th-level @Compendium[pf2e.spells-srd.Invisibility]{Invisibility} each once per day as arcane innate spells, and you can cast <em>detect magic</em> at will as an arcane innate cantrip, heightened to a spell level equal to half your level rounded up.</p>"
        },
        "featType": {
            "value": "ancestry"
        },
        "level": {
            "value": 13
        },
        "location": "",
        "prerequisites": {
            "value": []
        },
        "rules": [],
        "source": {
            "value": ""
        },
        "traits": {
            "custom": "",
            "rarity": {
                "value": "uncommon"
            },
            "value": [
                "suli"
            ]
        }
    },
    "effects": [],
    "flags": {},
    "img": "systems/pf2e/icons/features/feats/feats.webp",
    "name": "Suli Amir",
    "type": "feat"
}
