{
    "_id": "l0VBbymCVT1Qz9t9",
    "data": {
        "actionCategory": {
            "value": ""
        },
        "actionType": {
            "value": "passive"
        },
        "actions": {
            "value": null
        },
        "description": {
            "value": "<p>You move with the wind always at your back. Your Speed increases by 5 feet.</p>\n<hr />\n<p><strong>Special</strong> The Speed increase from this feat isn't cumulative with any Speed increase from your ancestry feats (such as Nimble Elf).</p>"
        },
        "featType": {
            "value": "ancestry"
        },
        "level": {
            "value": 1
        },
        "location": "",
        "prerequisites": {
            "value": []
        },
        "rules": [],
        "source": {
            "value": ""
        },
        "traits": {
            "custom": "",
            "rarity": {
                "value": "common"
            },
            "value": [
                "sylph"
            ]
        }
    },
    "effects": [],
    "flags": {},
    "img": "systems/pf2e/icons/features/feats/feats.webp",
    "name": "Swift",
    "type": "feat"
}
