{
    "_id": "rMPL11JRcmlutvRi",
    "data": {
        "actionCategory": {
            "value": ""
        },
        "actionType": {
            "value": "action"
        },
        "actions": {
            "value": 1
        },
        "description": {
            "value": "<p><strong>Requirements</strong> You have a foe @Compendium[pf2e.conditionitems.Grabbed]{Grabbed}</p>\n<hr />\n<p>You thrash the grabbed foe around. It takes bludgeoning damage equal to your Strength modifier plus your weapon specialization damage plus your Rage damage. The foe must attempt a basic Fortitude save against your class DC.</p>"
        },
        "featType": {
            "value": "class"
        },
        "level": {
            "value": 8
        },
        "prerequisites": {
            "value": []
        },
        "rules": [],
        "source": {
            "value": ""
        },
        "traits": {
            "custom": "",
            "rarity": {
                "value": "common"
            },
            "value": [
                "barbarian",
                "rage"
            ]
        }
    },
    "effects": [],
    "flags": {},
    "img": "systems/pf2e/icons/features/feats/feats.webp",
    "name": "Thrash",
    "type": "feat"
}
