{
    "_id": "2nSk6oOLBXCEbAhc",
    "data": {
        "actionCategory": {
            "value": ""
        },
        "actionType": {
            "value": "reaction"
        },
        "actions": {
            "value": null
        },
        "description": {
            "value": "<p><strong>Trigger</strong> You fail (but don't critically fail) a saving throw against an effect with the visual trait.</p>\n<hr />\n<p>You cause your eyes to liquefy and run out of your eye sockets, leaving them empty. You get a success on the save against the triggering effect, but you are @Compendium[pf2e.conditionitems.Blinded]{Blinded} for the duration the effect would have had on a failure. At that time, your eyes regrow and your normal vision returns.</p>"
        },
        "featType": {
            "value": "archetype"
        },
        "level": {
            "value": 6
        },
        "location": "",
        "prerequisites": {
            "value": [
                {
                    "value": "Oozemorph Dedication"
                }
            ]
        },
        "rules": [
            {
                "key": "PF2E.RuleElement.ActiveEffectLike",
                "mode": "add",
                "path": "data.data.custom.modifiers.oozemorphDedicationCount",
                "value": 1
            }
        ],
        "source": {
            "value": ""
        },
        "traits": {
            "custom": "",
            "rarity": {
                "value": "common"
            },
            "selected": {
                "archetype": "Archetype"
            },
            "value": [
                "archetype"
            ]
        }
    },
    "effects": [],
    "flags": {},
    "img": "systems/pf2e/icons/features/feats/feats.webp",
    "name": "Vacate Vision",
    "type": "feat"
}
