{
    "_id": "5nzeyuvzKL4T8eLt",
    "data": {
        "actionCategory": {
            "value": ""
        },
        "actionType": {
            "value": "passive"
        },
        "actions": {
            "value": null
        },
        "description": {
            "value": "<p>You learn how to alter the magic of weapon runes by using a crystal as a focusing component. Once per day during your daily preparations, you can focus on a rune's magical energies through a crystal's facets to alter a single property rune on one weapon in your possession to suppress its normal effects and make it function as a different property rune. You can temporarily alter the rune to function as one of the following runes: <em>corrosive, flaming, frost, ghost touch, grievous, returning, shock, thundering, or wounding</em>. The property rune remains altered until you make your next daily preparations. The weapon must meet the prerequisites for the temporary rune, and any other runes that required the suppressed rune are also suppressed while the rune is transformed. The rune is obviously altered, and thus the weapon can't be sold as though it had the temporary rune.</p>"
        },
        "featType": {
            "value": "archetype"
        },
        "level": {
            "value": 10
        },
        "prerequisites": {
            "value": [
                {
                    "value": "Crystal Keeper Dedication"
                }
            ]
        },
        "rules": [],
        "source": {
            "value": ""
        },
        "traits": {
            "custom": "",
            "rarity": {
                "value": "common"
            },
            "value": [
                "archetype"
            ]
        }
    },
    "effects": [],
    "flags": {},
    "img": "systems/pf2e/icons/features/feats/feats.webp",
    "name": "Weapon-Rune Shifter",
    "type": "feat"
}
