{
    "_id": "juLtvliSzYPCmMa3",
    "data": {
        "actionCategory": {
            "value": ""
        },
        "actionType": {
            "value": "passive"
        },
        "actions": {
            "value": null
        },
        "description": {
            "value": "<p>You're among the few kobolds who grow a set of draconic wings later in life. The wings are initially small and weak; while not enough for full flight, a strong flap allows you to jump further. When Leaping horizontally, you move an additional 5 feet (this additional distance isn't cumulative with the increased Leap distance from the Powerful Leap feat). You don't automatically fail your checks to High Jump or Long Jump if you don't Stride at least 10 feet first. In addition, when you attempt a Long Jump, you can jump a distance up to 10 feet higher than you normally would based on the result of your Athletics check, though you still can't jump farther than your Speed.</p>"
        },
        "featType": {
            "value": "ancestry"
        },
        "level": {
            "value": 5
        },
        "location": "",
        "prerequisites": {
            "value": []
        },
        "rules": [],
        "source": {
            "value": ""
        },
        "traits": {
            "custom": "",
            "rarity": {
                "value": "common"
            },
            "value": [
                "kobold"
            ]
        }
    },
    "effects": [],
    "flags": {},
    "img": "systems/pf2e/icons/features/feats/feats.webp",
    "name": "Winglets",
    "type": "feat"
}
