{
    "_id": "c4secsSNG2AO7I5i",
    "data": {
        "additionalLanguages": {
            "count": 0,
            "custom": "",
            "value": [
                "abyssal",
                "aklo",
                "draconic",
                "elven",
                "halfling",
                "necril",
                "orcish",
                "sylvan"
            ]
        },
        "boosts": {
            "0": {
                "value": [
                    "wis"
                ]
            },
            "1": {
                "value": []
            },
            "2": {
                "value": [
                    "str",
                    "dex",
                    "con",
                    "int",
                    "wis",
                    "cha"
                ]
            }
        },
        "description": {
            "value": "<p><em>Golomas fear most other people and deliberately use their unusual biology to frighten off those they consider to be dangerous predators. Rarely seen and poorly understood, golomas' many-eyed and wooden faced visages instill terror in most they meet.</em></p>\n<hr />\n<p>Though just as capable of being dangerous as any intelligent creature on Golarion, golomas have a deep-rooted psychological understanding that they are prey, and that all two-eyed people are predators. As a result, golomas rarely reveal themselves to others, and when they do, they often adopt threatening personas as a means to protect themselves. Even those few golomas who venture out into greater Mwangi society often have trouble relating to other ancestries, due to their strong differences in perception and mindset.</p>\n<h2>You Might...</h2>\n<ul>\n<li>Instinctively process large amounts of disparate information quickly and efficiently.</li>\n<li>Project an air of intimidation to conceal your nervous disposition.</li>\n<li>Have difficulty distinguishing individual objects or people from others that are similar.</li>\n</ul>\n<h2>Others Probably...</h2>\n<ul>\n<li>Are frightened by your strange physiology.</li>\n<li>Mistake your difficulties with identifying distinct people from one another as indifference.</li>\n<li>Are awed by your skill at noticing minute details at a glance and drawing rapid conclusions.</li>\n</ul>\n<h2>Physical Description</h2>\n<p>Golomas are humanoids with rough skin that ranges in color from warm brown to ebony, although sickly gray or white individuals with albinism are not uncommon. Their fingers and feet are coated with a thin layer of chitin. A goloma's face is an oblong wedge made of smooth chitin, almost resembling a wooden mask. Protruding from this face are eight gelatinous, shining eyes. A goloma's mouth and jaw are located beneath their face-plate, and a bony crest juts from the top of their chitinous visage. The back of a goloma's head and neck is coated in black hair that is filled with thousands of tiny, peering eyes. These eyes tend to glow and squirm as they look around-an unsettling sight for most.</p>\n<h2>Society</h2>\n<p>An ancient goloma story states that during a calamity unleashed long ago, gods and demons burst forth from the earth to steal the eyes from other creatures. Only the golomas and others who were in hiding were spared-yet golomas soon began to be hunted by the now two-eyed people, who were hungry to take goloma eyes to replace what they had lost. This accurately sums up most golomas' mentalities: to be exposed is to be vulnerable, and to trust a stranger is deadly. Golomas usually travel and live with groups of other golomas, as this is where they feel most comfortable.</p>\n<p>Golomas learn at a young age to be vigilant at all times, observing the environment for any irregularities and then reacting with quick, calculated instinct rather than deliberative action. Other ancestries often perceive golomas to be paranoid and hypervigilant. Golomas are also better at wide-scale observation than observation of specific things-they can easily notice commonalities across large fields but have difficulty remembering what a specific object or creature looked like. This only increases their paranoia, as they have trouble visually distinguishing known friends from potentially hostile foes.</p>\n<h2>Alignment and Religion</h2>\n<p>Golomas tend to focus on their own survival and thus are typically neutral, though those who find more comfort in conformity than others trend toward lawful alignments. Golomas often pay homage to Kalekot, a deity of protective fear, as the guardian of their people, though not one to be trusted. Kalekot is called upon to curse those who victimize golomas, as most feel that justice can only be attained using supernatural means. Other popular gods include Mazludeh and Grandmother Spider, who encourage the strength of community, though a typical goloma's idea of community is often very insular.</p>\n<h2>Names</h2>\n<p>A goloma's true name is kept among golomas, as there are hundreds of cautionary tales of what could happen if another creature learns a goloma's true name. Names tend to lack soft syllables, which golomas often struggle to pronounce, and typically consist of hard consonants and individually enunciated vowels instead. Among other people, golomas tend to use names that are intended to be intimidating, taking elements and sounds from Aklo, Necril, or words from local languages that seem to cause strong reactions.</p>\n<h3>Sample Names</h3>\n<p>Biqkuul, Ehbouja, Haamaah, Kouzo, Quaerjii, Tebaazu, Uruueda, Zekuukeu</p>"
        },
        "flaws": {
            "0": {
                "value": []
            }
        },
        "hp": 8,
        "items": {
            "2lk67": {
                "id": "AUlPRySCqE6o6LHH",
                "img": "systems/pf2e/icons/default-icons/feat.svg",
                "level": 1,
                "name": "Eyes in Back",
                "pack": "pf2e.ancestryfeatures"
            }
        },
        "languages": {
            "custom": "",
            "value": [
                "goloma",
                "mwangi"
            ]
        },
        "reach": 5,
        "rules": [],
        "size": "med",
        "source": {
            "value": ""
        },
        "speed": 30,
        "traits": {
            "custom": "",
            "rarity": {
                "value": "rare"
            },
            "value": [
                "humanoid"
            ]
        },
        "vision": "normal"
    },
    "effects": [],
    "flags": {},
    "img": "systems/pf2e/icons/default-icons/alternatives/ancestries/goloma.svg",
    "name": "Goloma",
    "type": "ancestry"
}
