{
    "_id": "KcBqo33ekJHxZLHo",
    "data": {
        "description": {
            "value": "<p>Channeling the mischievous fey, you transform into a fey battle form, which is Medium unless stated otherwise. When you cast this spell, choose dryad, elananx, naiad, redcap, or unicorn. If you choose unicorn, the battle form is Large and you must have space to expand or the spell is lost. While in this form, you gain the fey trait. Unless you choose elananx or unicorn, you have hands in this battle form and can use manipulate actions. You can Dismiss the spell.</p>\n<p>You gain the following statistics and abilities regardless of the form that you choose:</p>\n<ul>\n<li>AC = 19 + your level. Ignore your armor’s check penalty and Speed reduction.</li>\n<li>15 temporary Hit Points and weakness 5 to cold iron.</li>\n<li>Low-light vision.</li>\n<li>One or more unarmed melee attacks specific to the battle form you choose, which are the only attacks you can use. You’re trained with them. Your attack modifier is +16, and you use the listed damage. These attacks are Dexterity based. If your attack modifier is higher for the given unarmed attack or weapon, you can use it instead.</li>\n<li>Acrobatics modifiers of +16, unless your own modifier is higher.</li>\n</ul>\n<p>You also gain specific abilities based on the type of fey:</p>\n<ul>\n<li><strong>Naiad</strong> Speed 25 feet, swim 25 feet; resistance 5 to fire;\n<ul>\n<li><strong>Melee</strong> <span class=\"pf2-icon\">1</span> aqueous fist (water) <strong>Damage</strong> 1d8+8 bludgeoning.</li>\n</ul>\n</li>\n</ul>"
        },
        "duration": {
            "expiry": "turn-start",
            "sustained": false,
            "unit": "minutes",
            "value": 1
        },
        "level": {
            "value": 4
        },
        "rules": [
            {
                "key": "BattleForm",
                "label": "Fey Form (Naiad)",
                "overrides": {
                    "armorClass": {
                        "modifier": "19 + @details.level.value"
                    },
                    "ownModifier": {
                        "skills": true,
                        "strikes": true
                    },
                    "senses": {
                        "lowLightVision": {}
                    },
                    "size": "med",
                    "skills": {
                        "acr": {
                            "modifier": 16
                        }
                    },
                    "speeds": {
                        "land": 25,
                        "swim": 25
                    },
                    "strikes": {
                        "fist": {
                            "ability": "dex",
                            "baseType": "fist",
                            "category": "unarmed",
                            "damage": {
                                "damageType": "bludgeoning",
                                "dice": 1,
                                "die": "d8",
                                "modifier": 8
                            },
                            "group": "brawling",
                            "label": "Aqueous Fist",
                            "modifier": 16,
                            "traits": [
                                "unarmed",
                                "water"
                            ]
                        }
                    },
                    "traits": [
                        "fey"
                    ]
                },
                "tempHP": 15
            }
        ],
        "source": {
            "value": ""
        },
        "start": {
            "initiative": null,
            "value": 0
        },
        "target": null,
        "tokenIcon": {
            "show": true
        },
        "traits": {
            "custom": "",
            "rarity": {
                "value": "common"
            },
            "value": []
        }
    },
    "effects": [],
    "flags": {},
    "img": "systems/pf2e/icons/default-icons/effect.svg",
    "name": "Spell Effect: Fey Form (Naiad)",
    "type": "effect"
}
