{
    "_id": "pocsoEi84Mr2buOc",
    "data": {
        "description": {
            "value": "<p>You flood your eidolon with power, creating a temporary evolution in your eidolon's capabilities. Choose one of the following effects:</p>\n<ul>\n<li>Your eidolon gains @Compendium[pf2e.bestiary-ability-glossary-srd.Scent]{Scent} as an imprecise sense up to 30 feet.</li>\n</ul>"
        },
        "duration": {
            "expiry": "turn-start",
            "sustained": false,
            "unit": "minutes",
            "value": 1
        },
        "level": {
            "value": 1
        },
        "rules": [
            {
                "acuity": "imprecise",
                "key": "Sense",
                "label": "PF2E.SensesScent",
                "range": 30,
                "selector": "scent"
            }
        ],
        "source": {
            "value": ""
        },
        "start": {
            "initiative": null,
            "value": 0
        },
        "target": null,
        "tokenIcon": {
            "show": false
        },
        "traits": {
            "custom": "",
            "rarity": {
                "value": "common"
            },
            "value": []
        }
    },
    "effects": [],
    "flags": {},
    "img": "systems/pf2e/icons/default-icons/effect.svg",
    "name": "Spell Effect: Evolution Surge (Scent)",
    "type": "effect"
}
