{
    "_id": "W0PjCMyGOpKAuyKX",
    "data": {
        "description": {
            "value": "<p>Granted by @Compendium[pf2e.spells-srd.Weapon Surge]{Weapon Surge} when applied to a weapon with a major striking rune.</p>\n<p>On your next Strike with that weapon before the start of your next turn, you gain a +1 status bonus to the attack roll.</p>"
        },
        "duration": {
            "expiry": "turn-start",
            "sustained": false,
            "unit": "unlimited",
            "value": -1
        },
        "level": {
            "value": 1
        },
        "rules": [
            {
                "key": "PF2E.RuleElement.EffectTarget",
                "scope": "weapon"
            },
            {
                "key": "PF2E.RuleElement.FlatModifier",
                "selector": "{item|data.target}-attack",
                "type": "status",
                "value": 1
            }
        ],
        "source": {
            "value": ""
        },
        "start": {
            "initiative": null,
            "value": 0
        },
        "target": null,
        "tokenIcon": {
            "show": true
        },
        "traits": {
            "custom": "",
            "rarity": {
                "value": "common"
            },
            "value": []
        }
    },
    "effects": [],
    "flags": {},
    "img": "systems/pf2e/icons/spells/weapon-surge.webp",
    "name": "Spell Effect: Weapon Surge (Major Striking)",
    "type": "effect"
}
