{
    "_id": "AnawxScxqUiRuGTm",
    "data": {
        "description": {
            "value": "<p>Granted by @Compendium[pf2e.spells-srd.Divine Vessel]{Divine Vessel}</p>\n<p>You accept otherworldly energies into your body; while you are still recognizably yourself, you gain the features of one of your deity's servitors. Choose an alignment your deity has (chaotic, evil, good, or lawful). You can't cast this spell if you don't have a deity or your deity is true neutral. This spell gains the trait of the alignment you chose.</p>\n<p>If you were Medium or smaller, you become Large, as the effects of @Compendium[pf2e.spells-srd.Enlarge]{Enlarge}. You must have space to expand into, or the spell is lost. You also gain the following benefits.</p>\n<ul>\n<li>40 temporary Hit Points.</li>\n<li>A fly Speed equal to your Speed.</li>\n<li>Weakness 10 to good.</li>\n<li>A +1 status bonus to saves against spells.</li>\n<li>Darkvision.</li>\n<li>Your unarmed attacks and weapons deal 1 additional evil damage.</li>\n<li>You gain a claws unarmed attack that deals 2d8 slashing damage and has the agile and finesse traits.</li>\n</ul>\n<hr />\n<p><em>Note: The weakness to good damage cannot be automated at present. Please make sure to apply the weakness manually.</em></p>"
        },
        "duration": {
            "expiry": "turn-start",
            "sustained": false,
            "unit": "minutes",
            "value": 10
        },
        "level": {
            "value": 7
        },
        "rules": [
            {
                "category": "unarmed",
                "damage": {
                    "base": {
                        "damageType": "slashing",
                        "dice": 2,
                        "die": "d8"
                    }
                },
                "key": "Strike",
                "label": "Claws",
                "range": "melee",
                "traits": [
                    "agile",
                    "finesse",
                    "unarmed"
                ]
            },
            {
                "key": "TempHP",
                "value": 60
            },
            {
                "key": "PF2E.RuleElement.FlatModifier",
                "label": "Divine Vessel",
                "predicate": {
                    "all": [
                        "spell"
                    ]
                },
                "selector": "saving-throw",
                "type": "status",
                "value": 1
            },
            {
                "key": "Sense",
                "label": "PF2E.SensesDarkvision",
                "selector": "darkvision"
            },
            {
                "damageType": "evil",
                "key": "PF2E.RuleElement.FlatModifier",
                "label": "Divine Vessel",
                "selector": "damage",
                "value": 1
            },
            {
                "key": "BaseSpeed",
                "selector": "fly",
                "value": "@attributes.speed.value"
            }
        ],
        "source": {
            "value": ""
        },
        "start": {
            "initiative": null,
            "value": 0
        },
        "target": null,
        "tokenIcon": {
            "show": true
        },
        "traits": {
            "custom": "",
            "rarity": {
                "value": "common"
            },
            "value": []
        }
    },
    "effects": [],
    "flags": {},
    "img": "systems/pf2e/icons/spells/divine-vessel.webp",
    "name": "Spell Effect: Divine Vessel 9th level (Evil)",
    "type": "effect"
}
