{
    "_id": "beW1OqibVQ3fBvRw",
    "data": {
        "actionCategory": {
            "value": ""
        },
        "actionType": {
            "value": "passive"
        },
        "actions": {
            "value": null
        },
        "description": {
            "value": "<p>As a swashbuckler, you have your own distinctive style that enables you to gracefully handle everyday events and life-or-death situations alike. Choose a swashbuckler's style. This style determines the additional actions you use to gain panache and makes you trained in the skill related to that action. The styles presented in this book are as follows.</p>\n<ul>\n<li>@Compendium[pf2e.classfeatures.Battledancer Style]{Battledancer Style}</li>\n<li>@Compendium[pf2e.classfeatures.Braggart Style]{Braggart Style}</li>\n<li>@Compendium[pf2e.classfeatures.Fencer Style]{Fencer Style}</li>\n<li>@Compendium[pf2e.classfeatures.Gymnast Style]{Gymnast Style}</li>\n<li>@Compendium[pf2e.classfeatures.Wit Style]{Wit Style}</li>\n</ul>"
        },
        "featType": {
            "value": "classfeature"
        },
        "level": {
            "value": 1
        },
        "location": "",
        "prerequisites": {
            "value": []
        },
        "rules": [],
        "source": {
            "value": ""
        },
        "traits": {
            "custom": "",
            "rarity": {
                "value": "common"
            },
            "selected": {
                "swashbuckler": "Swashbuckler"
            },
            "value": [
                "swashbuckler"
            ]
        }
    },
    "effects": [],
    "flags": {},
    "img": "systems/pf2e/icons/features/classes/swashbucklers-style.webp",
    "name": "Swashbuckler's Style",
    "type": "feat"
}
