{
    "_id": "OaNtHZAraCrVLuSo",
    "data": {
        "abilities": {
            "cha": {
                "mod": 5
            },
            "con": {
                "mod": 4
            },
            "dex": {
                "mod": 4
            },
            "int": {
                "mod": 1
            },
            "str": {
                "mod": 6
            },
            "wis": {
                "mod": 3
            }
        },
        "attributes": {
            "ac": {
                "details": "",
                "value": 28
            },
            "allSaves": {
                "value": ""
            },
            "hp": {
                "details": "negative healing",
                "max": 120,
                "temp": 0,
                "value": 120
            },
            "initiative": {
                "ability": "perception"
            },
            "perception": {
                "value": 17
            },
            "shield": {
                "ac": 0,
                "brokenThreshold": 0,
                "hardness": 0,
                "max": 0,
                "value": 0
            },
            "speed": {
                "otherSpeeds": [],
                "value": "25"
            }
        },
        "details": {
            "alignment": {
                "value": "CE"
            },
            "creatureType": "",
            "flavorText": "<p>The weight of murder wears heavy on the soul. With souls marked by a lifetime of dealing death, these killers, whether mass murderers, bloodthirsty soldiers, or sadistic executioners, sometimes do not let judgment and lawful execution stanch their slaying sprees. When such individuals are brought to justice, they may rise after death as mohrgs to continue their ruinous work.</p>\n<p>Drawn to others of their kind, mohrgs prefer to hunt in small groups, occasionally in partnership with weaker free-willed undead such as shadows and wights. They seek out weak prey and revel in causing drawn-out suffering. Some mohrgs haunt locations they favored in life, reenacting old crimes on new victims. They may even skulk about in public, wearing rags, cloaks, or freshly harvested skins to hide their nature. The most dangerous mohrgs are those who grow powerful enough to no longer fear being struck down again and openly assault settlements in an attempt to turn living towns into mass graves.</p>\n<p>Since those slain by a mohrg rise soon thereafter as mohrg spawn, the murders of a mohrg rarely go unnoticed for long, even when they take extra care to prey only on a society's dregs. Since mohrg spawn remain under a mohrg's control, a canny mohrg might order its spawn to remain in hiding to keep its presence secret until a point where it feels confident unleashing its undead army upon a doomed settlement.</p>\n<p>Mohrgs retain a twisted sentimentality for the crimes of their mortal life, seeking out trinkets that remind them of favorite murders. When not out hunting, mohrgs arrange their mementos into disturbing shrines. Often, these&nbsp; trinkets are valuable objects, and might even provide important clues to ongoing mysteries.</p>",
            "level": {
                "value": 8
            },
            "source": {
                "value": "Pathfinder Bestiary 2"
            }
        },
        "resources": {},
        "saves": {
            "fortitude": {
                "saveDetail": "",
                "value": 18
            },
            "reflex": {
                "saveDetail": "",
                "value": 16
            },
            "will": {
                "saveDetail": "",
                "value": 13
            }
        },
        "traits": {
            "attitude": {
                "value": "hostile"
            },
            "ci": [],
            "di": {
                "custom": "",
                "value": [
                    "death effects",
                    "disease",
                    "paralyzed",
                    "poison",
                    "unconscious"
                ]
            },
            "dr": [
                {
                    "label": "Piercing",
                    "type": "piercing",
                    "value": "10"
                },
                {
                    "label": "Slashing",
                    "type": "slashing",
                    "value": "5"
                }
            ],
            "dv": [],
            "languages": {
                "custom": "",
                "selected": [],
                "value": [
                    "common",
                    "necril"
                ]
            },
            "rarity": {
                "value": "common"
            },
            "senses": {
                "value": "darkvision"
            },
            "size": {
                "value": "med"
            },
            "traits": {
                "custom": "",
                "value": [
                    "undead"
                ]
            }
        }
    },
    "effects": [],
    "flags": {},
    "img": "systems/pf2e/icons/default-icons/npc.svg",
    "items": [
        {
            "_id": "NshCFgqhon7NfWbq",
            "data": {
                "attack": {
                    "value": ""
                },
                "attackEffects": {
                    "value": [
                        "Grab"
                    ]
                },
                "bonus": {
                    "value": 20
                },
                "damageRolls": {
                    "0": {
                        "damage": "2d10+9",
                        "damageType": "slashing"
                    }
                },
                "description": {
                    "value": ""
                },
                "rules": [],
                "slug": null,
                "source": {
                    "value": ""
                },
                "traits": {
                    "custom": "",
                    "rarity": {
                        "value": "common"
                    },
                    "value": []
                },
                "weaponType": {
                    "value": "melee"
                }
            },
            "effects": [],
            "flags": {},
            "img": "systems/pf2e/icons/default-icons/melee.svg",
            "name": "Claw",
            "sort": 100000,
            "type": "melee"
        },
        {
            "_id": "LUKxBKPHrzVKWWNz",
            "data": {
                "attack": {
                    "value": ""
                },
                "attackEffects": {
                    "custom": "",
                    "value": [
                        "Paralysis"
                    ]
                },
                "bonus": {
                    "value": 20
                },
                "damageRolls": {},
                "description": {
                    "value": ""
                },
                "rules": [],
                "slug": null,
                "source": {
                    "value": ""
                },
                "traits": {
                    "custom": "",
                    "rarity": {
                        "value": "common"
                    },
                    "value": [
                        "agile"
                    ]
                },
                "weaponType": {
                    "value": "melee"
                }
            },
            "effects": [],
            "flags": {},
            "img": "systems/pf2e/icons/default-icons/melee.svg",
            "name": "Tongue",
            "sort": 200000,
            "type": "melee"
        },
        {
            "_id": "M14sGTx3h9uOKf65",
            "data": {
                "actionCategory": {
                    "value": "interaction"
                },
                "actionType": {
                    "value": "passive"
                },
                "actions": {
                    "value": null
                },
                "description": {
                    "value": "<p>A monster with darkvision can see perfectly well in areas of darkness and dim light, though such vision is in black and white only. Some forms of magical darkness, such as a 4th-level @Compendium[pf2e.spells-srd.Darkness]{Darkness} spell, block normal darkvision. A monster with @Compendium[pf2e.bestiary-ability-glossary-srd.Greater Darkvision]{Greater Darkvision}, however, can see through even these forms of magical darkness.</p>"
                },
                "requirements": {
                    "value": ""
                },
                "rules": [],
                "slug": "darkvision",
                "source": {
                    "value": ""
                },
                "traits": {
                    "custom": "",
                    "rarity": {
                        "value": "common"
                    },
                    "value": []
                },
                "trigger": {
                    "value": ""
                },
                "weapon": {
                    "value": ""
                }
            },
            "effects": [],
            "flags": {
                "core": {
                    "sourceId": "Compendium.pf2e.bestiary-ability-glossary-srd.qCCLZhnp2HhP3Ex6"
                }
            },
            "img": "systems/pf2e/icons/default-icons/action.svg",
            "name": "Darkvision",
            "sort": 300000,
            "type": "action"
        },
        {
            "_id": "LV58uBPdmRP5wve2",
            "data": {
                "actionCategory": {
                    "value": "defensive"
                },
                "actionType": {
                    "value": "passive"
                },
                "actions": {
                    "value": null
                },
                "description": {
                    "value": "<p>A creature with negative healing draws health from negative energy rather than positive energy. It is damaged by positive damage and is not healed by positive healing effects. It does not take negative damage, and it is healed by negative effects that heal undead.</p>"
                },
                "requirements": {
                    "value": ""
                },
                "rules": [],
                "slug": "negative-healing",
                "source": {
                    "value": ""
                },
                "traits": {
                    "custom": "",
                    "rarity": {
                        "value": "common"
                    },
                    "value": []
                },
                "trigger": {
                    "value": ""
                },
                "weapon": {
                    "value": ""
                }
            },
            "effects": [],
            "flags": {
                "core": {
                    "sourceId": "Compendium.pf2e.bestiary-ability-glossary-srd.TTCw5NusiSSkJU1x"
                }
            },
            "img": "systems/pf2e/icons/default-icons/action.svg",
            "name": "Negative Healing",
            "sort": 400000,
            "type": "action"
        },
        {
            "_id": "HXNPKNUC1fSgSuTM",
            "data": {
                "actionCategory": {
                    "value": "defensive"
                },
                "actionType": {
                    "value": "passive"
                },
                "actions": {
                    "value": null
                },
                "description": {
                    "value": "<p>A living creature slain by a mohrg that had a lower level than the mohrg rises as a mohrg spawn after [[/br 1d4 #rounds]]{1d4 rounds}, on its turn. This mohrg spawn is under the command of the mohrg that created it. If the creator of the mohrg spawn is destroyed, the mohrg spawn is destroyed as well, immediately collapsing into a pile of decayed flesh and bones.</p>"
                },
                "requirements": {
                    "value": ""
                },
                "rules": [],
                "slug": null,
                "source": {
                    "value": ""
                },
                "traits": {
                    "custom": "",
                    "rarity": {
                        "value": "common"
                    },
                    "value": [
                        "occult",
                        "necromancy"
                    ]
                },
                "trigger": {
                    "value": ""
                },
                "weapon": {
                    "value": ""
                }
            },
            "effects": [],
            "flags": {},
            "img": "systems/pf2e/icons/default-icons/mystery-man.svg",
            "name": "Mohrg Spawn",
            "sort": 500000,
            "type": "action"
        },
        {
            "_id": "967GKOeV0EqG2hzn",
            "data": {
                "actionCategory": {
                    "value": "offensive"
                },
                "actionType": {
                    "value": "action"
                },
                "actions": {
                    "value": 1
                },
                "description": {
                    "value": "<p><strong>Requirements</strong> The monster's last action was a success with a Strike that lists Grab in its damage entry, or it has a creature grabbed using this action.</p>\n<p><strong>Effect</strong> The monster automatically Grabs the target until the end of the monster's next turn. The creature is @Compendium[pf2e.conditionitems.Grabbed]{Grabbed} by whichever body part the monster attacked with, and that body part can't be used to Strike creatures until the grab is ended. Using Grab extends the duration of the monster's Grab until the end of its next turn for all creatures grabbed by it. A grabbed creature can use the @Compendium[pf2e.actionspf2e.Escape]{Escape} action to get out of the grab, and the Grab ends for a grabbed creatures if the monster moves away from it.</p>"
                },
                "requirements": {
                    "value": ""
                },
                "rules": [],
                "slug": "grab",
                "source": {
                    "value": ""
                },
                "traits": {
                    "custom": "",
                    "rarity": {
                        "value": "common"
                    },
                    "value": []
                },
                "trigger": {
                    "value": ""
                },
                "weapon": {
                    "value": ""
                }
            },
            "effects": [],
            "flags": {
                "core": {
                    "sourceId": "Compendium.pf2e.bestiary-ability-glossary-srd.Tkd8sH4pwFIPzqTr"
                }
            },
            "img": "systems/pf2e/icons/actions/OneAction.webp",
            "name": "Grab",
            "sort": 600000,
            "type": "action"
        },
        {
            "_id": "zJ48k7LkzzGzYZXF",
            "data": {
                "actionCategory": {
                    "value": "offensive"
                },
                "actionType": {
                    "value": "passive"
                },
                "actions": {
                    "value": null
                },
                "description": {
                    "value": "<p>A living creature hit by a mohrg's tongue Strike must succeed at a <span data-pf2-check=\"fortitude\" data-pf2-dc=\"26\" data-pf2-traits=\"occult,incapacitation,necromancy\" data-pf2-label=\"Paralysis DC\" data-pf2-show-dc=\"gm\">Fortitude</span> save or become @Compendium[pf2e.conditionitems.Paralyzed]{Paralyzed}. The creature can attempt a new save at the end of each of its turns, and the DC cumulatively decreases by 1 on each attempt.</p>"
                },
                "requirements": {
                    "value": ""
                },
                "rules": [],
                "slug": null,
                "source": {
                    "value": ""
                },
                "traits": {
                    "custom": "",
                    "rarity": {
                        "value": "common"
                    },
                    "value": [
                        "occult",
                        "incapacitation",
                        "necromancy"
                    ]
                },
                "trigger": {
                    "value": ""
                },
                "weapon": {
                    "value": ""
                }
            },
            "effects": [],
            "flags": {},
            "img": "systems/pf2e/icons/default-icons/mystery-man.svg",
            "name": "Paralysis",
            "sort": 700000,
            "type": "action"
        },
        {
            "_id": "TJX2IhSoL0wAayF8",
            "data": {
                "description": {
                    "value": ""
                },
                "item": {
                    "value": 0
                },
                "mod": {
                    "value": 16
                },
                "proficient": {
                    "value": 0
                },
                "rules": [],
                "slug": null,
                "source": {
                    "value": ""
                },
                "traits": {
                    "custom": "",
                    "rarity": {
                        "value": "common"
                    },
                    "value": []
                }
            },
            "effects": [],
            "flags": {},
            "img": "systems/pf2e/icons/default-icons/lore.svg",
            "name": "Acrobatics",
            "sort": 800000,
            "type": "lore"
        },
        {
            "_id": "2rCpz2wxBCdpA77B",
            "data": {
                "description": {
                    "value": ""
                },
                "item": {
                    "value": 0
                },
                "mod": {
                    "value": 18
                },
                "proficient": {
                    "value": 0
                },
                "rules": [],
                "slug": null,
                "source": {
                    "value": ""
                },
                "traits": {
                    "custom": "",
                    "rarity": {
                        "value": "common"
                    },
                    "value": []
                }
            },
            "effects": [],
            "flags": {},
            "img": "systems/pf2e/icons/default-icons/lore.svg",
            "name": "Athletics",
            "sort": 900000,
            "type": "lore"
        },
        {
            "_id": "E9xsKxeos9X4P7Bw",
            "data": {
                "description": {
                    "value": ""
                },
                "item": {
                    "value": 0
                },
                "mod": {
                    "value": 19
                },
                "proficient": {
                    "value": 0
                },
                "rules": [],
                "slug": null,
                "source": {
                    "value": ""
                },
                "traits": {
                    "custom": "",
                    "rarity": {
                        "value": "common"
                    },
                    "value": []
                }
            },
            "effects": [],
            "flags": {},
            "img": "systems/pf2e/icons/default-icons/lore.svg",
            "name": "Intimidation",
            "sort": 1000000,
            "type": "lore"
        },
        {
            "_id": "KpgpzvbKgHJdJqZD",
            "data": {
                "description": {
                    "value": ""
                },
                "item": {
                    "value": 0
                },
                "mod": {
                    "value": 15
                },
                "proficient": {
                    "value": 0
                },
                "rules": [],
                "slug": null,
                "source": {
                    "value": ""
                },
                "traits": {
                    "custom": "",
                    "rarity": {
                        "value": "common"
                    },
                    "value": []
                }
            },
            "effects": [],
            "flags": {},
            "img": "systems/pf2e/icons/default-icons/lore.svg",
            "name": "Society",
            "sort": 1100000,
            "type": "lore"
        },
        {
            "_id": "rmXO4Tk66Rcr4GOp",
            "data": {
                "description": {
                    "value": ""
                },
                "item": {
                    "value": 0
                },
                "mod": {
                    "value": 18
                },
                "proficient": {
                    "value": 0
                },
                "rules": [],
                "slug": null,
                "source": {
                    "value": ""
                },
                "traits": {
                    "custom": "",
                    "rarity": {
                        "value": "common"
                    },
                    "value": []
                }
            },
            "effects": [],
            "flags": {},
            "img": "systems/pf2e/icons/default-icons/lore.svg",
            "name": "Stealth",
            "sort": 1200000,
            "type": "lore"
        }
    ],
    "name": "Mohrg",
    "token": {
        "disposition": -1,
        "height": 1,
        "img": "systems/pf2e/icons/default-icons/npc.svg",
        "name": "Mohrg",
        "width": 1
    },
    "type": "npc"
}
