{
    "_id": "whf92aQ6aMwByjFn",
    "data": {
        "description": {
            "value": "<p>Bones protrude through your skin and your flesh rots, combining with a stench of decay and an unearthly chill.</p>\n<p>Non-magical effects that would restore your Hit Points only grant you half as many HP as normal.</p>\n<hr />\n<p><em>Note: You need to apply the effects of this curse manually.</em></p>"
        },
        "duration": {
            "expiry": "turn-start",
            "sustained": false,
            "unit": "unlimited",
            "value": -1
        },
        "level": {
            "value": 1
        },
        "rules": [],
        "source": {
            "value": ""
        },
        "start": {
            "initiative": null,
            "value": 0
        },
        "target": null,
        "tokenIcon": {
            "show": true
        },
        "traits": {
            "custom": "",
            "rarity": {
                "value": "common"
            },
            "value": []
        }
    },
    "effects": [],
    "flags": {},
    "img": "systems/pf2e/icons/features/classes/bones-mystery.webp",
    "name": "Effect: Minor Bones Curse",
    "type": "effect"
}
