{
    "_id": "IT1aaqDBAISlHDUV",
    "data": {
        "ability": {
            "value": ""
        },
        "area": {
            "value": ""
        },
        "areasize": {
            "value": ""
        },
        "category": {
            "value": "focus"
        },
        "components": {
            "material": false,
            "somatic": true,
            "verbal": true
        },
        "cost": {
            "value": ""
        },
        "damage": {
            "value": {}
        },
        "description": {
            "value": "<p>You mark the holy symbol of Achaekek in a visible location on the target's body.</p>\n<hr />\n<p><strong>Critical Success</strong> The target is unaffected.</p>\n<p><strong>Success</strong> The target is marked by Achaekek's symbol. For 1 minute, the first time per round that the target gains @Compendium[pf2e.conditionitems.Persistent Damage]{Persistent Bleed Damage}, they immediately take that amount of slashing damage as the mantis claws grow off the symbol and rake them.</p>\n<p><strong>Failure</strong> As success, but the curse has an unlimited duration.</p>\n<p><strong>Critical Failure</strong> As failure, but the DC on the target's flat check to remove persistent bleed damage increases to 20 (15 with particularly effective assistance).</p>"
        },
        "duration": {
            "value": ""
        },
        "hasCounteractCheck": {
            "value": false
        },
        "level": {
            "value": 4
        },
        "location": {
            "value": "jmHS1JFMlQxpUHus"
        },
        "materials": {
            "value": ""
        },
        "prepared": {
            "value": ""
        },
        "primarycheck": {
            "value": ""
        },
        "range": {
            "value": "30 feet"
        },
        "rules": [],
        "save": {
            "basic": "",
            "value": "will"
        },
        "school": {
            "value": "abjuration"
        },
        "secondarycasters": {
            "value": ""
        },
        "secondarycheck": {
            "value": ""
        },
        "source": {
            "value": ""
        },
        "spellType": {
            "value": "utility"
        },
        "sustained": {
            "value": false
        },
        "target": {
            "value": "1 Creature"
        },
        "time": {
            "value": "2"
        },
        "traditions": {
            "value": []
        },
        "traits": {
            "custom": "",
            "rarity": {
                "value": "rare"
            },
            "selected": {
                "curse": "Curse",
                "death": "Death",
                "necromancy": "Necromancy"
            },
            "value": [
                "curse",
                "death"
            ]
        }
    },
    "effects": [],
    "flags": {},
    "img": "systems/pf2e/icons/spells/achaekeks-clutch.webp",
    "name": "Achaekek's Clutch",
    "type": "spell"
}
