{
    "_id": "7tR29sQt35NfIWqN",
    "data": {
        "ability": {
            "value": ""
        },
        "area": {
            "areaType": "",
            "value": null
        },
        "areasize": {
            "value": ""
        },
        "category": {
            "value": "spell"
        },
        "components": {
            "material": false,
            "somatic": true,
            "verbal": true
        },
        "cost": {
            "value": ""
        },
        "damage": {
            "value": {
                "0": {
                    "type": {
                        "categories": [],
                        "value": "mental"
                    },
                    "value": "4d6"
                }
            }
        },
        "description": {
            "value": "<p><strong>Trigger</strong> A creature performs an act anathema to your deity.</p>\n<hr />\n<p>You punish a creature that transgresses against your deity, drawing upon the anguish you feel upon seeing one of your deity's anathema committed. You can cast this spell only when a creature actively commits a unique act of anathema. For example, if creating undead were anathema to your deity, you could use anathematic reprisal on a necromancer who had just created undead in front of you, but not on an undead creature just for existing. You deal 4d6 mental damage to the target, but a basic Will save can reduce this damage. If it fails, it is also @Compendium[pf2e.conditionitems.Stupefied]{Stupefied 1} for 1 round. The creature is then temporarily immune for 1 minute.</p>\n<hr />\n<p><strong>Heightened (+1)</strong> The damage increases by 1d6.</p>"
        },
        "duration": {
            "value": ""
        },
        "hasCounteractCheck": {
            "value": false
        },
        "level": {
            "value": 4
        },
        "location": {
            "value": ""
        },
        "materials": {
            "value": ""
        },
        "prepared": {
            "value": ""
        },
        "primarycheck": {
            "value": ""
        },
        "range": {
            "value": "30 feet"
        },
        "rules": [],
        "save": {
            "basic": "basic",
            "value": "will"
        },
        "scaling": {
            "damage": {
                "0": "1d6"
            },
            "interval": 1
        },
        "school": {
            "value": "enchantment"
        },
        "secondarycasters": {
            "value": ""
        },
        "secondarycheck": {
            "value": ""
        },
        "source": {
            "value": ""
        },
        "spellType": {
            "value": "save"
        },
        "sustained": {
            "value": false
        },
        "target": {
            "value": "the triggering creature"
        },
        "time": {
            "value": "reaction"
        },
        "traditions": {
            "value": [
                "divine"
            ]
        },
        "traits": {
            "custom": "",
            "rarity": {
                "value": "common"
            },
            "value": [
                "mental"
            ]
        }
    },
    "effects": [],
    "flags": {},
    "img": "systems/pf2e/icons/spells/anathematic-reprisal.webp",
    "name": "Anathematic Reprisal",
    "type": "spell"
}
