{
    "_id": "E3zIZ4pjlOuWeGRz",
    "data": {
        "ability": {
            "value": ""
        },
        "area": {
            "areaType": "",
            "value": ""
        },
        "autoHeightenLevel": {
            "value": null
        },
        "category": {
            "value": "spell"
        },
        "components": {
            "focus": false,
            "material": false,
            "somatic": true,
            "verbal": true
        },
        "cost": {
            "value": ""
        },
        "damage": {
            "value": {}
        },
        "description": {
            "value": "<p>Invoking the celestial realms, you transform into a Medium angel battle form. When you cast this spell, choose balisse, choral, monadic deva, or movanic deva. The battle form is Small if you choose choral. While in this form, you gain the angel and celestial traits. You have hands in this battle form and can use manipulate actions. You can Dismiss the spell.</p>\n<p>You gain the following statistics and abilities regardless of the form that you choose:</p>\n<ul>\n<li>AC = 22 + your level. Ignore your armor check's penalty and Speed reduction.</li>\n<li>40 temporary Hit Points and weakness 10 to evil damage.</li>\n<li>Darkvision.</li>\n<li>One or more attacks specific to the battle form you choose. You're trained with them. Your attack modifier is +25, and you use the listed damage. Melee attacks are Strength based (for the purpose of the enfeebled condition, for example), and ranged attacks are Dexterity based. If your attack modifier is higher for the given unarmed attack or weapon, you can use it instead.</li>\n<li>Athletics modifier of +25, unless your own modifier is higher.</li>\n</ul>\n<p>You also gain specific abilities based on the type of angel you choose:</p>\n<ul>\n<li><strong>Balisse</strong> Speed 30 feet, fly 40 feet; Perception modifier of +26 to detect lies and illusions unless your own modifier is higher; <strong>Melee</strong> <span class=\"pf2-icon\">1</span> scimitar (forceful, sweep), <strong>Damage</strong> 2d6+12 slashing plus 1d6 fire and 1d6 good.</li>\n<li><strong>Choral</strong> Speed 30 feet, fly 40 feet; +1 status bonus to AC and saves against sonic and auditory; <strong>Melee</strong> <span class=\"pf2-icon\">1</span> fist (agile), <strong>Damage</strong> 2d6+12 bludgeoning plus 1d6 good; <strong>Ranged</strong> <span class=\"pf2-icon\">1</span> piercing hymn (range 90 feet), <strong>Damage</strong> 1d6+12 sonic plus 1d6 good, and @Compendium[pf2e.conditionitems.Deafened]{Deafened} for 1 round on a critical hit.</li>\n<li><strong>Monadic Deva</strong> Speed 30 feet, fly 40 feet; +2 status bonus on saves against death effects and effects that manipulate souls; <strong>Melee</strong> <span class=\"pf2-icon\">1</span> holy mace (shove), <strong>Damage</strong> 2d6+12 bludgeoning plus 1d6 force and 1d6 good.</li>\n<li><strong>Movanic Deva</strong> Speed 30 feet, fly 40 feet; resistance 10 to negative; <strong>Melee</strong> <span class=\"pf2-icon\">1</span> bastard sword (two-hand d12), <strong>Damage</strong> 1d8+12 slashing plus 1d6 fire and 1d6 good.<hr /><strong>Heightened (9th)</strong> Your battle form is Large. You must have space to expand, or the spell is lost. You instead gain 60 temporary Hit Points, weakness 15 to evil damage, attack modifier +30, damage bonus +20, and Athletics +33.</li>\n</ul>"
        },
        "duration": {
            "value": "1 minute"
        },
        "hasCounteractCheck": {
            "value": false
        },
        "level": {
            "value": 7
        },
        "location": {
            "value": ""
        },
        "materials": {
            "value": ""
        },
        "prepared": {
            "value": ""
        },
        "range": {
            "value": ""
        },
        "rules": [],
        "save": {
            "basic": "",
            "value": ""
        },
        "school": {
            "value": "transmutation"
        },
        "source": {
            "value": ""
        },
        "spellType": {
            "value": "utility"
        },
        "sustained": {
            "value": false
        },
        "target": {
            "value": ""
        },
        "time": {
            "value": "2"
        },
        "traditions": {
            "custom": "",
            "value": [
                "divine"
            ]
        },
        "traits": {
            "custom": "",
            "rarity": {
                "value": "common"
            },
            "value": [
                "good",
                "polymorph"
            ]
        }
    },
    "effects": [],
    "flags": {},
    "img": "systems/pf2e/icons/default-icons/spell.svg",
    "name": "Angel Form",
    "type": "spell"
}
