{
    "_id": "VmqdVWCb8zAUCW8S",
    "data": {
        "ability": {
            "value": ""
        },
        "area": {
            "areaType": "",
            "value": ""
        },
        "areasize": {
            "value": ""
        },
        "category": {
            "value": "focus"
        },
        "components": {
            "material": false,
            "somatic": true,
            "verbal": true
        },
        "cost": {
            "value": ""
        },
        "damage": {
            "value": {
                "0": {
                    "type": {
                        "categories": [],
                        "value": "mental"
                    },
                    "value": "9d6"
                }
            }
        },
        "description": {
            "value": "<p>You reveal a glimpse of the impossible conflicts between the<br />divine anathema behind your curse, forcing you to reckon<br />with another's conflicts as well.</p>\n<p>You and the target each take 9d6 mental damage with a basic Will save, and the target is @Compendium[pf2e.conditionitems.Stunned]{Stunned 1} if it critically fails its save. You get a degree of success one better than you rolled for your saving throw.</p>\n<hr />\n<p><strong>Heightened (+1)</strong> The damage increases by 3d6.</p>"
        },
        "duration": {
            "value": ""
        },
        "hasCounteractCheck": {
            "value": false
        },
        "level": {
            "value": 4
        },
        "location": {
            "value": ""
        },
        "materials": {
            "value": ""
        },
        "prepared": {
            "value": ""
        },
        "primarycheck": {
            "value": ""
        },
        "range": {
            "value": "30 feet"
        },
        "rules": [],
        "save": {
            "basic": "basic",
            "value": "will"
        },
        "scaling": {
            "damage": {
                "0": "3d6"
            },
            "interval": 1
        },
        "school": {
            "value": "evocation"
        },
        "secondarycasters": {
            "value": ""
        },
        "secondarycheck": {
            "value": ""
        },
        "source": {
            "value": ""
        },
        "spellType": {
            "value": "save"
        },
        "sustained": {
            "value": false
        },
        "target": {
            "value": "1 creature other than you"
        },
        "time": {
            "value": "2"
        },
        "traditions": {
            "value": []
        },
        "traits": {
            "custom": "",
            "rarity": {
                "value": "uncommon"
            },
            "value": [
                "mental",
                "oracle",
                "cursebound"
            ]
        }
    },
    "effects": [],
    "flags": {},
    "img": "systems/pf2e/icons/spells/debilitating-dichotomy.webp",
    "name": "Debilitating Dichotomy",
    "type": "spell"
}
