{
    "_id": "aXoh6OQAL57lgh0a",
    "data": {
        "ability": {
            "value": ""
        },
        "area": {
            "areaType": "",
            "value": null
        },
        "areasize": {
            "value": "cube of dirt 5 feet across or smaller"
        },
        "category": {
            "value": "spell"
        },
        "components": {
            "material": false,
            "somatic": true,
            "verbal": true
        },
        "cost": {
            "value": ""
        },
        "damage": {
            "value": {}
        },
        "description": {
            "value": "<p>You remove loose dirt, dust, gravel, sand, and the like (though not solid stone) up to the size of a 5-foot cube. Any Medium or smaller creature standing atop the earth when the spell is cast must attempt a Reflex save or Acrobatics check.</p>\n<hr />\n<p><strong>Success</strong> The creature is unaffected and can choose to either descend the pit without damage or move to the nearest available space of its choice.</p>\n<p><strong>Failure</strong> The creature falls @Compendium[pf2e.conditionitems.Prone]{Prone} in the nearest available space of its choice, or falls into the pit if it prefers.</p>\n<p><strong>Critical Failure</strong> The creature falls into the pit excavated by the spell and lands Prone, taking falling damage as normal.</p>\n<hr />\n<p><strong>Heightened (+2)</strong> The spell can excavate an additional 5-foot cube of earth. If you excavate all four 5-foot cubes beneath a Large creature, it must attempt a Reflex save or Acrobatics check, as above.</p>"
        },
        "duration": {
            "value": ""
        },
        "hasCounteractCheck": {
            "value": false
        },
        "level": {
            "value": 2
        },
        "location": {
            "value": ""
        },
        "materials": {
            "value": ""
        },
        "prepared": {
            "value": ""
        },
        "primarycheck": {
            "value": ""
        },
        "range": {
            "value": "touch"
        },
        "rules": [],
        "save": {
            "basic": "",
            "value": "reflex"
        },
        "school": {
            "value": "transmutation"
        },
        "secondarycasters": {
            "value": ""
        },
        "secondarycheck": {
            "value": ""
        },
        "source": {
            "value": ""
        },
        "spellType": {
            "value": "utility"
        },
        "sustained": {
            "value": false
        },
        "target": {
            "value": ""
        },
        "time": {
            "value": "2"
        },
        "traditions": {
            "custom": "",
            "value": [
                "arcane",
                "primal"
            ]
        },
        "traits": {
            "custom": "",
            "rarity": {
                "value": "common"
            },
            "value": [
                "earth"
            ]
        }
    },
    "effects": [],
    "flags": {},
    "img": "systems/pf2e/icons/spells/expeditious-excavation.webp",
    "name": "Expeditious Excavation",
    "type": "spell"
}
