{
    "_id": "2RhZkHNv8ajq0yLq",
    "data": {
        "ability": {
            "value": ""
        },
        "area": {
            "areaType": "emanation",
            "value": 15
        },
        "areasize": {
            "value": "15-foot emanation"
        },
        "category": {
            "value": "focus"
        },
        "components": {
            "material": false,
            "somatic": true,
            "verbal": true
        },
        "cost": {
            "value": ""
        },
        "damage": {
            "value": {}
        },
        "description": {
            "value": "<p>A sickly yellow light fills the area as entropic forces prevent healing. When a creature within the area would regain Hit Points, such as from a healing effect or an ability like fast healing or regeneration, it must attempt a Will save.</p>\n<hr />\n<p><strong>Critical Success</strong> The creature regains the full number of Hit Points that would be restored by the healing effect, and is temporarily immune for 1 minute.</p>\n<p><strong>Success</strong> The creature regains the full number of Hit Points that would be restored.</p>\n<p><strong>Failure</strong> The creature regains only half the number of Hit Points that would be restored.</p>\n<p><strong>Critical Failure</strong> The creature does not regain Hit Points from the healing effect.</p>"
        },
        "duration": {
            "value": "sustained up to 1 minute"
        },
        "hasCounteractCheck": {
            "value": false
        },
        "level": {
            "value": 4
        },
        "location": {
            "value": ""
        },
        "materials": {
            "value": ""
        },
        "prepared": {
            "value": ""
        },
        "primarycheck": {
            "value": ""
        },
        "range": {
            "value": "60 feet"
        },
        "rules": [],
        "save": {
            "basic": "",
            "value": "will"
        },
        "school": {
            "value": "necromancy"
        },
        "secondarycasters": {
            "value": ""
        },
        "secondarycheck": {
            "value": ""
        },
        "source": {
            "value": ""
        },
        "spellType": {
            "value": "save"
        },
        "sustained": {
            "value": false
        },
        "target": {
            "value": ""
        },
        "time": {
            "value": "2"
        },
        "traditions": {
            "custom": "",
            "value": []
        },
        "traits": {
            "custom": "",
            "rarity": {
                "value": "common"
            },
            "value": [
                "cleric",
                "negative"
            ]
        }
    },
    "effects": [],
    "flags": {},
    "img": "systems/pf2e/icons/spells/fallow-field.webp",
    "name": "Fallow Field",
    "type": "spell"
}
