{
    "_id": "ftZ750SD2iIJKIy3",
    "data": {
        "ability": {
            "value": ""
        },
        "area": {
            "areaType": "emanation",
            "value": "20"
        },
        "autoHeightenLevel": {
            "value": null
        },
        "category": {
            "value": "spell"
        },
        "components": {
            "focus": false,
            "material": false,
            "somatic": true,
            "verbal": true
        },
        "cost": {
            "value": ""
        },
        "damage": {
            "value": {}
        },
        "description": {
            "value": "<p>You're bathed in a smooth, almost glittering aura that improves the attitude of those near you. Any creature that ends its turn in the aura must attempt a Will saving throw with the following effects. No matter the result, it’s then temporarily immune for 24 hours. The effect lasts until the spell ends, even after the creature leaves the aura.</p>\n<hr />\n<p><strong>Critical Success</strong> The creature is unaffected and is aware of the aura.</p>\n<p><strong>Success</strong> The creature's attitude toward you improves by one step. If that improves its attitude to at least @Compendium[pf2e.conditionitems.Indifferent]{Indifferent}, it can't take hostile actions against you, though the effect ends as soon as you take a hostile action against the creature or its allies.</p>\n<p><strong>Failure</strong> The creature's attitude toward you improves by two steps. It can't take hostile actions against you, though the effect ends as soon as you take a hostile action against the creature or its allies.</p>\n<p><strong>Critical Failure</strong> The creature's attitude becomes @Compendium[pf2e.conditionitems.Helpful]{Helpful} to you, though the effect ends as soon as you take a hostile action against the creature or its allies. While the creature is helpful, it can't take hostile actions against you.</p>"
        },
        "duration": {
            "value": "sustained up to 1 minute"
        },
        "hasCounteractCheck": {
            "value": false
        },
        "level": {
            "value": 5
        },
        "location": {
            "value": ""
        },
        "materials": {
            "value": ""
        },
        "range": {
            "value": ""
        },
        "rules": [],
        "save": {
            "basic": "",
            "value": "will"
        },
        "school": {
            "value": "enchantment"
        },
        "source": {
            "value": ""
        },
        "spellType": {
            "value": "save"
        },
        "sustained": {
            "value": false
        },
        "target": {
            "value": ""
        },
        "time": {
            "value": "2"
        },
        "traditions": {
            "custom": "",
            "value": [
                "arcane",
                "occult",
                "primal"
            ]
        },
        "traits": {
            "custom": "",
            "rarity": {
                "value": "common"
            },
            "value": [
                "aura",
                "emotion",
                "incapacitation",
                "mental"
            ]
        }
    },
    "effects": [],
    "flags": {},
    "img": "systems/pf2e/icons/default-icons/spell.svg",
    "name": "Glimmer of Charm",
    "type": "spell"
}
