{
    "_id": "4j0FQ1mkidBAXuQV",
    "data": {
        "ability": {
            "value": ""
        },
        "area": {
            "areaType": "",
            "value": ""
        },
        "areasize": {
            "value": ""
        },
        "category": {
            "value": "focus"
        },
        "components": {
            "material": false,
            "somatic": true,
            "verbal": true
        },
        "cost": {
            "value": ""
        },
        "damage": {
            "value": {}
        },
        "description": {
            "value": "<p>You gain the ability to perform a specialized combat technique from the vast wealth of martial knowledge your mystery provides.</p>\n<p>When you Cast this Spell, you use the action granted by one common fighter feat. If you Cast this Spell using 2 actions, the granted action must be a single action, and if you Cast this Spell using 3 actions, you can instead choose a feat that grants a 2-action activity.</p>\n<p>The chosen feat's level can be no higher than heroic feat's spell level. The feat can't have a Frequency entry, and you must meet its prerequisites and requirements in order to select it.</p>"
        },
        "duration": {
            "value": ""
        },
        "hasCounteractCheck": {
            "value": false
        },
        "level": {
            "value": 6
        },
        "location": {
            "value": ""
        },
        "materials": {
            "value": ""
        },
        "prepared": {
            "value": ""
        },
        "primarycheck": {
            "value": ""
        },
        "range": {
            "value": ""
        },
        "rules": [],
        "save": {
            "basic": "",
            "value": ""
        },
        "school": {
            "value": "divination"
        },
        "secondarycasters": {
            "value": ""
        },
        "secondarycheck": {
            "value": ""
        },
        "source": {
            "value": ""
        },
        "spellType": {
            "value": "utility"
        },
        "sustained": {
            "value": false
        },
        "target": {
            "value": ""
        },
        "time": {
            "value": "2 or 3"
        },
        "traditions": {
            "custom": "",
            "value": []
        },
        "traits": {
            "custom": "",
            "rarity": {
                "value": "common"
            },
            "value": [
                "mental",
                "oracle"
            ]
        }
    },
    "effects": [],
    "flags": {},
    "img": "systems/pf2e/icons/spells/heroic-feat.webp",
    "name": "Heroic Feat",
    "type": "spell"
}
