{
    "_id": "a8xXWCQhIR7o6IvP",
    "data": {
        "ability": {
            "value": ""
        },
        "area": {
            "areaType": "",
            "value": ""
        },
        "autoHeightenLevel": {
            "value": null
        },
        "category": {
            "value": "spell"
        },
        "components": {
            "focus": false,
            "material": true,
            "somatic": true,
            "verbal": true
        },
        "cost": {
            "value": ""
        },
        "damage": {
            "value": {}
        },
        "description": {
            "value": "<p>You create a transparent invisible wall that makes any creatures on one side of the wall invisible to those on the other side. You choose which side of the wall provides invisibility to the creatures on that side when you cast the spell. You create either a 1-inch-thick wall in a straight line up to 60 feet long and 10 feet high or a 1-inch‑thick, 10-foot-radius ring with the same height. The wall is intangible and stands vertically in either of the two forms. If you wish to do so, you can create the wall with a shorter length or height, or with a smaller radius. Any creature that crosses the wall becomes visible or invisible as appropriate, and it's visible if any portion of it is on the visible side of the wall. If a creature rendered invisible by the wall takes a hostile action, the spell ends after the hostile action is completed.</p>\n<hr />\n<p><strong>Heightened (7th)</strong> The spell doesn't end if an invisible creature takes a hostile action.</p>"
        },
        "duration": {
            "value": "sustained"
        },
        "hasCounteractCheck": {
            "value": false
        },
        "level": {
            "value": 4
        },
        "location": {
            "value": ""
        },
        "materials": {
            "value": ""
        },
        "range": {
            "value": "120 feet"
        },
        "rules": [],
        "save": {
            "basic": "",
            "value": ""
        },
        "school": {
            "value": "illusion"
        },
        "source": {
            "value": ""
        },
        "spellType": {
            "value": "utility"
        },
        "sustained": {
            "value": false
        },
        "target": {
            "value": ""
        },
        "time": {
            "value": "3"
        },
        "traditions": {
            "custom": "",
            "value": [
                "arcane",
                "occult"
            ]
        },
        "traits": {
            "custom": "",
            "rarity": {
                "value": "common"
            },
            "value": []
        }
    },
    "effects": [],
    "flags": {},
    "img": "systems/pf2e/icons/default-icons/spell.svg",
    "name": "Invisibility Curtain",
    "type": "spell"
}
