{
    "_id": "pt3gEnzA159uHcJC",
    "data": {
        "ability": {
            "value": ""
        },
        "area": {
            "value": ""
        },
        "areasize": {
            "value": "120-foot emanation"
        },
        "category": {
            "value": "spell"
        },
        "components": {
            "material": true,
            "somatic": true,
            "verbal": true
        },
        "cost": {
            "value": ""
        },
        "damage": {
            "value": {}
        },
        "description": {
            "value": "<p>You create eight invisible, floating eyes, each about 3 inches in diameter, that scan the area around you, transmitting rough impressions of the environment. The eyes constantly examine and send you summaries of their findings. They are solid and can't move through barriers, and they don't follow routes that they fail to find while Searching. Any damage to an eye destroys it. When all eyes are destroyed, the spell ends.</p>\n<p>As a single action, which has the concentrate trait, you can concentrate on a location within the area that an eye can reach. An eye travels to that location, and you Seek visually as if you were there. As an exploration activity, you can travel at half speed while continuing to concentrate on the eyes to gain the benefits of both the Scout and Search activities. With the eyes, you can check everything even if you are traveling faster than 300 feet per minute. The eyes use your Perception modifier. You can have only one prying survey in effect at a time.</p>\n<hr />\n<p><strong>Heightened (10th)</strong> The area increases to a 500-foot emanation.</p>"
        },
        "duration": {
            "value": "1 hour"
        },
        "hasCounteractCheck": {
            "value": false
        },
        "level": {
            "value": 8
        },
        "location": {
            "value": "Vz29XsR9yz4BEMgr"
        },
        "materials": {
            "value": ""
        },
        "prepared": {
            "value": ""
        },
        "primarycheck": {
            "value": ""
        },
        "range": {
            "value": ""
        },
        "rules": [],
        "save": {
            "basic": "",
            "value": ""
        },
        "school": {
            "value": "divination"
        },
        "secondarycasters": {
            "value": ""
        },
        "secondarycheck": {
            "value": ""
        },
        "source": {
            "value": ""
        },
        "spellType": {
            "value": "utility"
        },
        "sustained": {
            "value": false
        },
        "target": {
            "value": ""
        },
        "time": {
            "value": "1 minute"
        },
        "traditions": {
            "custom": "",
            "value": [
                "arcane",
                "occult"
            ]
        },
        "traits": {
            "custom": "",
            "rarity": {
                "value": "uncommon"
            },
            "value": [
                "scrying"
            ]
        }
    },
    "effects": [],
    "flags": {},
    "img": "systems/pf2e/icons/spells/prying-survey.webp",
    "name": "Prying Survey",
    "type": "spell"
}
