{
    "_id": "buhP7vfetUxQJlIJ",
    "data": {
        "ability": {
            "value": ""
        },
        "area": {
            "areaType": "",
            "value": ""
        },
        "autoHeightenLevel": {
            "value": null
        },
        "category": {
            "value": "spell"
        },
        "components": {
            "focus": false,
            "material": true,
            "somatic": true,
            "verbal": true
        },
        "cost": {
            "value": ""
        },
        "damage": {
            "value": {}
        },
        "description": {
            "value": "<p>You permanently change the appearance of one piece of clothing currently worn by you or an ally to better fit your aesthetic sensibilities. You can change its color, texture, pattern, and other minor parts of its design, but the changes can't alter the clothing's overall shape, size, or purpose. The changes can't increase the quality of the craftsmanship or artistry of the piece of clothing, but particularly gauche choices for the new color and pattern might decrease its aesthetic appeal. This spell transforms existing materials into the desired appearance and never alters the material or creates more material than what's originally part of the object. The object's statistics also remain unchanged.</p>"
        },
        "duration": {
            "value": "unlimited"
        },
        "hasCounteractCheck": {
            "value": false
        },
        "level": {
            "value": 1
        },
        "location": {
            "value": ""
        },
        "materials": {
            "value": ""
        },
        "range": {
            "value": "touch"
        },
        "rules": [],
        "save": {
            "basic": "",
            "value": ""
        },
        "school": {
            "value": "transmutation"
        },
        "source": {
            "value": ""
        },
        "spellType": {
            "value": "utility"
        },
        "sustained": {
            "value": false
        },
        "target": {
            "value": "1 piece of clothing currently worn by you or an ally"
        },
        "time": {
            "value": "1 minute"
        },
        "traditions": {
            "custom": "",
            "value": [
                "arcane",
                "divine",
                "occult",
                "primal"
            ]
        },
        "traits": {
            "custom": "",
            "rarity": {
                "value": "common"
            },
            "value": []
        }
    },
    "effects": [],
    "flags": {},
    "img": "systems/pf2e/icons/default-icons/spell.svg",
    "name": "Restyle",
    "type": "spell"
}
