{
    "_id": "5zeSxzDxMSr0wgSF",
    "data": {
        "ability": {
            "value": ""
        },
        "area": {
            "areaType": "burst",
            "value": "10"
        },
        "autoHeightenLevel": {
            "value": null
        },
        "category": {
            "value": "spell"
        },
        "components": {
            "focus": false,
            "material": false,
            "somatic": true,
            "verbal": true
        },
        "cost": {
            "value": ""
        },
        "damage": {
            "value": {}
        },
        "description": {
            "value": "<p>You unleash a cloud of foul, blood-sucking fog that drains the vitality from the living to bolster your own. Each living creature in the area when you Cast the Spell, aside from you, takes 6d6 negative damage with a basic Fortitude save. Creatures in the area are @Compendium[pf2e.conditionitems.Concealed]{Concealed}, and all creatures outside the cloud become concealed to creatures within it.</p>\n<p>The first time each round you Sustain this Spell on subsequent turns, living creatures in the area take an additional [[/r 2d6 #negative]]{2d6 negative damage} with another <span data-pf2-check=\"fortitude\" data-pf2-traits=\"death,necromancy,negative\" data-pf2-label=\"Sanguine Mist DC\" data-pf2-show-dc=\"gm\">basic Fortitude</span> save. You also gain temporary Hit Points equal to half the damage a single creature took when you Sustained the spell this turn; calculate these temporary Hit Points using the creature that took the most damage. You lose any remaining temporary Hit Points after 1 minute.</p>\n<hr />\n<p><strong>Heightened (+1)</strong> The initial damage increases by 2d6 and the secondary damage increases by [[/r 1d6]].</p>"
        },
        "duration": {
            "value": ""
        },
        "hasCounteractCheck": {
            "value": false
        },
        "level": {
            "value": 4
        },
        "location": {
            "value": ""
        },
        "materials": {
            "value": ""
        },
        "range": {
            "value": "60 feet"
        },
        "rules": [],
        "save": {
            "basic": "basic",
            "value": "fortitude"
        },
        "scaling": {
            "damage": {
                "0": "2d6"
            },
            "interval": 1
        },
        "school": {
            "value": "necromancy"
        },
        "source": {
            "value": ""
        },
        "spellType": {
            "value": "save"
        },
        "sustained": {
            "value": false
        },
        "target": {
            "value": ""
        },
        "time": {
            "value": "2"
        },
        "traditions": {
            "custom": "",
            "value": [
                "arcane",
                "divine",
                "occult"
            ]
        },
        "traits": {
            "custom": "",
            "rarity": {
                "value": "common"
            },
            "value": [
                "death",
                "negative"
            ]
        }
    },
    "effects": [],
    "flags": {},
    "img": "systems/pf2e/icons/default-icons/spell.svg",
    "name": "Sanguine Mist",
    "type": "spell"
}
