{
    "_id": "hvKtmoHwekDZ5iOH",
    "data": {
        "ability": {
            "value": ""
        },
        "area": {
            "areaType": "burst",
            "value": "50"
        },
        "autoHeightenLevel": {
            "value": null
        },
        "category": {
            "value": "spell"
        },
        "components": {
            "focus": false,
            "material": true,
            "somatic": true,
            "verbal": true
        },
        "cost": {
            "value": ""
        },
        "damage": {
            "value": {}
        },
        "description": {
            "value": "<p>You create dozens of semi-real copies of yourself that swarm across the battlefield and fight your enemies. You are virtually indistinguishable from your clones, allowing you to Hide and Sneak among them. An enemy that's in the area when the spell is cast or that ends its turn in the area takes [[/r 3d10 #mental]]{3d10 mental damage} and [[/r 3d10 #bludgeoning]]{3d10 bludgeoning damage}, and is possibly inflicted with a condition, depending on the result of its Will save. When you Cast the Spell, you choose a condition your shadows impose on a failed save: @Compendium[pf2e.conditionitems.Clumsy]{Clumsy 2}, @Compendium[pf2e.conditionitems.Enfeebled]{Enfeebled 2}, @Compendium[pf2e.conditionitems.Flat-Footed]{Flat-Footed}, or @Compendium[pf2e.conditionitems.Slowed]{Slowed 1}.</p>\n<hr />\n<p><strong>Critical Success</strong> The creature takes no damage. For the duration of the spell, the creature gets a result one step better than it rolled on further saves against the spell, and can distinguish you from your clones without difficulty.</p>\n<p><strong>Success</strong> The creature takes half damage.</p>\n<p><strong>Failure</strong> The creature takes full damage, and gains the chosen condition.</p>\n<p><strong>Critical Failure</strong> The creature takes double damage, and gains the chosen condition.</p>"
        },
        "duration": {
            "value": "1 minute"
        },
        "hasCounteractCheck": {
            "value": false
        },
        "level": {
            "value": 10
        },
        "location": {
            "value": ""
        },
        "materials": {
            "value": ""
        },
        "range": {
            "value": ""
        },
        "rules": [],
        "save": {
            "basic": "",
            "value": "will"
        },
        "school": {
            "value": "illusion"
        },
        "source": {
            "value": ""
        },
        "spellType": {
            "value": "save"
        },
        "sustained": {
            "value": false
        },
        "target": {
            "value": ""
        },
        "time": {
            "value": "3"
        },
        "traditions": {
            "custom": "",
            "value": [
                "arcane",
                "occult"
            ]
        },
        "traits": {
            "custom": "",
            "rarity": {
                "value": "common"
            },
            "value": [
                "auditory",
                "mental",
                "shadow",
                "visual"
            ]
        }
    },
    "effects": [],
    "flags": {},
    "img": "systems/pf2e/icons/default-icons/spell.svg",
    "name": "Shadow Army",
    "type": "spell"
}
