{
    "_id": "fH08MI4KP0KH2EQ9",
    "data": {
        "ability": {
            "value": ""
        },
        "area": {
            "areaType": "",
            "value": ""
        },
        "autoHeightenLevel": {
            "value": null
        },
        "category": {
            "value": "spell"
        },
        "components": {
            "focus": false,
            "material": true,
            "somatic": true,
            "verbal": true
        },
        "cost": {
            "value": ""
        },
        "damage": {
            "value": {}
        },
        "description": {
            "value": "<p>Steam wisps into the air as a stone-lined pool appears in the ground and fills with hot water that bubbles up from the earth. The water is comfortably hot and smells mildly sulfurous in a not-unpleasant way. You are able to draw out the full energizing potential of the mineral-rich water. Any creature that spends the full hour soaking in the hot spring or basking in the mud from the bottom of the pit regains 10d8 Hit Points and feels refreshed, losing the fatigued condition. As normal for effects that remove fatigue, this doesn't remove any underlying source of fatigue, such as lack of sleep, causing the condition to return if the underlying source isn't addressed.</p>\n<p>The pool is 20 feet on each side, and it's 5 feet deep. It can contain 16 Medium or smaller creatures at a time. A Large creature counts as eight Medium creatures and a Huge creature fills the entire pool. This pool has the structure trait and the same restrictions as magic items that create structures.</p>\n<hr />\n<p><strong>Heightened (+1)</strong> The healing increases by 2d8.</p>"
        },
        "duration": {
            "value": "1 hour"
        },
        "hasCounteractCheck": {
            "value": false
        },
        "level": {
            "value": 4
        },
        "location": {
            "value": ""
        },
        "materials": {
            "value": ""
        },
        "range": {
            "value": "30 feet"
        },
        "rules": [],
        "save": {
            "basic": "",
            "value": ""
        },
        "scaling": {
            "damage": {
                "0": "2d8"
            },
            "interval": 1
        },
        "school": {
            "value": "necromancy"
        },
        "source": {
            "value": ""
        },
        "spellType": {
            "value": "heal"
        },
        "sustained": {
            "value": false
        },
        "target": {
            "value": ""
        },
        "time": {
            "value": "1 minute"
        },
        "traditions": {
            "custom": "",
            "value": [
                "divine",
                "primal"
            ]
        },
        "traits": {
            "custom": "",
            "rarity": {
                "value": "common"
            },
            "value": [
                "healing",
                "positive",
                "water"
            ]
        }
    },
    "effects": [],
    "flags": {},
    "img": "systems/pf2e/icons/default-icons/spell.svg",
    "name": "Soothing Spring",
    "type": "spell"
}
