{
    "_id": "8Umt1AzYfFbC4fui",
    "data": {
        "ability": {
            "value": ""
        },
        "area": {
            "areaType": "",
            "value": null
        },
        "areasize": {
            "value": ""
        },
        "category": {
            "value": "spell"
        },
        "components": {
            "material": false,
            "somatic": true,
            "verbal": true
        },
        "cost": {
            "value": ""
        },
        "damage": {
            "value": {}
        },
        "description": {
            "value": "<p>You cause any spells cast on the target to spill out their energy in harmful surges. The target must attempt a Will save.</p>\n<hr />\n<p><strong>Critical Success</strong> The target is unaffected.</p>\n<p><strong>Success</strong> Whenever the target becomes affected by a spell with a duration, the target takes [[/r 2d12 #persistent force]] @Compendium[pf2e.conditionitems.Persistent Damage]{Persistent Force Damage}. Each time it takes persistent force damage from spellwrack, it reduces the remaining duration of spells affecting it by 1 round. Only a successful Arcana check against your spell DC can help the target recover from the @Compendium[pf2e.conditionitems.Persistent Damage]{Persistent Damage}; the curse and the Persistent Damage end after 1 minute.</p>\n<p><strong>Failure</strong> As success, but the curse and Persistent Damage do not end on their own.</p>\n<p><strong>Critical Failure</strong> As failure, but the persistent force damage is [[/r 4d12 #persistent force]] @Compendium[pf2e.conditionitems.Persistent Damage]{Persistent Force Damage}.</p>"
        },
        "duration": {
            "value": ""
        },
        "hasCounteractCheck": {
            "value": false
        },
        "level": {
            "value": 6
        },
        "location": {
            "value": ""
        },
        "materials": {
            "value": ""
        },
        "prepared": {
            "value": ""
        },
        "primarycheck": {
            "value": ""
        },
        "range": {
            "value": "30 feet"
        },
        "rules": [],
        "save": {
            "basic": "",
            "value": "will"
        },
        "school": {
            "value": "abjuration"
        },
        "secondarycasters": {
            "value": ""
        },
        "secondarycheck": {
            "value": ""
        },
        "source": {
            "value": ""
        },
        "spellType": {
            "value": "save"
        },
        "sustained": {
            "value": false
        },
        "target": {
            "value": "1 creature"
        },
        "time": {
            "value": "2"
        },
        "traditions": {
            "value": [
                "arcane",
                "divine",
                "occult"
            ]
        },
        "traits": {
            "custom": "",
            "rarity": {
                "value": "common"
            },
            "value": [
                "curse",
                "force"
            ]
        }
    },
    "effects": [],
    "flags": {},
    "img": "systems/pf2e/icons/spells/spellwrack.webp",
    "name": "Spellwrack",
    "type": "spell"
}
