{
    "_id": "FmNDwqMEjeTEGPrY",
    "data": {
        "ability": {
            "value": ""
        },
        "area": {
            "areaType": "",
            "value": ""
        },
        "areasize": {
            "value": ""
        },
        "category": {
            "value": "spell"
        },
        "components": {
            "material": false,
            "somatic": true,
            "verbal": true
        },
        "cost": {
            "value": ""
        },
        "damage": {
            "value": {}
        },
        "description": {
            "value": "<p>Fleeting notes of a strange and unnatural song fill the air, overtaking the mind. Each target must attempt a Will save when you cast the spell, and again the first time you Sustain this Spell each round. A creature needs to attempt only one save against the song each round, and you have to keep the same targets when you Sustain the Spell.</p>\n<hr />\n<p><strong>Critical Success</strong> The target is unaffected, can't be affected on subsequent rounds, and is temporarily immune for 1 minute.</p>\n<p><strong>Success</strong> The target is unaffected this round, but it can be affected on subsequent rounds.</p>\n<p><strong>Failure</strong> Roll 1d4 on the table below.</p>\n<p><strong>Critical Failure</strong> Roll 1d4+1 on the table below.</p>\n<table class=\"pf2-table\">\n<thead>\n<tr>\n<th>Result</th>\n<th>Effect</th>\n</tr>\n</thead>\n<tbody>\n<tr>\n<td>1</td>\n<td>The target is @Compendium[pf2e.conditionitems.Frightened]{Frightened 2}</td>\n</tr>\n<tr>\n<td>2</td>\n<td>The target is @Compendium[pf2e.conditionitems.Confused]{Confused} for 1 round</td>\n</tr>\n<tr>\n<td>3</td>\n<td>The target is @Compendium[pf2e.conditionitems.Stupefied]{Stupefied 4} for 1 round</td>\n</tr>\n<tr>\n<td>4</td>\n<td>The target is @Compendium[pf2e.conditionitems.Blinded]{Blinded} for 1 round</td>\n</tr>\n<tr>\n<td>5</td>\n<td>The target is @Compendium[pf2e.conditionitems.Stunned]{Stunned} for 1 round and @Compendium[pf2e.conditionitems.Stupefied]{Stupefied 1} for an unlimited duration</td>\n</tr>\n</tbody>\n</table>"
        },
        "duration": {
            "value": "sustained up to 1 minute"
        },
        "hasCounteractCheck": {
            "value": false
        },
        "level": {
            "value": 9
        },
        "location": {
            "value": ""
        },
        "materials": {
            "value": ""
        },
        "prepared": {
            "value": ""
        },
        "primarycheck": {
            "value": ""
        },
        "range": {
            "value": "120 feet"
        },
        "rules": [],
        "save": {
            "basic": "",
            "value": "will"
        },
        "school": {
            "value": "enchantment"
        },
        "secondarycasters": {
            "value": ""
        },
        "secondarycheck": {
            "value": ""
        },
        "source": {
            "value": ""
        },
        "spellType": {
            "value": "save"
        },
        "sustained": {
            "value": false
        },
        "target": {
            "value": "up to 5 creatures"
        },
        "time": {
            "value": "2"
        },
        "traditions": {
            "value": [
                "occult"
            ]
        },
        "traits": {
            "custom": "",
            "rarity": {
                "value": "common"
            },
            "value": [
                "auditory",
                "emotion",
                "fear",
                "incapacitation",
                "mental"
            ]
        }
    },
    "effects": [],
    "flags": {},
    "img": "systems/pf2e/icons/spells/unfathomable-song.webp",
    "name": "Unfathomable Song",
    "type": "spell"
}
