{
    "_id": "CIjj9CU5ekeq1oLT",
    "data": {
        "ability": {
            "value": ""
        },
        "area": {
            "areaType": "",
            "value": ""
        },
        "autoHeightenLevel": {
            "value": null
        },
        "category": {
            "value": "spell"
        },
        "components": {
            "focus": false,
            "material": false,
            "somatic": true,
            "verbal": true
        },
        "cost": {
            "value": ""
        },
        "damage": {
            "value": {}
        },
        "description": {
            "value": "<p>You channel a magical ward through your attack and attempt to plant it on a foe. This ward increases your defenses against that foe, as long as you keep attacking that foe to maintain it. Make a melee Strike with a weapon or unarmed attack against a foe. In addition to the normal effects of the Strike, it has the effects below. Warding aggression ends if the foe you attacked dies or at the end of any turn in which you didn't hit that foe with a melee Strike.</p>\n<p>@Compendium[pf2e.spell-effects.Spell Effect: Warding Aggression (+3)]{Spell Effect: Warding Aggression (+3)}</p>\n<p>@Compendium[pf2e.spell-effects.Spell Effect: Warding Aggression (+2)]{Spell Effect: Warding Aggression (+2)}</p>\n<p>@Compendium[pf2e.spell-effects.Spell Effect: Warding Aggression (+1)]{Spell Effect: Warding Aggression (+1)}</p>\n<hr />\n<p><strong>Critical Success</strong> You gain a +3 status bonus to AC against the foe for 1 round and a +2 status bonus to AC against the foe for the remaining duration.</p>\n<p><strong>Success</strong> You gain a +2 status bonus to AC against the foe.</p>\n<p><strong>Failure</strong> You gain a +1 status bonus to AC against the foe.</p>\n<p><strong>Critical Failure</strong> You gain no additional effect.</p>"
        },
        "duration": {
            "value": "up to 1 minute"
        },
        "hasCounteractCheck": {
            "value": false
        },
        "level": {
            "value": 3
        },
        "location": {
            "value": ""
        },
        "materials": {
            "value": ""
        },
        "range": {
            "value": ""
        },
        "rules": [],
        "save": {
            "basic": "",
            "value": ""
        },
        "school": {
            "value": "abjuration"
        },
        "source": {
            "value": ""
        },
        "spellType": {
            "value": "utility"
        },
        "sustained": {
            "value": false
        },
        "target": {
            "value": ""
        },
        "time": {
            "value": "2"
        },
        "traditions": {
            "custom": "",
            "value": [
                "arcane",
                "divine",
                "primal"
            ]
        },
        "traits": {
            "custom": "",
            "rarity": {
                "value": "common"
            },
            "value": []
        }
    },
    "effects": [],
    "flags": {},
    "img": "systems/pf2e/icons/default-icons/spell.svg",
    "name": "Warding Aggression",
    "type": "spell"
}
