{
    "_id": "8TBgEzjZxPaOJOm1",
    "data": {
        "ability": {
            "value": ""
        },
        "area": {
            "areaType": "emanation",
            "value": "5"
        },
        "autoHeightenLevel": {
            "value": null
        },
        "category": {
            "value": "focus"
        },
        "components": {
            "material": false,
            "somatic": true,
            "verbal": true
        },
        "cost": {
            "value": ""
        },
        "damage": {
            "value": {
                "0": {
                    "type": {
                        "categories": [],
                        "value": "electricity"
                    },
                    "value": "2d12"
                }
            }
        },
        "description": {
            "value": "<p>You unleash your ki as a powerful storm of force and lightning, dealing [[/r 2d6 #force]]{2d6 force damage} and [[/r 2d12 #electricity]]{2d12 electricity damage} to creatures in the area. If you use 2 actions to cast the spell, increase the size of the emanation to 10 feet and the damage to [[/r 3d6 #force]]{3d6 force damage} and [[/r 3d12 #electricity]]{3d12 electricity damage}. If you use 3 actions to cast the spell, increase the size of the emanation to 20 feet and the damage to [[/r 4d6 #force]]{4d6 force damage} and [[/r 4d12 #electricity]]{4d12 electricity damage}. Each creature attempts one basic Reflex save that applies to both types of damage On a failed save, the creature is @Compendium[pf2e.conditionitems.Deafened]{Deafened} for 1 round; on a critical failure, the creature also takes [[/r 2d12 #persistent electricity]] @Compendium[pf2e.conditionitems.Persistent Damage]{Persistent Electricity Damage} and is deafened for 1 minute.</p>\n<hr />\n<p><strong>Heightened (+2)</strong> The force damage increases by [[/r 1d6]] and the electricity damage by [[/r 1d12]], or [[/r 2d6]] and [[/r 2d12]] if you use 2 or 3 actions</p>"
        },
        "duration": {
            "value": ""
        },
        "hasCounteractCheck": {
            "value": false
        },
        "level": {
            "value": 5
        },
        "location": {
            "value": ""
        },
        "materials": {
            "value": ""
        },
        "prepared": {
            "value": ""
        },
        "range": {
            "value": ""
        },
        "rules": [],
        "save": {
            "basic": "basic",
            "value": "reflex"
        },
        "scaling": {
            "damage": {
                "0": "1d12"
            },
            "interval": 2
        },
        "school": {
            "value": "evocation"
        },
        "source": {
            "value": ""
        },
        "spellType": {
            "value": "attack"
        },
        "sustained": {
            "value": false
        },
        "target": {
            "value": ""
        },
        "time": {
            "value": "1"
        },
        "traditions": {
            "value": []
        },
        "traits": {
            "custom": "",
            "rarity": {
                "value": "uncommon"
            },
            "value": [
                "electricity",
                "force",
                "monk"
            ]
        }
    },
    "effects": [],
    "flags": {},
    "img": "systems/pf2e/icons/default-icons/spell.svg",
    "name": "Wronged Monk's Wrath",
    "type": "spell"
}
