{
    "_id": "iY2CCqoMc2bRdoas",
    "data": {
        "actionCategory": {
            "value": ""
        },
        "actionType": {
            "value": "passive"
        },
        "actions": {
            "value": null
        },
        "description": {
            "value": "<p>You were created through occult or alchemical processes, such as being grown in a vat or stitched together from the body parts of other creatures by a scientist in Ustalav. Your manufactured body is durable; you don't need to eat and can't starve. You gain a +2 circumstance bonus to saving throws against diseases.</p>"
        },
        "featType": {
            "value": "heritage"
        },
        "level": {
            "value": 1
        },
        "location": "",
        "prerequisites": {
            "value": []
        },
        "rules": [],
        "source": {
            "value": ""
        },
        "traits": {
            "custom": "",
            "rarity": {
                "value": "common"
            },
            "value": [
                "fleshwarp"
            ]
        }
    },
    "effects": [],
    "flags": {},
    "img": "systems/pf2e/icons/default-icons/feat.svg",
    "name": "Created Fleshwarp",
    "type": "feat"
}
