{
    "_id": "MQx7miBXUmOHycqJ",
    "data": {
        "actionCategory": {
            "value": ""
        },
        "actionType": {
            "value": "passive"
        },
        "actions": {
            "value": null
        },
        "description": {
            "value": "<p>Your body is adapted to endure physical hardships or perform hard labor for long periods of time. You become trained in Athletics (or another skill if you're already trained in Athletics), and you gain the @Compendium[pf2e.feats-srd.Hefty Hauler]{Hefty Hauler} skill feat.</p>"
        },
        "featType": {
            "value": "heritage"
        },
        "level": {
            "value": 1
        },
        "location": "",
        "prerequisites": {
            "value": []
        },
        "rules": [
            {
                "key": "ActiveEffectLike",
                "mode": "upgrade",
                "path": "data.skills.ath.rank",
                "value": 1
            }
        ],
        "source": {
            "value": ""
        },
        "traits": {
            "custom": "",
            "rarity": {
                "value": "common"
            },
            "value": [
                "android"
            ]
        }
    },
    "effects": [],
    "flags": {},
    "img": "systems/pf2e/icons/default-icons/feat.svg",
    "name": "Laborer Android",
    "type": "feat"
}
