{
    "_id": "yVtcyAbLmWCIHHZi",
    "data": {
        "actionCategory": {
            "value": "interaction"
        },
        "actionType": {
            "value": "passive"
        },
        "actions": {
            "value": null
        },
        "description": {
            "value": "<p>Your exoskeleton remains connected with the plants that created it. You can ignore difficult terrain and uneven ground caused by undergrowth. In addition, when you use the Acrobatics skill to Balance on narrow surfaces or uneven ground within forests, you aren't flat-footed. When you roll a success attempting one of these Acrobatics checks, you get a critical success instead.</p>"
        },
        "featType": {
            "value": "heritage"
        },
        "level": {
            "value": 1
        },
        "location": "",
        "prerequisites": {
            "value": []
        },
        "rules": [],
        "source": {
            "value": ""
        },
        "traits": {
            "custom": "",
            "rarity": {
                "value": "common"
            },
            "value": [
                "conrasu",
                "heritage"
            ]
        }
    },
    "effects": [],
    "flags": {},
    "img": "systems/pf2e/icons/default-icons/feat.svg",
    "name": "Rite of Passage",
    "type": "feat"
}
