{
    "_id": "MhXHEh7utEfxBwmc",
    "data": {
        "actionCategory": {
            "value": ""
        },
        "actionType": {
            "value": "passive"
        },
        "actions": {
            "value": null
        },
        "description": {
            "value": "<p>You are a rare shoony who hails from colder climes. You gain cold resistance equal to half your level (minimum 1), and you treat environmental cold effects as if they were one step less extreme (incredible cold becomes extreme, extreme cold becomes severe, and so on). You don't need to succeed at a flat check to target a concealed creature if that creature is @Compendium[pf2e.conditionitems.Concealed]{Concealed} only by snow. Unless you wear protective gear or take shelter, environmental heat effects are one step more extreme for you.</p>"
        },
        "featType": {
            "value": "heritage"
        },
        "level": {
            "value": 1
        },
        "location": "",
        "prerequisites": {
            "value": []
        },
        "rules": [],
        "source": {
            "value": "Pathfinder #153: Life's Long Shadows"
        },
        "traits": {
            "custom": "",
            "rarity": {
                "value": "common"
            },
            "value": [
                "shoony"
            ]
        }
    },
    "effects": [],
    "flags": {},
    "img": "systems/pf2e/icons/features/ancestry/thickcoat-shoony.webp",
    "name": "Thickcoat Shoony",
    "type": "feat"
}
