{
    "_id": "ViKRoVgog172r163",
    "data": {
        "actionCategory": {
            "value": ""
        },
        "actionType": {
            "value": "passive"
        },
        "actions": {
            "value": null
        },
        "description": {
            "value": "<p>You have an incredibly strong connection to the positive energy that flows through the First World, making it harder to attack your life force with negative energy. You gain negative resistance equal to half your level (minimum 1). When you have the @Compendium[pf2e.conditionitems.Doomed]{Doomed} condition, the condition affects you as if its value was 1 lower than it actually is (doomed 1 has no effect, doomed 2 causes you to die at @Compendium[pf2e.conditionitems.Dying]{Dying 3}, and so on).</p>"
        },
        "featType": {
            "value": "heritage"
        },
        "level": {
            "value": 1
        },
        "location": "",
        "prerequisites": {
            "value": []
        },
        "rules": [],
        "source": {
            "value": ""
        },
        "traits": {
            "custom": "",
            "rarity": {
                "value": "common"
            },
            "value": [
                "gnome"
            ]
        }
    },
    "effects": [],
    "flags": {},
    "img": "systems/pf2e/icons/features/ancestry/vivacious-gnome.webp",
    "name": "Vivacious Gnome",
    "type": "feat"
}
