{
    "_id": "WV4J7NMgKXNlXonW",
    "data": {
        "actionCategory": {
            "value": ""
        },
        "actionType": {
            "value": "passive"
        },
        "actions": {
            "value": null
        },
        "description": {
            "value": "<p>You have access to the following monsters to summon with the appropriate summoning spells: blood boar, kalavakus, osyluth, and rusalka.</p>"
        },
        "featType": {
            "value": "pfsboon"
        },
        "identified": {
            "value": true
        },
        "level": {
            "value": 0
        },
        "prerequisites": {
            "value": []
        },
        "rules": [],
        "source": {
            "value": ""
        },
        "traits": {
            "custom": "",
            "rarity": {
                "value": "common"
            },
            "selected": {},
            "value": []
        }
    },
    "effects": [],
    "flags": {},
    "img": "systems/pf2e/icons/default-icons/mystery-man.webp",
    "name": "AoA #147: Boon B - Expanded Summoning",
    "type": "feat"
}
