{
    "_id": "DWcmLzzT1eYk76c7",
    "data": {
        "actionCategory": {
            "value": ""
        },
        "actionType": {
            "value": "passive"
        },
        "actions": {
            "value": null
        },
        "description": {
            "value": "<p>The Ekujae you met during your travels taught you of the creatures that roam the Mwangi Expanse. You have access to the following creatures for the purposes of appropriate summoning spells: biloko warrior, biloko veteran, eloko, and kishi</p>"
        },
        "featType": {
            "value": "pfsboon"
        },
        "identified": {
            "value": true
        },
        "level": {
            "value": 0
        },
        "prerequisites": {
            "value": []
        },
        "rules": [],
        "source": {
            "value": ""
        },
        "traits": {
            "custom": "",
            "rarity": {
                "value": "common"
            },
            "selected": {},
            "value": []
        }
    },
    "effects": [],
    "flags": {},
    "img": "systems/pf2e/icons/default-icons/mystery-man.webp",
    "name": "AoA #146: Mwangi Summoner",
    "type": "feat"
}
