{
    "_id": "632pDmCtbQxBlE3d",
    "data": {
        "actionCategory": {
            "value": ""
        },
        "actionType": {
            "value": "reaction"
        },
        "actions": {
            "value": null
        },
        "description": {
            "value": "<p><strong>[Untyped][Limited Use]</strong> □□□</p>\n<p>Your experiences with the Mosquito Witch have inspired you to research strange creatures. When you Recall Knowledge to identify a rare or unique creature, you can use the following reaction.</p>\n<p><strong>Trigger</strong>: You attempt to Recall Knowledge to identify a creature you can see.</p>\n<p><strong>Effect</strong>: (Fortune) You roll the skill check twice and use the better result.</p>"
        },
        "featType": {
            "value": "pfsboon"
        },
        "level": {
            "value": 0
        },
        "prerequisites": {
            "value": []
        },
        "rules": [],
        "source": {
            "value": ""
        },
        "traits": {
            "custom": "",
            "rarity": {
                "value": "common"
            },
            "selected": {},
            "value": []
        }
    },
    "effects": [],
    "flags": {},
    "img": "systems/pf2e/icons/default-icons/mystery-man.webp",
    "name": "S1-02 - Cryptid Scholar",
    "type": "feat"
}
