{
    "_id": "Yix76sfxrIlltSTJ",
    "data": {
        "abilityBoostLevels": {
            "value": [
                5,
                10,
                15,
                20
            ]
        },
        "ancestryFeatLevels": {
            "value": [
                1,
                5,
                9,
                13,
                17
            ]
        },
        "attacks": {
            "advanced": 0,
            "martial": 1,
            "other": {
                "name": "",
                "rank": 0
            },
            "simple": 1,
            "unarmed": 1
        },
        "classDC": 1,
        "classFeatLevels": {
            "value": [
                1,
                2,
                4,
                6,
                8,
                10,
                12,
                14,
                16,
                18,
                20
            ]
        },
        "defenses": {
            "heavy": 0,
            "light": 1,
            "medium": 1,
            "unarmored": 1
        },
        "description": {
            "value": "<p><em>Some rangers believe civilization wears down the soul, but still needs to be protected from wild creatures. Others say nature needs to be protected from the greedy, who wish to tame its beauty and plunder its treasures. You could champion either goal, or both. You might be a scout, tracker, or hunter of fugitives or beasts, haunting the edge of civilization or exploring the wilds. You know how to live off the land and are skilled at spotting and taking down both opportune prey and hated enemies.</em><br /><br /><strong>Key Ability: STRENGTH OR DEXTERITY</strong><br />At 1st level, your class gives you an ability boost to your choice of Strength or Dexterity.<br /><br /><strong>Hit Points: 10 plus your Constitution modifier</strong><br />You increase your maximum number of HP by this number at 1st level and every level thereafter.</p>\n<h1>Roleplaying the Ranger</h1>\n<h2>During Combat Encounters...</h2>\n<p>You can single out particular foes to hunt, making you better at defeating them. You target and brutalize your chosen foe with either a bow or melee weapons, while supporting your allies with your skills.</p>\n<h2>During Social Encounters...</h2>\n<p>When you speak, it's with the voice of practical experience, especially involving wilderness exploration.</p>\n<h2>While Exploring...</h2>\n<p>You guide your allies through the wilderness or follow tracks. You keep an eye out for trouble, constantly alert for danger even when it's not overt.</p>\n<h2>In Downtime...</h2>\n<p>You craft weapons and train animals in preparation for your next venture. If you prefer to get outside, you might go on hunts or scout nearby areas to better understand your environment.</p>\n<h2>You Might...</h2>\n<ul>\n<li>Respect the raw power of nature and understand how to make the best of its bounty.</li>\n<li>Enjoy the thrill of the hunt.</li>\n<li>Scout out ahead of the party, reconnoitering dangers before combat begins.</li>\n</ul>\n<h2>Others Probably...</h2>\n<ul>\n<li>Call upon you to protect them from the wilds or the encroachment of civilization.</li>\n<li>Expect you to be a quiet or taciturn loner.</li>\n<li>Think there is something dangerous and wild about you.</li>\n</ul>\n<h1>Initial Proficiencies</h1>\n<p>At 1st level, you gain the listed proficiency ranks in the following statistics. You are untrained in anything not listed unless you gain a better proficiency rank in some other way.</p>\n<h2>Perception</h2>\n<p>Expert in Perception</p>\n<h2>Saving Throws</h2>\n<p>Expert in Fortitude<br />Expert in Reflex<br />Trained in Will</p>\n<h2>Skills</h2>\n<p>Trained in Nature<br />Trained in Survival<br />Trained in a number of additional skills equal to 4 plus your Intelligence modifier</p>\n<h2>Attacks</h2>\n<p>Trained in simple weapons<br />Trained in martial weapons<br />Trained in unarmed attacks</p>\n<h2>Defenses</h2>\n<p>Trained in light armor<br />Trained in medium armor<br />Trained in unarmored defense</p>\n<h2>Class DC</h2>\n<p>Trained in ranger class DC</p>\n<h1>Class Features</h1>\n<p>You gain these features as a Ranger. Abilities gained at higher levels list the levels at which you gain them next to the features' names.</p>\n<table class=\"pf2-table\">\n<thead>\n<tr>\n<th>Your Level</th>\n<th>Class Features</th>\n</tr>\n</thead>\n<tbody>\n<tr>\n<td>1</td>\n<td>Ancestry and background, initial proficiencies, hunt prey, hunter's edge, ranger feat</td>\n</tr>\n<tr>\n<td>2</td>\n<td>Ranger feat, skill feat</td>\n</tr>\n<tr>\n<td>3</td>\n<td>General feat, iron will, skill increase</td>\n</tr>\n<tr>\n<td>4</td>\n<td>Ranger feat, skill feat</td>\n</tr>\n<tr>\n<td>5</td>\n<td>Ability boosts, ancestry feat, ranger weapon expertise, skill increase, trackless step</td>\n</tr>\n<tr>\n<td>6</td>\n<td>Ranger feat, skill feat</td>\n</tr>\n<tr>\n<td>7</td>\n<td>Evasion, general feat, skill increase, vigilant senses, weapon specialization</td>\n</tr>\n<tr>\n<td>8</td>\n<td>Ranger feat, skill feat</td>\n</tr>\n<tr>\n<td>9</td>\n<td>Ancestry feat, nature's edge, ranger expertise, skill increase</td>\n</tr>\n<tr>\n<td>10</td>\n<td>Ability boosts, ranger feat, skill feat</td>\n</tr>\n<tr>\n<td>11</td>\n<td>General feat, juggernaut, medium armor expertise, skill increase, wild stride</td>\n</tr>\n<tr>\n<td>12</td>\n<td>Ranger feat, skill feat</td>\n</tr>\n<tr>\n<td>13</td>\n<td>Ancestry feat, skill increase, weapon mastery</td>\n</tr>\n<tr>\n<td>14</td>\n<td>Ranger feat, skill feat</td>\n</tr>\n<tr>\n<td>15</td>\n<td>Ability boosts, general feat, greater weapon specialization, improved evasion, incredible senses, skill increase</td>\n</tr>\n<tr>\n<td>16</td>\n<td>Ranger feat, skill feat</td>\n</tr>\n<tr>\n<td>17</td>\n<td>Ancestry feat, masterful hunter, skill increase</td>\n</tr>\n<tr>\n<td>18</td>\n<td>Ranger feat, skill feat</td>\n</tr>\n<tr>\n<td>19</td>\n<td>General feat, second skin, skill increase, swift prey</td>\n</tr>\n<tr>\n<td>20</td>\n<td>Ability boosts, ranger feat, skill feat</td>\n</tr>\n</tbody>\n</table>\n<h2>Ancestry and Background</h2>\n<p>In addition to what you get from your class at 1st level, you have the benefits of your selected ancestry and background.</p>\n<h2>Hunt Prey</h2>\n<p>When you focus your attention on a single foe, you become unstoppable in your pursuit. You gain the Hunt Prey action.</p>\n<h3>@Compendium[pf2e.actionspf2e.Hunt Prey]{Hunt Prey} <span class=\"pf2-icon\">A</span></h3>\n<hr />\n<p>You designate a single creature as your prey and focus your attacks against that creature. You must be able to see or hear the prey, or you must be tracking the prey during exploration.</p>\n<p>You gain a +2 circumstance bonus to Perception checks when you Seek your prey and a +2 circumstance bonus to Survival checks when you Track your prey. You also ignore the penalty for making ranged attacks within your second range increment against the prey you're hunting.</p>\n<p>You can have only one creature designated as your prey at a time. If you use Hunt Prey against a creature when you already have a creature designated, the prior creature loses the designation and the new prey gains the designation. Your designation lasts until your next daily preparations.</p>\n<h2>Hunter's Edge</h2>\n<p>You have trained for countless hours to become a more skilled hunter and tracker, gaining an additional benefit when you Hunt Prey depending on the focus of your training. Choose a hunter's edge.</p>\n<p>Hunter's edges can be found here (@Compendium[pf2e.classfeatures.Hunter's Edge: Flurry]{Hunter's Edge: Flurry}, @Compendium[pf2e.classfeatures.Hunter's Edge: Outwit]{Hunter's Edge: Outwit} and @Compendium[pf2e.classfeatures.Hunter's Edge: Precision]{Hunter's Edge: Precision}).</p>\n<h2>Initial Proficiencies</h2>\n<p>At 1st level, you gain a number of proficiencies that represent your basic training. These proficiencies are noted at the start of this class.</p>\n<h2>Ranger Feats</h2>\n<p>At 1st level and every even-numbered level, you gain a ranger class feat.</p>\n<h2>Skill Feats<span style=\"float: right;\">Level 2</span></h2>\n<p>At 2nd level and every 2 levels thereafter, you gain a skill feat. You must be trained or better in the corresponding skill to select a skill feat.</p>\n<h2>General Feats<span style=\"float: right;\">Level 3</span></h2>\n<p>At 3rd level and every 4 levels thereafter, you gain a general feat.</p>\n<h2>Iron Will<span style=\"float: right;\">Level 3</span></h2>\n<p>Your training has hardened your resolve. Your proficiency rank for Will saves increases to expert.</p>\n<h2>Skill Increases<span style=\"float: right;\">Level 3</span></h2>\n<p>At 3rd level and every 2 levels thereafter, you gain a skill increase. You can use this increase to either become trained in one skill, or become an expert in one skill in which you're already trained.</p>\n<p>At 7th level, you can use skill increases to become a master in a skill in which you're already an expert, and at 15th level, you can use them to become legendary in a skill in which you're already a master.</p>\n<h2>Ability Boosts<span style=\"float: right;\">Level 5</span></h2>\n<p>At 5th level and every 5 levels thereafter, you boost four different ability scores. You can use these ability boosts to increase your ability scores above 18. Boosting an ability score increases it by 1 if it's already 18 or above, or by 2 if it starts out below 18.</p>\n<h2>Ancestry Feats<span style=\"float: right;\">Level 5</span></h2>\n<p>In addition to the ancestry feat you started with, you gain an ancestry feat at 5th level and every 4 levels thereafter.</p>\n<h2>Ranger Weapon Expertise<span style=\"float: right;\">Level 5</span></h2>\n<p>You've dedicated yourself to learning the intricacies of your weapons. Your proficiency ranks for simple, martial weapons, and unarmed attacks increases to expert. You gain access to the critical specialization effects of all such weapons and unarmed attacks when attacking your hunted prey.</p>\n<h2>Trackless Step<span style=\"float: right;\">Level 5</span></h2>\n<p>When you move through natural terrains, you are difficult to track. You always gain the benefits of the Cover Tracks action in such terrains, without moving at half your Speed.</p>\n<h2>Evasion<span style=\"float: right;\">Level 7</span></h2>\n<p>You've learned to move quickly to avoid explosions, dragons' breath, and worse. Your proficiency rank for Reflex saves increases to master. When you roll a success on a Reflex save, you get a critical success instead.</p>\n<h2>Vigilant Senses<span style=\"float: right;\">Level 7</span></h2>\n<p>Through your adventuring, you've developed keen awareness and attention to detail. Your proficiency rank for Perception increases to master.</p>\n<h2>Weapon Specialization<span style=\"float: right;\">Level 7</span></h2>\n<p>You've learned how to inflict greater injuries with the weapons you know best. You deal 2 additional damage with weapons and unarmed attacks in which you are an expert. This damage increases to 3 if you're a master, and to 4 if you're legendary.</p>\n<h2>Nature's Edge<span style=\"float: right;\">Level 9</span></h2>\n<p>You always find the weak points in your foes' defenses when they're on unfavorable terrain. Enemies are flat-footed to you if they're in natural difficult terrain or in difficult terrain resulting from a snare.</p>\n<h2>Ranger Expertise<span style=\"float: right;\">Level 9</span></h2>\n<p>You've practiced your techniques to make them harder to resist. Your proficiency rank for your ranger class DC increases to expert.</p>\n<h2>Juggernaut<span style=\"float: right;\">Level 11</span></h2>\n<p>Your body is accustomed to physical hardship and resistant to ailments. Your proficiency rank for Fortitude saves increases to master. When you roll a success on a Fortitude save, you get a critical success instead.</p>\n<h2>Medium Armor Expertise<span style=\"float: right;\">Level 11</span></h2>\n<p>You've learned to defend yourself better against attacks. Your proficiency ranks for light armor, medium armor, and unarmored defense increase to expert.</p>\n<h2>Wild Stride<span style=\"float: right;\">Level 11</span></h2>\n<p>You move quickly through obstacles, whether they're tumbled stone, tangled undergrowth, or sucking mud. You can ignore the effects of non-magical difficult terrain. As normal for ignoring difficult terrain, this also lets you treat the hindrances of greater difficult terrain as those of difficult terrain.</p>\n<h2>Weapon Mastery<span style=\"float: right;\">Level 13</span></h2>\n<p>You fully understand the intricacies of your weapons. Your proficiency ranks for simple, martial weapons, and unarmed attacks increase to master.</p>\n<h2>Greater Weapon Specialization<span style=\"float: right;\">Level 15</span></h2>\n<p>Your damage from weapon specialization increases to 4 with weapons and unarmed attacks in which you're an expert, 6 if you're a master, and 8 if you're legendary.</p>\n<h2>Improved Evasion<span style=\"float: right;\">Level 15</span></h2>\n<p>Your ability to elude danger is matchless. Your proficiency rank for Reflex saves increases to legendary. When you roll a critical failure on a Reflex save, you get a failure instead. When you roll a failure on a Reflex save against a damaging effect, you take half damage.</p>\n<h2>Incredible Senses<span style=\"float: right;\">Level 15</span></h2>\n<p>You notice things almost impossible for an ordinary person to detect. Your proficiency rank for Perception increases to legendary.</p>\n<h2>Masterful Hunter<span style=\"float: right;\">Level 17</span></h2>\n<p>You have honed your abilities as a hunter to incredible levels. Your proficiency rank for your ranger class DC increases to master. When using a ranged weapon that you have master proficiency in, you can ignore the penalty if attacking your hunted prey within the weapon's second and third range increments.</p>\n<p>If you have master proficiency in Perception, you gain a +4 circumstance bonus to Perception checks when you Seek your prey, and if you have master proficiency in Survival, you gain a +4 circumstance bonus to Survival checks when you Track your prey. You also gain an additional benefit depending on your hunter's edge.</p>\n<p>See specific hunter's edges for more information.</p>\n<h2>Second Skin<span style=\"float: right;\">Level 19</span></h2>\n<p>Your armor has become akin to a second skin for you. Your proficiency ranks for light armor, medium armor, and unarmored defense increase to master. When wearing light or medium armor, you can rest normally, rather than receiving poor rest that leaves you fatigued.</p>\n<h2>Swift Prey<span style=\"float: right;\">Level 19</span></h2>\n<p>You size up your prey with only a glance. You can use Hunt Prey as a free action if it's your first action of your turn.</p>"
        },
        "generalFeatLevels": {
            "value": [
                3,
                7,
                11,
                15,
                19
            ]
        },
        "hp": 10,
        "items": {
            "07lzm": {
                "id": "RVZC4wVy5B5W2OeS",
                "img": "systems/pf2e/icons/features/classes/masterful-hunter.webp",
                "level": "17",
                "name": "Masterful Hunter",
                "pack": "pf2e.classfeatures"
            },
            "3k9vv": {
                "id": "WiM7X4xmpMx4s6LD",
                "img": "systems/pf2e/icons/features/classes/weapon-specialization.webp",
                "level": 7,
                "name": "Weapon Specialization (Level 7)",
                "pack": "pf2e.classfeatures"
            },
            "57qwv": {
                "id": "mzkkj9LEWjJPBhaq",
                "img": "systems/pf2e/icons/default-icons/feat.svg",
                "level": 1,
                "name": "Hunter's Edge",
                "pack": "pf2e.classfeatures"
            },
            "7gij8": {
                "id": "j2R64kwUgEJ1TudD",
                "img": "systems/pf2e/icons/features/classes/natures-end.webp",
                "level": "9",
                "name": "Nature's Edge",
                "pack": "pf2e.classfeatures"
            },
            "86ooy": {
                "id": "PeZi7E9lI4vz8EGY",
                "img": "systems/pf2e/icons/features/classes/trackless-step.webp",
                "level": "5",
                "name": "Trackless Step",
                "pack": "pf2e.classfeatures"
            },
            "8er6c": {
                "id": "iyb5FU2BpsCCan8Q",
                "img": "systems/pf2e/icons/features/classes/incredible-sense.webp",
                "level": 15,
                "name": "Incredible Senses (Level 15)",
                "pack": "pf2e.classfeatures"
            },
            "9412w": {
                "id": "FCEp9jjxxgRJDJV3",
                "img": "systems/pf2e/icons/features/classes/medium-armor-expertise.webp",
                "level": 11,
                "name": "Medium Armor Expertise (Level 11)",
                "pack": "pf2e.classfeatures"
            },
            "bucqx": {
                "id": "6XwGONPdr9SFDtDc",
                "img": "systems/pf2e/icons/features/classes/improved-evasion.webp",
                "level": 15,
                "name": "Improved Evasion (Level 15)",
                "pack": "pf2e.classfeatures"
            },
            "bv3vc": {
                "id": "bBGb1LcffXEqar0p",
                "img": "systems/pf2e/icons/features/classes/swift-prey.webp",
                "level": "19",
                "name": "Swift Prey",
                "pack": "pf2e.classfeatures"
            },
            "djh8f": {
                "id": "phwQ2MrDZ13D2HxC",
                "img": "systems/pf2e/icons/features/classes/second-skin.webp",
                "level": "19",
                "name": "Second Skin",
                "pack": "pf2e.classfeatures"
            },
            "e3ees": {
                "id": "Ba97T4anGhizfaCt",
                "img": "systems/pf2e/icons/features/classes/juggerenaut.webp",
                "level": 11,
                "name": "Juggernaut (Level 11)",
                "pack": "pf2e.classfeatures"
            },
            "eekwl": {
                "id": "MV6XIuAgN9uSA0Da",
                "img": "systems/pf2e/icons/features/classes/evasion.webp",
                "level": 7,
                "name": "Evasion (Level 7)",
                "pack": "pf2e.classfeatures"
            },
            "eha1f": {
                "id": "Z7HX6TeFsaup7Dx9",
                "img": "systems/pf2e/icons/features/classes/greater-weapon-specialization.webp",
                "level": 15,
                "name": "Greater Weapon Specialization (Level 15)",
                "pack": "pf2e.classfeatures"
            },
            "iyqmb": {
                "id": "RlwE99yKnhq8FUuy",
                "img": "systems/pf2e/icons/features/classes/wild-stride.webp",
                "level": "11",
                "name": "Wild Stride",
                "pack": "pf2e.classfeatures"
            },
            "jhhhl": {
                "id": "QhoW8ivPvYmWzyEZ",
                "img": "systems/pf2e/icons/features/classes/ranger-weapon-expertise.webp",
                "level": "5",
                "name": "Ranger Weapon Expertise",
                "pack": "pf2e.classfeatures"
            },
            "lzbwg": {
                "id": "0npO4rPscGm0dX13",
                "img": "systems/pf2e/icons/features/classes/vigilant-senses.webp",
                "level": 7,
                "name": "Vigilant Senses (Level 7)",
                "pack": "pf2e.classfeatures"
            },
            "nvyh4": {
                "id": "i6563IU7x4L9oRgC",
                "img": "systems/pf2e/icons/features/classes/weapon-mastery.webp",
                "level": 13,
                "name": "Weapon Mastery (Level 13)",
                "pack": "pf2e.classfeatures"
            },
            "q4kx8": {
                "id": "wMyDcVNmA7xGK83S",
                "img": "systems/pf2e/icons/features/classes/iron-will.webp",
                "level": 3,
                "name": "Iron Will (Level 3)",
                "pack": "pf2e.classfeatures"
            },
            "s7kqn": {
                "id": "0nIOGpHQNHsKSFKT",
                "img": "systems/pf2e/icons/features/classes/hunt-prey.webp",
                "level": "1",
                "name": "Hunt Prey",
                "pack": "pf2e.classfeatures"
            },
            "upgl9": {
                "id": "5likl5SAxQPrQ3KF",
                "img": "systems/pf2e/icons/features/classes/ranger-expertise.webp",
                "level": "9",
                "name": "Ranger Expertise",
                "pack": "pf2e.classfeatures"
            }
        },
        "keyAbility": {
            "value": [
                "dex",
                "str"
            ]
        },
        "perception": 2,
        "rules": [
            {
                "key": "ActiveEffectLike",
                "mode": "upgrade",
                "path": "data.skills.nat.rank",
                "value": 1
            },
            {
                "key": "ActiveEffectLike",
                "mode": "upgrade",
                "path": "data.skills.sur.rank",
                "value": 1
            }
        ],
        "savingThrows": {
            "fortitude": 2,
            "reflex": 2,
            "will": 1
        },
        "skillFeatLevels": {
            "value": [
                2,
                4,
                6,
                8,
                10,
                12,
                14,
                16,
                18,
                20
            ]
        },
        "skillIncreaseLevels": {
            "value": [
                3,
                5,
                7,
                9,
                11,
                13,
                15,
                17,
                19
            ]
        },
        "source": {
            "value": ""
        },
        "trainedSkills": {
            "additional": 4,
            "value": [
                "nat",
                "sur"
            ]
        },
        "traits": {
            "custom": "",
            "rarity": {
                "value": "common"
            },
            "value": []
        }
    },
    "effects": [],
    "flags": {},
    "img": "systems/pf2e/icons/classes/ranger.webp",
    "name": "Ranger",
    "type": "class"
}
