{
    "_id": "uA1Ofqoyi0UiZIPk",
    "data": {
        "description": {
            "value": "<p>Granted by @Compendium[pf2e.actionspf2e.Clue In]{Clue In} if the investigator has @Compendium[pf2e.classfeatures.Investigator Expertise]{Investigator Expertise}.</p>\n<p>Whenever you attempt a Perception or skill check to investigate a designated subject, you gain a +2 circumstance bonus to the check.</p>"
        },
        "duration": {
            "expiry": "turn-start",
            "sustained": false,
            "unit": "unlimited",
            "value": -1
        },
        "level": {
            "value": 9
        },
        "rules": [
            {
                "key": "PF2E.RuleElement.FlatModifier",
                "label": "Clue In (Investigator's Expertise)",
                "selector": "perception",
                "type": "circumstance",
                "value": 2
            },
            {
                "key": "PF2E.RuleElement.FlatModifier",
                "label": "Clue In (Investigator's Expertise)",
                "selector": "skill-check",
                "type": "circumstance",
                "value": 2
            }
        ],
        "source": {
            "value": ""
        },
        "start": {
            "initiative": null,
            "value": 0
        },
        "target": null,
        "tokenIcon": {
            "show": true
        },
        "traits": {
            "custom": "",
            "rarity": {
                "value": "common"
            },
            "value": []
        }
    },
    "effects": [],
    "flags": {},
    "img": "systems/pf2e/icons/equipment/adventuring-gear/magnifying-glass.webp",
    "name": "Effect: Clue In (Expertise)",
    "type": "effect"
}
