{
    "_id": "QTG73gxKSNkiEWdY",
    "data": {
        "description": {
            "value": "<p>Granted by @Compendium[pf2e.feats-srd.Endemic Herbs]{Endemic Herbs}</p>\n<p>Gain a +1 circumstance bonus to Reflex saves.</p>"
        },
        "duration": {
            "expiry": "turn-start",
            "sustained": false,
            "unit": "minutes",
            "value": 1
        },
        "level": {
            "value": 1
        },
        "rules": [
            {
                "Label": "Mountain Endemic Herbs",
                "key": "PF2E.RuleElement.FlatModifier",
                "selector": "reflex",
                "type": "circumstance",
                "value": 1
            }
        ],
        "source": {
            "value": "Pathfinder Advanced Player's Guide"
        },
        "start": {
            "initiative": null,
            "value": 0
        },
        "target": null,
        "tokenIcon": {
            "show": true
        },
        "traits": {
            "custom": "",
            "rarity": {
                "value": "common"
            },
            "value": []
        }
    },
    "effects": [],
    "flags": {},
    "img": "systems/pf2e/icons/spells/ancestral-defense.webp",
    "name": "Effect: Mountain Endemic Herbs",
    "type": "effect"
}
