{
    "_id": "rGSc2PtvU3mgm18S",
    "data": {
        "description": {
            "value": "<p>An <em>unholy</em> rune instills fiendish power into the etched weapon. A weapon with this rune deals an additional [[/r 1d6 #evil]]{1d6 evil damage} when it hits a good target. If you are good, you are @Compendium[pf2e.conditionitems.Enfeebled]{Enfeebled 2} while carrying or wielding this weapon.<br /></p>\n<p><strong>Activate</strong> <span class=\"pf2-icon\">R</span> command; <strong>Frequency</strong> once per day; <strong>Trigger</strong> You critically succeed at an attack roll against a good creature with the weapon; <strong>Effect</strong> The target takes [[/r 1d8 #persistent bleed]] @Compendium[pf2e.conditionitems.Persistent Damage]{Persistent Bleed Damage} per weapon damage die of the etched weapon.</p>"
        },
        "duration": {
            "expiry": "turn-start",
            "sustained": false,
            "unit": "unlimited",
            "value": -1
        },
        "level": {
            "value": 1
        },
        "rules": [
            {
                "key": "PF2E.RuleElement.EffectTarget",
                "scope": "weapon"
            },
            {
                "key": "PF2E.RuleElement.Note",
                "selector": "{item|data.target}-damage",
                "text": "<strong>Unholy</strong>: <strong>Activate</strong> <span class=\"pf2-icon\">R</span> command; <strong>Frequency</strong> once per day; <strong>Trigger</strong> You critically succeed at an attack roll against a good creature with the weapon; <strong>Effect</strong> The target takes [[/r 1d8 #persistent bleed]] @Compendium[pf2e.conditionitems.Persistent Damage]{Persistent Bleed Damage} per weapon damage die of the etched weapon."
            },
            {
                "damageType": "evil",
                "diceNumber": 1,
                "dieSize": "d6",
                "key": "PF2E.RuleElement.DamageDice",
                "selector": "{item|data.target}-damage"
            }
        ],
        "source": {
            "value": ""
        },
        "start": {
            "initiative": null,
            "value": 0
        },
        "target": null,
        "tokenIcon": {
            "show": true
        },
        "traits": {
            "custom": "",
            "rarity": {
                "value": "common"
            },
            "value": []
        }
    },
    "effects": [],
    "flags": {},
    "img": "systems/pf2e/icons/equipment/runes/weapon-property-runes/weapon-property-runes.webp",
    "name": "Effect: Blade Ally Unholy Rune",
    "type": "effect"
}
