{
    "_id": "csRH8Fx0r6iMWlFc",
    "data": {
        "abilities": {
            "cha": {
                "mod": 7
            },
            "con": {
                "mod": 3
            },
            "dex": {
                "mod": 4
            },
            "int": {
                "mod": -2
            },
            "str": {
                "mod": 5
            },
            "wis": {
                "mod": 1
            }
        },
        "attributes": {
            "ac": {
                "details": "",
                "value": 21
            },
            "allSaves": {
                "value": ""
            },
            "hp": {
                "details": "",
                "max": 75,
                "temp": 0,
                "value": 75
            },
            "initiative": {
                "ability": "perception"
            },
            "perception": {
                "value": 12
            },
            "shield": {
                "ac": 0,
                "brokenThreshold": 0,
                "hardness": 0,
                "max": 0,
                "value": 0
            },
            "speed": {
                "otherSpeeds": [
                    {
                        "type": "Climb",
                        "value": "20 feet"
                    }
                ],
                "value": "40 feet"
            }
        },
        "details": {
            "alignment": {
                "value": "N"
            },
            "creatureType": "Beast",
            "flavorText": "<p>Ether spiders are deadly predators from the Ethereal Plane resembling giant arachnids. Rather than building webs of silk, ether spiders shape the raw essence of the Ethereal Plane, weaving it in complex patterns that drift through the misty void. From these ethereal nests, whole families of ether spiders can scout the adjacent Material Plane, watching for easy prey in dark or remote corners of the land of mortals. Once an ether spider has spotted a meal, it anchors its nest and waits on the Ethereal Plane for its prey to draw near. As soon as its victim is within reach, the ether spider shifts to the Material Plane, clamps its fangs onto its prey, then shifts back to the Ethereal Plane to wait as its venom works through the creature's system. Ether spiders move between the planes with ease, making them extremely dangerous to those who cannot see or attack ethereal enemies.<br /><br /> Ether spiders are not mindless or evil-they are simply hungry. If a prospective meal can sate an ether spider's incredible appetite through other means, they might be able to bargain for their life. Ether spiders are especially interested in items, information, or allies who can help them against their enemies.<br /><br /> As many as half a dozen ether spiders might dwell in the same ether web. Although ether spiders enjoy one another's company, they don't form the same bonds as most humanoids, and they are more likely to feast on the corpse of a fallen sibling than save one from certain doom.<br /><br /> Ether spiders dwell in vast nests adrift in the Ghost World, where they are more likely to let down their guard. Travelers who find a floating ether spider commune should have an easier time of making peaceful contact to trade with or even befriend these strange arachnids. The nests drift on metaphysical currents and are rarely seen in the same vicinity twice. Sometimes a point of interest on the neighboring Material Plane compels them to tether their nest to an area, creating a semipermanent home, and those who learn its location can return to it repeatedly.</p>",
            "level": {
                "value": 5
            },
            "source": {
                "value": "Pathfinder Bestiary"
            }
        },
        "resources": {},
        "saves": {
            "fortitude": {
                "saveDetail": "",
                "value": 12
            },
            "reflex": {
                "saveDetail": "",
                "value": 15
            },
            "will": {
                "saveDetail": "",
                "value": 10
            }
        },
        "traits": {
            "ci": [],
            "di": {
                "custom": "",
                "value": []
            },
            "dr": [],
            "dv": [],
            "languages": {
                "custom": "",
                "selected": [],
                "value": [
                    "aklo"
                ]
            },
            "rarity": {
                "value": "common"
            },
            "senses": {
                "value": "darkvision"
            },
            "size": {
                "value": "lg"
            },
            "traits": {
                "custom": "",
                "value": [
                    "beast",
                    "ethereal"
                ]
            }
        }
    },
    "effects": [],
    "flags": {},
    "img": "systems/pf2e/icons/default-icons/npc.svg",
    "items": [
        {
            "_id": "NFeHIUnX3NMyZX5I",
            "data": {
                "attack": {
                    "value": ""
                },
                "attackEffects": {
                    "value": [
                        "ether spider venom",
                        "Grab"
                    ]
                },
                "bonus": {
                    "value": 15
                },
                "damageRolls": {
                    "l41wimplo273wyqv6n74": {
                        "damage": "1d10+7",
                        "damageType": "piercing"
                    }
                },
                "description": {
                    "value": ""
                },
                "rules": [],
                "slug": null,
                "source": {
                    "value": ""
                },
                "traits": {
                    "custom": "",
                    "rarity": {
                        "value": "common"
                    },
                    "value": [
                        "magical"
                    ]
                },
                "weaponType": {
                    "value": "melee"
                }
            },
            "effects": [],
            "flags": {},
            "img": "systems/pf2e/icons/default-icons/melee.svg",
            "name": "Fangs",
            "sort": 100000,
            "type": "melee"
        },
        {
            "_id": "ioskOBeviPp2ll8D",
            "data": {
                "attack": {
                    "value": ""
                },
                "attackEffects": {
                    "value": [
                        "ethereal web trap"
                    ]
                },
                "bonus": {
                    "value": 14
                },
                "damageRolls": {},
                "description": {
                    "value": ""
                },
                "rules": [],
                "slug": null,
                "source": {
                    "value": ""
                },
                "traits": {
                    "custom": "",
                    "rarity": {
                        "value": "common"
                    },
                    "value": [
                        "magical",
                        "range increment 30 feet"
                    ]
                },
                "weaponType": {
                    "value": "ranged"
                }
            },
            "effects": [],
            "flags": {},
            "img": "systems/pf2e/icons/default-icons/melee.svg",
            "name": "Web",
            "sort": 200000,
            "type": "melee"
        },
        {
            "_id": "siaeh3ZOXYXVsYlo",
            "data": {
                "actionCategory": {
                    "value": "offensive"
                },
                "actionType": {
                    "value": "passive"
                },
                "actions": {
                    "value": null
                },
                "description": {
                    "value": "<p><strong>Saving Throw</strong> <span data-pf2-check=\"fortitude\" data-pf2-dc=\"22\" data-pf2-traits=\"poison\" data-pf2-label=\"Ether Spider Venom DC\" data-pf2-show-dc=\"gm\">Fortitude</span>; <strong>Maximum Duration</strong> 6 rounds; <strong>Stage 1</strong> [[/r 1d6 #poison]]{1d6 poison damage} and @Compendium[pf2e.conditionitems.Clumsy]{Clumsy 1} (1 round); <strong>Stage 2</strong> [[/r 2d6 #poison]]{2d6 poison damage}, @Compendium[pf2e.conditionitems.Clumsy]{Clumsy 2} and @Compendium[pf2e.conditionitems.Slowed]{Slowed 1} (1 round); <strong>Stage 3</strong> [[/r 3d6 #poison]]{3d6 poison damage}, @Compendium[pf2e.conditionitems.Clumsy]{Clumsy 3} and @Compendium[pf2e.conditionitems.Slowed]{Slowed 2} (1 round).</p>"
                },
                "requirements": {
                    "value": ""
                },
                "rules": [],
                "slug": null,
                "source": {
                    "value": ""
                },
                "traits": {
                    "custom": "",
                    "rarity": {
                        "value": "common"
                    },
                    "value": [
                        "poison"
                    ]
                },
                "trigger": {
                    "value": ""
                },
                "weapon": {
                    "value": ""
                }
            },
            "effects": [],
            "flags": {},
            "img": "systems/pf2e/icons/default-icons/mystery-man.svg",
            "name": "Ether Spider Venom",
            "sort": 300000,
            "type": "action"
        },
        {
            "_id": "JaEjyp5taeG7YCCo",
            "data": {
                "actionCategory": {
                    "value": "offensive"
                },
                "actionType": {
                    "value": "action"
                },
                "actions": {
                    "value": 1
                },
                "description": {
                    "value": "<p>The ether spider shifts to either the Ethereal Plane or the Material Plane. The ether spider can remain on the Ethereal Plane indefinitely without ill effect. While there, it can see clearly onto the Material Plane with a range of 60 feet. On its first round in an encounter, the ether spider can use this ability once as a free action.</p>"
                },
                "requirements": {
                    "value": ""
                },
                "rules": [],
                "slug": null,
                "source": {
                    "value": ""
                },
                "traits": {
                    "custom": "",
                    "rarity": {
                        "value": "common"
                    },
                    "value": []
                },
                "trigger": {
                    "value": ""
                },
                "weapon": {
                    "value": ""
                }
            },
            "effects": [],
            "flags": {},
            "img": "systems/pf2e/icons/default-icons/mystery-man.svg",
            "name": "Ethereal Step",
            "sort": 400000,
            "type": "action"
        },
        {
            "_id": "BMgUFhUSXPid36Be",
            "data": {
                "actionCategory": {
                    "value": "offensive"
                },
                "actionType": {
                    "value": "passive"
                },
                "actions": {
                    "value": null
                },
                "description": {
                    "value": "<p>A creature hit by the ether spider's web attack is @Compendium[pf2e.conditionitems.Immobilized]{Immobilized} and stuck to the nearest surface (Escape DC 22).</p>"
                },
                "requirements": {
                    "value": ""
                },
                "rules": [],
                "slug": null,
                "source": {
                    "value": ""
                },
                "traits": {
                    "custom": "",
                    "rarity": {
                        "value": "common"
                    },
                    "value": []
                },
                "trigger": {
                    "value": ""
                },
                "weapon": {
                    "value": ""
                }
            },
            "effects": [],
            "flags": {},
            "img": "systems/pf2e/icons/actions/Passive.webp",
            "name": "Ethereal Web Trap",
            "sort": 500000,
            "type": "action"
        },
        {
            "_id": "buxQji3r8B2K47OT",
            "data": {
                "actionCategory": {
                    "value": "offensive"
                },
                "actionType": {
                    "value": "action"
                },
                "actions": {
                    "value": 1
                },
                "description": {
                    "value": "<p><strong>Requirements</strong> The monster's last action was a success with a Strike that lists Grab in its damage entry, or it has a creature grabbed using this action. <strong>Effect</strong> The monster automatically Grabs the target until the end of the monster's next turn. The creature is grabbed by whichever body part the monster attacked with, and that body part can't be used to Strike creatures until the grab is ended. Using Grab extends the duration of the monster's Grab until the end of its next turn for all creatures grabbed by it. A grabbed creature can use the Escape action to get out of the grab, and the Grab ends for a grabbed creatures if the monster moves away from it.</p>"
                },
                "requirements": {
                    "value": ""
                },
                "rules": [],
                "slug": null,
                "source": {
                    "value": ""
                },
                "traits": {
                    "custom": "",
                    "rarity": {
                        "value": "common"
                    },
                    "value": []
                },
                "trigger": {
                    "value": ""
                },
                "weapon": {
                    "value": ""
                }
            },
            "effects": [],
            "flags": {},
            "img": "systems/pf2e/icons/default-icons/mystery-man.svg",
            "name": "Grab",
            "sort": 600000,
            "type": "action"
        },
        {
            "_id": "DG6zH2k37QwOHJ9R",
            "data": {
                "actionCategory": {
                    "value": "offensive"
                },
                "actionType": {
                    "value": "action"
                },
                "actions": {
                    "value": 2
                },
                "description": {
                    "value": "<p><strong>Frequency</strong> once per day; <strong>Effect</strong> The ether spider flings a gout of stored webs in a 30-foot cone. These webs can pass between the Material Plane and the Ethereal Plane. Each creature in the area is @Compendium[pf2e.conditionitems.Immobilized]{Immobilized}, as ethereal web trap, unless it succeeds at a <span data-pf2-check=\"reflex\" data-pf2-dc=\"22\" data-pf2-label=\"Web Burst DC\" data-pf2-show-dc=\"gm\">Reflex</span> save.</p>"
                },
                "requirements": {
                    "value": ""
                },
                "rules": [],
                "slug": null,
                "source": {
                    "value": ""
                },
                "traits": {
                    "custom": "",
                    "rarity": {
                        "value": "common"
                    },
                    "value": []
                },
                "trigger": {
                    "value": ""
                },
                "weapon": {
                    "value": ""
                }
            },
            "effects": [],
            "flags": {},
            "img": "systems/pf2e/icons/default-icons/mystery-man.svg",
            "name": "Web Burst",
            "sort": 700000,
            "type": "action"
        },
        {
            "_id": "ZOzuip9rkIQxOW6X",
            "data": {
                "description": {
                    "value": ""
                },
                "item": {
                    "value": 0
                },
                "mod": {
                    "value": 12
                },
                "proficient": {
                    "value": 0
                },
                "rules": [],
                "slug": null,
                "source": {
                    "value": ""
                },
                "traits": {
                    "custom": "",
                    "rarity": {
                        "value": "common"
                    },
                    "value": []
                }
            },
            "effects": [],
            "flags": {},
            "img": "systems/pf2e/icons/default-icons/lore.svg",
            "name": "Athletics",
            "sort": 800000,
            "type": "lore"
        },
        {
            "_id": "NFe6tfCMgpQZXtzB",
            "data": {
                "description": {
                    "value": ""
                },
                "item": {
                    "value": 0
                },
                "mod": {
                    "value": 15
                },
                "proficient": {
                    "value": 0
                },
                "rules": [],
                "slug": null,
                "source": {
                    "value": ""
                },
                "traits": {
                    "custom": "",
                    "rarity": {
                        "value": "common"
                    },
                    "value": []
                }
            },
            "effects": [],
            "flags": {},
            "img": "systems/pf2e/icons/default-icons/lore.svg",
            "name": "Stealth",
            "sort": 900000,
            "type": "lore"
        }
    ],
    "name": "Ether Spider",
    "token": {
        "disposition": -1,
        "height": 2,
        "img": "systems/pf2e/icons/default-icons/npc.svg",
        "name": "Ether Spider",
        "width": 2
    },
    "type": "npc"
}
