{
    "_id": "fxYMucI5b2IUoBpw",
    "data": {
        "abilities": {
            "cha": {
                "mod": 1
            },
            "con": {
                "mod": 6
            },
            "dex": {
                "mod": 4
            },
            "int": {
                "mod": -3
            },
            "str": {
                "mod": 7
            },
            "wis": {
                "mod": 4
            }
        },
        "attributes": {
            "ac": {
                "details": "",
                "value": 33
            },
            "allSaves": {
                "value": ""
            },
            "hp": {
                "details": "",
                "max": 195,
                "temp": 0,
                "value": 195
            },
            "initiative": {
                "ability": "perception"
            },
            "perception": {
                "value": 20
            },
            "shield": {
                "ac": 0,
                "brokenThreshold": 0,
                "hardness": 0,
                "max": 0,
                "value": 0
            },
            "speed": {
                "otherSpeeds": [
                    {
                        "type": "Burrow",
                        "value": "20 feet"
                    }
                ],
                "value": "40 feet"
            }
        },
        "details": {
            "alignment": {
                "value": "N"
            },
            "creatureType": "Beast",
            "flavorText": "<p>Scourges of the upper Darklands, these enormous, mole-like monstrosities slice and burrow through solid stone with massive forearms and adamantine-strong claws. Shulns grow to about 20 feet long and have four tiny, nearly imperceptible eyes; a long, pale snout; four thick-muscled legs that end in long, serrated claws; and a stubby pink tail. As a young shuln matures, its unique metabolism produces adamantine that becomes infused throughout its skeletal system. In addition to making their claws and fangs nearly unbreakable, this unique physiological trait makes shulns unparalleled burrowers and highly sought by monster hunters who hope to harvest the precious material from their corpses.<br /><br /> Shulns have a ravenous appetite and eat nearly anything they can catch, but their preferred diet consists almost entirely of large invertebrates, especially cave worms. They rely on tiny sensory whiskers that cover their snoutfland allow them to detect subtle movements in the air and ground without the use of vision. When it detects suitable prey, a shuln bites the target at the first opportunity, injecting it with a potent paralytic toxin present in its saliva. So strong is this poison that it is capable of subduing even the near-unstoppable purple worm, making the shuln a valuable  companion to have for anyone making excursions into worm-infested regions of the Darklands. Shulns' notoriously ill-tempered dispositions and their knack for digging into areas of an underground settlement where digging ought not occur makes them frustrating creatures to keep around, but when the alternative is an unpredictable but deadly visit from an enormous, hungry cave worm, the annoyances are well worth the trouble.<br /><br /> Encounters with much larger shuln-like entities on the Plane of Earth suggest that these creatures may have originated from that place. The larger shulns still retain their elemental qualities, are quite a bit smarter, and have their own suite of earth-themed innate primal spells-but for all that, they still love the taste of cave worm.</p>",
            "level": {
                "value": 12
            },
            "source": {
                "value": "Pathfinder Bestiary"
            }
        },
        "resources": {},
        "saves": {
            "fortitude": {
                "saveDetail": "",
                "value": 25
            },
            "reflex": {
                "saveDetail": "",
                "value": 19
            },
            "will": {
                "saveDetail": "",
                "value": 21
            }
        },
        "traits": {
            "ci": [],
            "di": {
                "custom": "",
                "value": []
            },
            "dr": [
                {
                    "exceptions": "adamantine or bludgeoning",
                    "label": "Physical",
                    "type": "physical",
                    "value": "10"
                },
                {
                    "label": "Poison",
                    "type": "poison",
                    "value": "15"
                }
            ],
            "dv": [],
            "languages": {
                "custom": "",
                "selected": [],
                "value": []
            },
            "rarity": {
                "value": "rare"
            },
            "senses": {
                "value": "scent 30 feet, tremorsense (imprecise) 60 feet"
            },
            "size": {
                "value": "huge"
            },
            "traits": {
                "custom": "",
                "value": [
                    "beast"
                ]
            }
        }
    },
    "effects": [],
    "flags": {},
    "img": "systems/pf2e/icons/default-icons/npc.svg",
    "items": [
        {
            "_id": "mjClQEAEbQfY2Zfr",
            "data": {
                "attack": {
                    "value": ""
                },
                "attackEffects": {
                    "value": []
                },
                "bonus": {
                    "value": 25
                },
                "damageRolls": {
                    "wq5dqagsc3rvealyfhid": {
                        "damage": "3d8+10",
                        "damageType": "slashing"
                    }
                },
                "description": {
                    "value": ""
                },
                "rules": [],
                "slug": null,
                "source": {
                    "value": ""
                },
                "traits": {
                    "custom": "",
                    "rarity": {
                        "value": "common"
                    },
                    "value": [
                        "agile",
                        "reach-15"
                    ]
                },
                "weaponType": {
                    "value": "melee"
                }
            },
            "effects": [],
            "flags": {},
            "img": "systems/pf2e/icons/default-icons/melee.svg",
            "name": "Adamantine Claw",
            "sort": 100000,
            "type": "melee"
        },
        {
            "_id": "vipJW7r7EquegImq",
            "data": {
                "attack": {
                    "value": ""
                },
                "attackEffects": {
                    "value": [
                        "shuln saliva"
                    ]
                },
                "bonus": {
                    "value": 25
                },
                "damageRolls": {
                    "i7sr4woj09gu4xx7dnoc": {
                        "damage": "3d10+10",
                        "damageType": "piercing"
                    }
                },
                "description": {
                    "value": ""
                },
                "rules": [],
                "slug": null,
                "source": {
                    "value": ""
                },
                "traits": {
                    "custom": "",
                    "rarity": {
                        "value": "common"
                    },
                    "value": [
                        "reach-15"
                    ]
                },
                "weaponType": {
                    "value": "melee"
                }
            },
            "effects": [],
            "flags": {},
            "img": "systems/pf2e/icons/default-icons/melee.svg",
            "name": "Adamantine Fangs",
            "sort": 200000,
            "type": "melee"
        },
        {
            "_id": "uuMoWLbelNwKPIUM",
            "data": {
                "actionCategory": {
                    "value": "offensive"
                },
                "actionType": {
                    "value": "passive"
                },
                "actions": {
                    "value": null
                },
                "description": {
                    "value": "<p>Any time the shuln scores a critical hit with a melee Strike, it also deals the same amount of damage to the target's armor, bypassing any Hardness lower than 10, like adamantine.</p>"
                },
                "requirements": {
                    "value": ""
                },
                "rules": [],
                "slug": null,
                "source": {
                    "value": ""
                },
                "traits": {
                    "custom": "",
                    "rarity": {
                        "value": "common"
                    },
                    "value": []
                },
                "trigger": {
                    "value": ""
                },
                "weapon": {
                    "value": ""
                }
            },
            "effects": [],
            "flags": {},
            "img": "systems/pf2e/icons/actions/Passive.webp",
            "name": "Armor-Rending",
            "sort": 300000,
            "type": "action"
        },
        {
            "_id": "2V1LMw2K5gNCyFjF",
            "data": {
                "actionCategory": {
                    "value": "offensive"
                },
                "actionType": {
                    "value": "passive"
                },
                "actions": {
                    "value": null
                },
                "description": {
                    "value": "<p><strong>Saving Throw</strong> <span data-pf2-check=\"fortitude\" data-pf2-dc=\"32\" data-pf2-traits=\"incapacitation,poison\" data-pf2-label=\"Shuln Saliva DC\" data-pf2-show-dc=\"gm\">Fortitude</span>; <strong>Maximum Duration</strong> 6 rounds; <strong>Stage 1</strong> [[/r 2d6 #poison]]{2d6 poison damage} and @Compendium[pf2e.conditionitems.Slowed]{Slowed 1} (1 round); <strong>Stage 2</strong> [[/r 3d6 #poison]]{3d6 poison damage}, and @Compendium[pf2e.conditionitems.Slowed]{Slowed 1} (1 round); <strong>Stage 3</strong> [[/r 4d6 #poison]]{4d6 poison damage} and @Compendium[pf2e.conditionitems.Paralyzed]{Paralyzed} for [[/br 2d6 #hours]]{2d6 hours}. Shuln saliva overcomes the inexorable ability.</p>"
                },
                "requirements": {
                    "value": ""
                },
                "rules": [],
                "slug": null,
                "source": {
                    "value": ""
                },
                "traits": {
                    "custom": "",
                    "rarity": {
                        "value": "common"
                    },
                    "value": [
                        "incapacitation",
                        "poison"
                    ]
                },
                "trigger": {
                    "value": ""
                },
                "weapon": {
                    "value": ""
                }
            },
            "effects": [],
            "flags": {},
            "img": "systems/pf2e/icons/default-icons/mystery-man.svg",
            "name": "Shuln Saliva",
            "sort": 400000,
            "type": "action"
        },
        {
            "_id": "gzVcZTMtslepZxcC",
            "data": {
                "actionCategory": {
                    "value": "offensive"
                },
                "actionType": {
                    "value": "passive"
                },
                "actions": {
                    "value": null
                },
                "description": {
                    "value": "<p>Shulns can burrow into solid rock and any metal with a hardness less than that of adamantine like it is soil or loose rubble, leaving a tunnel 10 feet in diameter.</p>"
                },
                "requirements": {
                    "value": ""
                },
                "rules": [],
                "slug": null,
                "source": {
                    "value": ""
                },
                "traits": {
                    "custom": "",
                    "rarity": {
                        "value": "common"
                    },
                    "value": []
                },
                "trigger": {
                    "value": ""
                },
                "weapon": {
                    "value": ""
                }
            },
            "effects": [],
            "flags": {},
            "img": "systems/pf2e/icons/actions/Passive.webp",
            "name": "Unstoppable Burrow",
            "sort": 500000,
            "type": "action"
        },
        {
            "_id": "innAnep6XVq2kKeI",
            "data": {
                "description": {
                    "value": ""
                },
                "item": {
                    "value": 0
                },
                "mod": {
                    "value": 25
                },
                "proficient": {
                    "value": 0
                },
                "rules": [],
                "slug": null,
                "source": {
                    "value": ""
                },
                "traits": {
                    "custom": "",
                    "rarity": {
                        "value": "common"
                    },
                    "value": []
                }
            },
            "effects": [],
            "flags": {},
            "img": "systems/pf2e/icons/default-icons/lore.svg",
            "name": "Athletics",
            "sort": 600000,
            "type": "lore"
        },
        {
            "_id": "2vsxXF0JGverxySE",
            "data": {
                "description": {
                    "value": ""
                },
                "item": {
                    "value": 0
                },
                "mod": {
                    "value": 22
                },
                "proficient": {
                    "value": 0
                },
                "rules": [],
                "slug": null,
                "source": {
                    "value": ""
                },
                "traits": {
                    "custom": "",
                    "rarity": {
                        "value": "common"
                    },
                    "value": []
                }
            },
            "effects": [],
            "flags": {},
            "img": "systems/pf2e/icons/default-icons/lore.svg",
            "name": "Survival",
            "sort": 700000,
            "type": "lore"
        }
    ],
    "name": "Shuln",
    "token": {
        "disposition": -1,
        "height": 3,
        "img": "systems/pf2e/icons/default-icons/npc.svg",
        "name": "Shuln",
        "width": 3
    },
    "type": "npc"
}
