{
    "_id": "FwH05kDUlC8CwWTU",
    "data": {
        "abilities": {
            "cha": {
                "mod": 4
            },
            "con": {
                "mod": 7
            },
            "dex": {
                "mod": 3
            },
            "int": {
                "mod": -1
            },
            "str": {
                "mod": 7
            },
            "wis": {
                "mod": 1
            }
        },
        "attributes": {
            "ac": {
                "details": "",
                "value": 28
            },
            "allSaves": {
                "value": ""
            },
            "hp": {
                "details": "regeneration 30 ",
                "max": 220,
                "temp": 0,
                "value": 220
            },
            "initiative": {
                "ability": "perception"
            },
            "perception": {
                "value": 19
            },
            "shield": {
                "ac": 0,
                "brokenThreshold": 0,
                "hardness": 0,
                "max": 0,
                "value": 0
            },
            "speed": {
                "otherSpeeds": [],
                "value": "30 feet"
            }
        },
        "details": {
            "alignment": {
                "value": "CE"
            },
            "creatureType": "Giant",
            "flavorText": "<p>Some trolls have learned the skills necessary to survive well beyond the typical life expectancy for their kind and rally others to follow their lead. These champions develop a number of talents that make them worthy leaders and potent hunters-namely their abilities to willingly boost the rate of their regeneration and to shake off the acid and fire that would hinder it, not to mention a bestial roar that can send would-be predators scurrying off. Troll kings possess a cunning far beyond their younger kin- they know to keep their allies close, and their enemies even closer. If a troll king so much as suspects that one of its followers is plotting to usurp it, retribution is swift and fatal.</p>",
            "level": {
                "value": 10
            },
            "source": {
                "value": "Pathfinder Bestiary"
            }
        },
        "resources": {},
        "saves": {
            "fortitude": {
                "saveDetail": "",
                "value": 23
            },
            "reflex": {
                "saveDetail": "",
                "value": 17
            },
            "will": {
                "saveDetail": "",
                "value": 15
            }
        },
        "traits": {
            "ci": [],
            "di": {
                "custom": "",
                "value": []
            },
            "dr": [],
            "dv": [
                {
                    "label": "Fire",
                    "type": "fire",
                    "value": "10"
                }
            ],
            "languages": {
                "custom": "",
                "selected": [],
                "value": [
                    "jotun"
                ]
            },
            "rarity": {
                "value": "common"
            },
            "senses": {
                "value": "darkvision"
            },
            "size": {
                "value": "lg"
            },
            "traits": {
                "custom": "",
                "value": [
                    "giant",
                    "troll"
                ]
            }
        }
    },
    "effects": [],
    "flags": {},
    "img": "systems/pf2e/icons/default-icons/npc.svg",
    "items": [
        {
            "_id": "z0QT6nvmIHbeoGHa",
            "data": {
                "attack": {
                    "value": ""
                },
                "attackEffects": {
                    "value": []
                },
                "bonus": {
                    "value": 23
                },
                "damageRolls": {
                    "szkgbox9cm1epl5ee34u": {
                        "damage": "2d12+13",
                        "damageType": "piercing"
                    }
                },
                "description": {
                    "value": ""
                },
                "rules": [],
                "slug": null,
                "source": {
                    "value": ""
                },
                "traits": {
                    "custom": "",
                    "rarity": {
                        "value": "common"
                    },
                    "value": [
                        "reach-10"
                    ]
                },
                "weaponType": {
                    "value": "melee"
                }
            },
            "effects": [],
            "flags": {},
            "img": "systems/pf2e/icons/default-icons/melee.svg",
            "name": "Jaws",
            "sort": 100000,
            "type": "melee"
        },
        {
            "_id": "t5Pe2D0CJm0NY3E4",
            "data": {
                "attack": {
                    "value": ""
                },
                "attackEffects": {
                    "value": []
                },
                "bonus": {
                    "value": 23
                },
                "damageRolls": {
                    "e7ex9whwphr4fda8pqz9": {
                        "damage": "2d8+13",
                        "damageType": "slashing"
                    }
                },
                "description": {
                    "value": ""
                },
                "rules": [],
                "slug": null,
                "source": {
                    "value": ""
                },
                "traits": {
                    "custom": "",
                    "rarity": {
                        "value": "common"
                    },
                    "value": [
                        "agile",
                        "reach-10"
                    ]
                },
                "weaponType": {
                    "value": "melee"
                }
            },
            "effects": [],
            "flags": {},
            "img": "systems/pf2e/icons/default-icons/melee.svg",
            "name": "Claw",
            "sort": 200000,
            "type": "melee"
        },
        {
            "_id": "HS9epq482gCCdlaz",
            "data": {
                "actionCategory": {
                    "value": "defensive"
                },
                "actionType": {
                    "value": "reaction"
                },
                "actions": {
                    "value": null
                },
                "description": {
                    "value": "<p><strong>Trigger</strong> A creature within the monster's reach uses a manipulate action or a move action, makes a ranged attack, or leaves a square during a move action it's using. <strong>Effect</strong> The monster attempts a melee Strike against the triggering creature. If the attack is a critical hit and the trigger was a manipulate action, the monster disrupts that action. This Strike doesn't count toward the monster's multiple attack penalty, and its multiple attack penalty doesn't apply to this Strike.</p>"
                },
                "requirements": {
                    "value": ""
                },
                "rules": [],
                "slug": null,
                "source": {
                    "value": ""
                },
                "traits": {
                    "custom": "",
                    "rarity": {
                        "value": "common"
                    },
                    "value": []
                },
                "trigger": {
                    "value": ""
                },
                "weapon": {
                    "value": ""
                }
            },
            "effects": [],
            "flags": {},
            "img": "systems/pf2e/icons/default-icons/mystery-man.svg",
            "name": "Attack of Opportunity",
            "sort": 300000,
            "type": "action"
        },
        {
            "_id": "zDDzvsB3OrJU9QXn",
            "data": {
                "actionCategory": {
                    "value": "defensive"
                },
                "actionType": {
                    "value": "reaction"
                },
                "actions": {
                    "value": null
                },
                "description": {
                    "value": "<p><strong>Trigger</strong> The troll king takes persistent acid or fire damage. <strong>Effect</strong> The troll king shakes itself to remove persistent acid or fire effects. The troll king immediately attempts a DC 15 flat check to end the persistent damage that triggered this reaction. If the troll king succeeds at this check, it can immediately use Primordial Roar as part of this reaction.</p>"
                },
                "requirements": {
                    "value": ""
                },
                "rules": [],
                "slug": null,
                "source": {
                    "value": ""
                },
                "traits": {
                    "custom": "",
                    "rarity": {
                        "value": "common"
                    },
                    "value": []
                },
                "trigger": {
                    "value": ""
                },
                "weapon": {
                    "value": ""
                }
            },
            "effects": [],
            "flags": {},
            "img": "systems/pf2e/icons/default-icons/mystery-man.svg",
            "name": "Vigorous Shake",
            "sort": 400000,
            "type": "action"
        },
        {
            "_id": "czVzxuwWmCRLgnuc",
            "data": {
                "actionCategory": {
                    "value": "offensive"
                },
                "actionType": {
                    "value": "action"
                },
                "actions": {
                    "value": 1
                },
                "description": {
                    "value": "<p><strong>Requirements</strong> The troll king's regeneration is not currently deactivated. <strong>Effect</strong> The troll king regains 15 HP.</p>"
                },
                "requirements": {
                    "value": ""
                },
                "rules": [],
                "slug": null,
                "source": {
                    "value": ""
                },
                "traits": {
                    "custom": "",
                    "rarity": {
                        "value": "common"
                    },
                    "value": [
                        "concentrate"
                    ]
                },
                "trigger": {
                    "value": ""
                },
                "weapon": {
                    "value": ""
                }
            },
            "effects": [],
            "flags": {},
            "img": "systems/pf2e/icons/default-icons/mystery-man.svg",
            "name": "Forced Regeneration",
            "sort": 500000,
            "type": "action"
        },
        {
            "_id": "3wMfK5zZSqFhhTgs",
            "data": {
                "actionCategory": {
                    "value": "offensive"
                },
                "actionType": {
                    "value": "action"
                },
                "actions": {
                    "value": 1
                },
                "description": {
                    "value": "<p>The troll king unleashes a bestial roar. Each non-troll creature within 100 feet must attempt a <span data-pf2-check=\"will\" data-pf2-dc=\"29\" data-pf2-traits=\"auditory,emotion,fear,mental\" data-pf2-label=\"Primordial Roar DC\" data-pf2-show-dc=\"gm\">Will</span> save. The creature is then temporarily immune for 10 minutes.<br /><strong>Critical Success</strong> The creature is unaffected.<br /><strong>Success</strong> The creature is frightened 1.<br /><strong>Failure</strong> The creature is frightened 2.<br /><strong>Critical Failure</strong> The creature is frightened 3.</p>"
                },
                "requirements": {
                    "value": ""
                },
                "rules": [],
                "slug": null,
                "source": {
                    "value": ""
                },
                "traits": {
                    "custom": "",
                    "rarity": {
                        "value": "common"
                    },
                    "value": [
                        "auditory",
                        "emotion",
                        "fear",
                        "mental"
                    ]
                },
                "trigger": {
                    "value": ""
                },
                "weapon": {
                    "value": ""
                }
            },
            "effects": [],
            "flags": {},
            "img": "systems/pf2e/icons/default-icons/mystery-man.svg",
            "name": "Primordial Roar",
            "sort": 600000,
            "type": "action"
        },
        {
            "_id": "Svt48vM1uvsYOsJN",
            "data": {
                "actionCategory": {
                    "value": "offensive"
                },
                "actionType": {
                    "value": "action"
                },
                "actions": {
                    "value": 1
                },
                "description": {
                    "value": "<p>claw<br />A Rend entry lists a Strike the monster has. <strong>Requirements</strong> The monster hit the same enemy with two consecutive Strikes of the listed type in the same round. <strong>Effect</strong> The monster automatically deals that Strike's damage again to the enemy.</p>"
                },
                "requirements": {
                    "value": ""
                },
                "rules": [],
                "slug": null,
                "source": {
                    "value": ""
                },
                "traits": {
                    "custom": "",
                    "rarity": {
                        "value": "common"
                    },
                    "value": []
                },
                "trigger": {
                    "value": ""
                },
                "weapon": {
                    "value": ""
                }
            },
            "effects": [],
            "flags": {},
            "img": "systems/pf2e/icons/default-icons/mystery-man.svg",
            "name": "Rend",
            "sort": 700000,
            "type": "action"
        },
        {
            "_id": "8xYRzzHeY6uZztPe",
            "data": {
                "actionCategory": {
                    "value": "offensive"
                },
                "actionType": {
                    "value": "action"
                },
                "actions": {
                    "value": 3
                },
                "description": {
                    "value": "<p>The troll king Strides twice in a straight line. It can make up to two claw Strikes during this movement and one jaws Strike at the end of its movement. It can't Strike the same creature more than once.</p>"
                },
                "requirements": {
                    "value": ""
                },
                "rules": [],
                "slug": null,
                "source": {
                    "value": ""
                },
                "traits": {
                    "custom": "",
                    "rarity": {
                        "value": "common"
                    },
                    "value": []
                },
                "trigger": {
                    "value": ""
                },
                "weapon": {
                    "value": ""
                }
            },
            "effects": [],
            "flags": {},
            "img": "systems/pf2e/icons/default-icons/mystery-man.svg",
            "name": "Unstoppable Charge",
            "sort": 800000,
            "type": "action"
        },
        {
            "_id": "bda7VWcRTo6n14tE",
            "data": {
                "description": {
                    "value": ""
                },
                "item": {
                    "value": 0
                },
                "mod": {
                    "value": 21
                },
                "proficient": {
                    "value": 0
                },
                "rules": [],
                "slug": null,
                "source": {
                    "value": ""
                },
                "traits": {
                    "custom": "",
                    "rarity": {
                        "value": "common"
                    },
                    "value": []
                }
            },
            "effects": [],
            "flags": {},
            "img": "systems/pf2e/icons/default-icons/lore.svg",
            "name": "Athletics",
            "sort": 900000,
            "type": "lore"
        },
        {
            "_id": "QsC35s0nN6dGZgDJ",
            "data": {
                "description": {
                    "value": ""
                },
                "item": {
                    "value": 0
                },
                "mod": {
                    "value": 22
                },
                "proficient": {
                    "value": 0
                },
                "rules": [],
                "slug": null,
                "source": {
                    "value": ""
                },
                "traits": {
                    "custom": "",
                    "rarity": {
                        "value": "common"
                    },
                    "value": []
                }
            },
            "effects": [],
            "flags": {},
            "img": "systems/pf2e/icons/default-icons/lore.svg",
            "name": "Intimidation",
            "sort": 1000000,
            "type": "lore"
        },
        {
            "_id": "vZVh0bjdU3Utx73N",
            "data": {
                "description": {
                    "value": ""
                },
                "item": {
                    "value": 0
                },
                "mod": {
                    "value": 17
                },
                "proficient": {
                    "value": 0
                },
                "rules": [],
                "slug": null,
                "source": {
                    "value": ""
                },
                "traits": {
                    "custom": "",
                    "rarity": {
                        "value": "common"
                    },
                    "value": []
                }
            },
            "effects": [],
            "flags": {},
            "img": "systems/pf2e/icons/default-icons/lore.svg",
            "name": "Survival",
            "sort": 1100000,
            "type": "lore"
        }
    ],
    "name": "Troll King",
    "token": {
        "disposition": -1,
        "height": 2,
        "img": "systems/pf2e/icons/default-icons/npc.svg",
        "name": "Troll King",
        "width": 2
    },
    "type": "npc"
}
