{
    "_id": "U3l6067TNWIptlbM",
    "data": {
        "description": {
            "value": "<p><strong>Requirements</strong> Bolar isn't fatigued or raging;</p>\n<p><strong>Effect</strong> Bolar gains 3 temporary Hit Points that last until the rage ends. While raging, he deals 2 additional damage with melee attacks and takes a -1 penalty to AC. The rage lasts for 1 minute, until there are no enemies Bolar can perceive, or until Bolar falls unconscious.</p>\n<p>Once the rage ends, Bolar can't Rage again for 1 minute.</p>"
        },
        "duration": {
            "expiry": "turn-start",
            "sustained": false,
            "unit": "minutes",
            "value": 1
        },
        "level": {
            "value": 1
        },
        "rules": [
            {
                "key": "PF2E.RuleElement.TempHP",
                "value": 3
            },
            {
                "key": "ActiveEffectLike",
                "mode": "override",
                "path": "flags.pf2e.rollOptions.all.bolars-rage",
                "priority": 10,
                "value": true
            }
        ],
        "source": {
            "value": ""
        },
        "start": {
            "initiative": null,
            "value": 0
        },
        "target": null,
        "tokenIcon": {
            "show": true
        },
        "traits": {
            "custom": "",
            "rarity": {
                "value": "common"
            },
            "value": []
        }
    },
    "effects": [],
    "flags": {},
    "img": "systems/pf2e/icons/features/classes/rage.webp",
    "name": "Effect: Rage - Bolar",
    "type": "effect"
}
