{
    "_id": "UNOwkQq5lc4cYdZP",
    "data": {
        "attributes": {
            "ac": {
                "check": 0,
                "details": "",
                "value": 11
            },
            "collisionDC": {
                "value": 15
            },
            "collisionDamage": {
                "value": "2d6"
            },
            "hardness": 5,
            "hp": {
                "brokenThreshold": 5,
                "details": "",
                "max": 18,
                "temp": 0,
                "value": 18
            }
        },
        "details": {
            "AC": 0,
            "crew": "1 pilot",
            "description": "",
            "level": {
                "value": 1
            },
            "passengers": "2",
            "pilotingCheck": "Driving Lore (DC 15) or Nature (DC 17 to DC 25, depending on the pulling creature)",
            "price": "25",
            "space": {
                "high": 7,
                "long": 10,
                "wide": 10
            },
            "speed": "the Speed of the slowest pulling creature (pulled by 2 Large creatures)"
        },
        "saves": {
            "fortitude": {
                "item": 0,
                "rank": 0,
                "saveDetail": "",
                "value": 7
            }
        },
        "source": {
            "value": "Gamemastery Guide"
        },
        "traits": {
            "ci": [],
            "di": {
                "custom": "",
                "value": [
                    "critical-hits",
                    "object-immunities",
                    "precision"
                ]
            },
            "dr": [],
            "dv": [],
            "rarity": {
                "value": "common"
            },
            "size": {
                "value": "lg"
            },
            "traits": {
                "custom": "",
                "value": []
            }
        }
    },
    "effects": [],
    "flags": {},
    "img": "systems/pf2e/icons/default-icons/vehicle.svg",
    "items": [],
    "name": "Wagon",
    "token": {
        "disposition": 0,
        "height": 2,
        "img": "systems/pf2e/icons/default-icons/vehicle.svg",
        "name": "Wagon",
        "width": 2
    },
    "type": "vehicle"
}
